%YAML 1.1
%TAG !u! tag:unity3d.com,2011:
--- !u!1045 &1
EditorBuildSettings:
  m_ObjectHideFlags: 0
  serializedVersion: 2
  m_Scenes:
  - enabled: 1
    path: Assets/Scenes/MainScene.unity
    guid: 9fc0d4010bbf28b4594072e72b8655ab
  - enabled: 1
    path: Assets/Scenes/Level0.unity
    guid: 8e96dbf452d85a54caa27ede152fa443
  - enabled: 1
    path: Assets/Scenes/Level1.unity
    guid: e23681d9f81656140b6e82520eb00681
  - enabled: 1
    path: Assets/Scenes/Level2.unity
    guid: 3a02cb496a560014c95aa7655a049b6e
  - enabled: 1
    path: Assets/Scenes/Level3.unity
    guid: 0dbd4834c7ba434469dbe1b67cd9bff1
  - enabled: 1
    path: Assets/Scenes/Level4.unity
    guid: a9a04cb22c43dca4db1601622ab6f940
  - enabled: 1
    path: Assets/Scenes/Level5.unity
    guid: cd07bbb49557ae1419dea6df2fffe74a
  - enabled: 1
    path: Assets/Scenes/Level6.unity
    guid: a866d7bd2a5e2fa46b7f9d4b633eaa6a
  - enabled: 1
    path: Assets/Scenes/Ballenbad.unity
    guid: 1d6ed91f85cd764459a39d39a7ee8273
  m_configObjects: {}
