%YAML 1.1
%TAG !u! tag:unity3d.com,2011:
--- !u!54 &3381405644785104744
Rigidbody:
  m_ObjectHideFlags: 0
  m_CorrespondingSourceObject: {fileID: 0}
  m_PrefabInstance: {fileID: 0}
  m_PrefabAsset: {fileID: 0}
  m_GameObject: {fileID: 2841959366431864571}
  serializedVersion: 2
  m_Mass: 0.2
  m_Drag: 0
  m_AngularDrag: 0.05
  m_UseGravity: 1
  m_IsKinematic: 0
  m_Interpolate: 0
  m_Constraints: 0
  m_CollisionDetection: 0
--- !u!135 &6766985158485616766
SphereCollider:
  m_ObjectHideFlags: 0
  m_CorrespondingSourceObject: {fileID: 0}
  m_PrefabInstance: {fileID: 0}
  m_PrefabAsset: {fileID: 0}
  m_GameObject: {fileID: 2841959366431864571}
  m_Material: {fileID: 0}
  m_IsTrigger: 0
  m_Enabled: 1
  serializedVersion: 2
  m_Radius: 0.6411915
  m_Center: {x: 0, y: 1.7398729, z: 0.16290283}
--- !u!1001 &3148512214198963114
PrefabInstance:
  m_ObjectHideFlags: 0
  serializedVersion: 2
  m_Modification:
    m_TransformParent: {fileID: 0}
    m_Modifications:
    - target: {fileID: -8679921383154817045, guid: 09aced7cdafebd74a8c2271e80aa4bc8, type: 3}
      propertyPath: m_RootOrder
      value: 0
      objectReference: {fileID: 0}
    - target: {fileID: -8679921383154817045, guid: 09aced7cdafebd74a8c2271e80aa4bc8, type: 3}
      propertyPath: m_LocalPosition.x
      value: -868.4759
      objectReference: {fileID: 0}
    - target: {fileID: -8679921383154817045, guid: 09aced7cdafebd74a8c2271e80aa4bc8, type: 3}
      propertyPath: m_LocalPosition.y
      value: 16.23
      objectReference: {fileID: 0}
    - target: {fileID: -8679921383154817045, guid: 09aced7cdafebd74a8c2271e80aa4bc8, type: 3}
      propertyPath: m_LocalPosition.z
      value: 19.11074
      objectReference: {fileID: 0}
    - target: {fileID: -8679921383154817045, guid: 09aced7cdafebd74a8c2271e80aa4bc8, type: 3}
      propertyPath: m_LocalRotation.w
      value: 1
      objectReference: {fileID: 0}
    - target: {fileID: -8679921383154817045, guid: 09aced7cdafebd74a8c2271e80aa4bc8, type: 3}
      propertyPath: m_LocalRotation.x
      value: 0
      objectReference: {fileID: 0}
    - target: {fileID: -8679921383154817045, guid: 09aced7cdafebd74a8c2271e80aa4bc8, type: 3}
      propertyPath: m_LocalRotation.y
      value: -0
      objectReference: {fileID: 0}
    - target: {fileID: -8679921383154817045, guid: 09aced7cdafebd74a8c2271e80aa4bc8, type: 3}
      propertyPath: m_LocalRotation.z
      value: -0
      objectReference: {fileID: 0}
    - target: {fileID: -8679921383154817045, guid: 09aced7cdafebd74a8c2271e80aa4bc8, type: 3}
      propertyPath: m_LocalEulerAnglesHint.x
      value: 0
      objectReference: {fileID: 0}
    - target: {fileID: -8679921383154817045, guid: 09aced7cdafebd74a8c2271e80aa4bc8, type: 3}
      propertyPath: m_LocalEulerAnglesHint.y
      value: 0
      objectReference: {fileID: 0}
    - target: {fileID: -8679921383154817045, guid: 09aced7cdafebd74a8c2271e80aa4bc8, type: 3}
      propertyPath: m_LocalEulerAnglesHint.z
      value: 0
      objectReference: {fileID: 0}
    - target: {fileID: 919132149155446097, guid: 09aced7cdafebd74a8c2271e80aa4bc8, type: 3}
      propertyPath: m_Name
      value: blueball Variant
      objectReference: {fileID: 0}
    m_RemovedComponents: []
  m_SourcePrefab: {fileID: 100100000, guid: 09aced7cdafebd74a8c2271e80aa4bc8, type: 3}
--- !u!1 &2841959366431864571 stripped
GameObject:
  m_CorrespondingSourceObject: {fileID: 919132149155446097, guid: 09aced7cdafebd74a8c2271e80aa4bc8, type: 3}
  m_PrefabInstance: {fileID: 3148512214198963114}
  m_PrefabAsset: {fileID: 0}
