%YAML 1.1
%TAG !u! tag:unity3d.com,2011:
--- !u!64 &6331409367944699677
MeshCollider:
  m_ObjectHideFlags: 0
  m_CorrespondingSourceObject: {fileID: 0}
  m_PrefabInstance: {fileID: 0}
  m_PrefabAsset: {fileID: 0}
  m_GameObject: {fileID: 2971918240655603975}
  m_Material: {fileID: 0}
  m_IsTrigger: 0
  m_Enabled: 1
  serializedVersion: 4
  m_Convex: 1
  m_CookingOptions: 30
  m_Mesh: {fileID: -2432090755550338912, guid: caf531b7d731dc54db67a1b67f71f78a, type: 3}
--- !u!54 &251713722035193862
Rigidbody:
  m_ObjectHideFlags: 0
  m_CorrespondingSourceObject: {fileID: 0}
  m_PrefabInstance: {fileID: 0}
  m_PrefabAsset: {fileID: 0}
  m_GameObject: {fileID: 2971918240655603975}
  serializedVersion: 2
  m_Mass: 1
  m_Drag: 0
  m_AngularDrag: 0.05
  m_UseGravity: 1
  m_IsKinematic: 0
  m_Interpolate: 0
  m_Constraints: 0
  m_CollisionDetection: 0
--- !u!1001 &2737966700795970646
PrefabInstance:
  m_ObjectHideFlags: 0
  serializedVersion: 2
  m_Modification:
    m_TransformParent: {fileID: 0}
    m_Modifications:
    - target: {fileID: -8679921383154817045, guid: caf531b7d731dc54db67a1b67f71f78a, type: 3}
      propertyPath: m_RootOrder
      value: 0
      objectReference: {fileID: 0}
    - target: {fileID: -8679921383154817045, guid: caf531b7d731dc54db67a1b67f71f78a, type: 3}
      propertyPath: m_LocalPosition.x
      value: -856.57
      objectReference: {fileID: 0}
    - target: {fileID: -8679921383154817045, guid: caf531b7d731dc54db67a1b67f71f78a, type: 3}
      propertyPath: m_LocalPosition.y
      value: 18.89
      objectReference: {fileID: 0}
    - target: {fileID: -8679921383154817045, guid: caf531b7d731dc54db67a1b67f71f78a, type: 3}
      propertyPath: m_LocalPosition.z
      value: 19.14892
      objectReference: {fileID: 0}
    - target: {fileID: -8679921383154817045, guid: caf531b7d731dc54db67a1b67f71f78a, type: 3}
      propertyPath: m_LocalRotation.w
      value: 1
      objectReference: {fileID: 0}
    - target: {fileID: -8679921383154817045, guid: caf531b7d731dc54db67a1b67f71f78a, type: 3}
      propertyPath: m_LocalRotation.x
      value: 0
      objectReference: {fileID: 0}
    - target: {fileID: -8679921383154817045, guid: caf531b7d731dc54db67a1b67f71f78a, type: 3}
      propertyPath: m_LocalRotation.y
      value: -0
      objectReference: {fileID: 0}
    - target: {fileID: -8679921383154817045, guid: caf531b7d731dc54db67a1b67f71f78a, type: 3}
      propertyPath: m_LocalRotation.z
      value: -0
      objectReference: {fileID: 0}
    - target: {fileID: -8679921383154817045, guid: caf531b7d731dc54db67a1b67f71f78a, type: 3}
      propertyPath: m_LocalEulerAnglesHint.x
      value: 0
      objectReference: {fileID: 0}
    - target: {fileID: -8679921383154817045, guid: caf531b7d731dc54db67a1b67f71f78a, type: 3}
      propertyPath: m_LocalEulerAnglesHint.y
      value: 0
      objectReference: {fileID: 0}
    - target: {fileID: -8679921383154817045, guid: caf531b7d731dc54db67a1b67f71f78a, type: 3}
      propertyPath: m_LocalEulerAnglesHint.z
      value: 0
      objectReference: {fileID: 0}
    - target: {fileID: 919132149155446097, guid: caf531b7d731dc54db67a1b67f71f78a, type: 3}
      propertyPath: m_Name
      value: Cat
      objectReference: {fileID: 0}
    m_RemovedComponents: []
  m_SourcePrefab: {fileID: 100100000, guid: caf531b7d731dc54db67a1b67f71f78a, type: 3}
--- !u!1 &2971918240655603975 stripped
GameObject:
  m_CorrespondingSourceObject: {fileID: 919132149155446097, guid: caf531b7d731dc54db67a1b67f71f78a, type: 3}
  m_PrefabInstance: {fileID: 2737966700795970646}
  m_PrefabAsset: {fileID: 0}
