%YAML 1.1
%TAG !u! tag:unity3d.com,2011:
--- !u!64 &1375798047
MeshCollider:
  m_ObjectHideFlags: 0
  m_CorrespondingSourceObject: {fileID: 0}
  m_PrefabInstance: {fileID: 0}
  m_PrefabAsset: {fileID: 0}
  m_GameObject: {fileID: 7490699593806417264}
  m_Material: {fileID: 0}
  m_IsTrigger: 1
  m_Enabled: 0
  serializedVersion: 4
  m_Convex: 1
  m_CookingOptions: 30
  m_Mesh: {fileID: -2432090755550338912, guid: cda95d4e190047344ad12e2d7322e0ad, type: 3}
--- !u!136 &1375798049
CapsuleCollider:
  m_ObjectHideFlags: 0
  m_CorrespondingSourceObject: {fileID: 0}
  m_PrefabInstance: {fileID: 0}
  m_PrefabAsset: {fileID: 0}
  m_GameObject: {fileID: 7490699593806417264}
  m_Material: {fileID: 0}
  m_IsTrigger: 0
  m_Enabled: 1
  m_Radius: 2.466944
  m_Height: 4.933889
  m_Direction: 0
  m_Center: {x: 0.19357038, y: 1.4921069, z: -8.0191235e-16}
--- !u!114 &5012815475403967530
MonoBehaviour:
  m_ObjectHideFlags: 0
  m_CorrespondingSourceObject: {fileID: 0}
  m_PrefabInstance: {fileID: 0}
  m_PrefabAsset: {fileID: 0}
  m_GameObject: {fileID: 7490699593806417264}
  m_Enabled: 1
  m_EditorHideFlags: 0
  m_Script: {fileID: 11500000, guid: 94e97484a629ea64d936bc05d67b6f33, type: 3}
  m_Name: 
  m_EditorClassIdentifier: 
  KipPopup: {fileID: 3645218491246580912, guid: 38e6c0f1229a58647aa81a898b8531d8, type: 3}
  selfDestructInSeconds: -1
  SpinChicken: 0
  Velocity: {x: 0, y: 0, z: 0}
--- !u!1001 &7725122818785128481
PrefabInstance:
  m_ObjectHideFlags: 0
  serializedVersion: 2
  m_Modification:
    m_TransformParent: {fileID: 0}
    m_Modifications:
    - target: {fileID: -8679921383154817045, guid: cda95d4e190047344ad12e2d7322e0ad, type: 3}
      propertyPath: m_RootOrder
      value: 0
      objectReference: {fileID: 0}
    - target: {fileID: -8679921383154817045, guid: cda95d4e190047344ad12e2d7322e0ad, type: 3}
      propertyPath: m_LocalPosition.x
      value: -790.69
      objectReference: {fileID: 0}
    - target: {fileID: -8679921383154817045, guid: cda95d4e190047344ad12e2d7322e0ad, type: 3}
      propertyPath: m_LocalPosition.y
      value: 0.8
      objectReference: {fileID: 0}
    - target: {fileID: -8679921383154817045, guid: cda95d4e190047344ad12e2d7322e0ad, type: 3}
      propertyPath: m_LocalPosition.z
      value: 3.54
      objectReference: {fileID: 0}
    - target: {fileID: -8679921383154817045, guid: cda95d4e190047344ad12e2d7322e0ad, type: 3}
      propertyPath: m_LocalRotation.w
      value: 0.7071068
      objectReference: {fileID: 0}
    - target: {fileID: -8679921383154817045, guid: cda95d4e190047344ad12e2d7322e0ad, type: 3}
      propertyPath: m_LocalRotation.x
      value: 0
      objectReference: {fileID: 0}
    - target: {fileID: -8679921383154817045, guid: cda95d4e190047344ad12e2d7322e0ad, type: 3}
      propertyPath: m_LocalRotation.y
      value: -0.7071068
      objectReference: {fileID: 0}
    - target: {fileID: -8679921383154817045, guid: cda95d4e190047344ad12e2d7322e0ad, type: 3}
      propertyPath: m_LocalRotation.z
      value: 0
      objectReference: {fileID: 0}
    - target: {fileID: -8679921383154817045, guid: cda95d4e190047344ad12e2d7322e0ad, type: 3}
      propertyPath: m_LocalEulerAnglesHint.x
      value: 0
      objectReference: {fileID: 0}
    - target: {fileID: -8679921383154817045, guid: cda95d4e190047344ad12e2d7322e0ad, type: 3}
      propertyPath: m_LocalEulerAnglesHint.y
      value: -90
      objectReference: {fileID: 0}
    - target: {fileID: -8679921383154817045, guid: cda95d4e190047344ad12e2d7322e0ad, type: 3}
      propertyPath: m_LocalEulerAnglesHint.z
      value: 0
      objectReference: {fileID: 0}
    - target: {fileID: 919132149155446097, guid: cda95d4e190047344ad12e2d7322e0ad, type: 3}
      propertyPath: m_Name
      value: Chicken Variant
      objectReference: {fileID: 0}
    - target: {fileID: 919132149155446097, guid: cda95d4e190047344ad12e2d7322e0ad, type: 3}
      propertyPath: m_TagString
      value: Kip
      objectReference: {fileID: 0}
    m_RemovedComponents: []
  m_SourcePrefab: {fileID: 100100000, guid: cda95d4e190047344ad12e2d7322e0ad, type: 3}
--- !u!1 &7490699593806417264 stripped
GameObject:
  m_CorrespondingSourceObject: {fileID: 919132149155446097, guid: cda95d4e190047344ad12e2d7322e0ad, type: 3}
  m_PrefabInstance: {fileID: 7725122818785128481}
  m_PrefabAsset: {fileID: 0}
