%YAML 1.1
%TAG !u! tag:unity3d.com,2011:
--- !u!54 &746761034383519551
Rigidbody:
  m_ObjectHideFlags: 0
  m_CorrespondingSourceObject: {fileID: 0}
  m_PrefabInstance: {fileID: 0}
  m_PrefabAsset: {fileID: 0}
  m_GameObject: {fileID: 2375756468218720605}
  serializedVersion: 2
  m_Mass: 1
  m_Drag: 0
  m_AngularDrag: 0.05
  m_UseGravity: 1
  m_IsKinematic: 0
  m_Interpolate: 0
  m_Constraints: 0
  m_CollisionDetection: 0
--- !u!65 &5761521725269113448
BoxCollider:
  m_ObjectHideFlags: 0
  m_CorrespondingSourceObject: {fileID: 0}
  m_PrefabInstance: {fileID: 0}
  m_PrefabAsset: {fileID: 0}
  m_GameObject: {fileID: 2375756468218720605}
  m_Material: {fileID: 0}
  m_IsTrigger: 0
  m_Enabled: 1
  serializedVersion: 2
  m_Size: {x: 3.9248047, y: 4.185399, z: 4.0544167}
  m_Center: {x: -0.008850098, y: 1.9838996, z: -0.000017166138}
--- !u!1001 &3186587257835244556
PrefabInstance:
  m_ObjectHideFlags: 0
  serializedVersion: 2
  m_Modification:
    m_TransformParent: {fileID: 0}
    m_Modifications:
    - target: {fileID: -8679921383154817045, guid: ca56326cbd0720e4da03e890674de9a8, type: 3}
      propertyPath: m_RootOrder
      value: 0
      objectReference: {fileID: 0}
    - target: {fileID: -8679921383154817045, guid: ca56326cbd0720e4da03e890674de9a8, type: 3}
      propertyPath: m_LocalPosition.x
      value: -834.6962
      objectReference: {fileID: 0}
    - target: {fileID: -8679921383154817045, guid: ca56326cbd0720e4da03e890674de9a8, type: 3}
      propertyPath: m_LocalPosition.y
      value: 15.85
      objectReference: {fileID: 0}
    - target: {fileID: -8679921383154817045, guid: ca56326cbd0720e4da03e890674de9a8, type: 3}
      propertyPath: m_LocalPosition.z
      value: 20.391964
      objectReference: {fileID: 0}
    - target: {fileID: -8679921383154817045, guid: ca56326cbd0720e4da03e890674de9a8, type: 3}
      propertyPath: m_LocalRotation.w
      value: 1
      objectReference: {fileID: 0}
    - target: {fileID: -8679921383154817045, guid: ca56326cbd0720e4da03e890674de9a8, type: 3}
      propertyPath: m_LocalRotation.x
      value: 0
      objectReference: {fileID: 0}
    - target: {fileID: -8679921383154817045, guid: ca56326cbd0720e4da03e890674de9a8, type: 3}
      propertyPath: m_LocalRotation.y
      value: -0
      objectReference: {fileID: 0}
    - target: {fileID: -8679921383154817045, guid: ca56326cbd0720e4da03e890674de9a8, type: 3}
      propertyPath: m_LocalRotation.z
      value: -0
      objectReference: {fileID: 0}
    - target: {fileID: -8679921383154817045, guid: ca56326cbd0720e4da03e890674de9a8, type: 3}
      propertyPath: m_LocalEulerAnglesHint.x
      value: 0
      objectReference: {fileID: 0}
    - target: {fileID: -8679921383154817045, guid: ca56326cbd0720e4da03e890674de9a8, type: 3}
      propertyPath: m_LocalEulerAnglesHint.y
      value: 0
      objectReference: {fileID: 0}
    - target: {fileID: -8679921383154817045, guid: ca56326cbd0720e4da03e890674de9a8, type: 3}
      propertyPath: m_LocalEulerAnglesHint.z
      value: 0
      objectReference: {fileID: 0}
    - target: {fileID: 919132149155446097, guid: ca56326cbd0720e4da03e890674de9a8, type: 3}
      propertyPath: m_Name
      value: DOOZ Variant
      objectReference: {fileID: 0}
    m_RemovedComponents: []
  m_SourcePrefab: {fileID: 100100000, guid: ca56326cbd0720e4da03e890674de9a8, type: 3}
--- !u!1 &2375756468218720605 stripped
GameObject:
  m_CorrespondingSourceObject: {fileID: 919132149155446097, guid: ca56326cbd0720e4da03e890674de9a8, type: 3}
  m_PrefabInstance: {fileID: 3186587257835244556}
  m_PrefabAsset: {fileID: 0}
