%YAML 1.1
%TAG !u! tag:unity3d.com,2011:
--- !u!54 &1637131742
Rigidbody:
  m_ObjectHideFlags: 0
  m_CorrespondingSourceObject: {fileID: 0}
  m_PrefabInstance: {fileID: 0}
  m_PrefabAsset: {fileID: 0}
  m_GameObject: {fileID: 4420100642425161568}
  serializedVersion: 2
  m_Mass: 0.5
  m_Drag: 0
  m_AngularDrag: 0
  m_UseGravity: 1
  m_IsKinematic: 0
  m_Interpolate: 0
  m_Constraints: 0
  m_CollisionDetection: 0
--- !u!64 &1637131741
MeshCollider:
  m_ObjectHideFlags: 0
  m_CorrespondingSourceObject: {fileID: 0}
  m_PrefabInstance: {fileID: 0}
  m_PrefabAsset: {fileID: 0}
  m_GameObject: {fileID: 4420100642425161568}
  m_Material: {fileID: 0}
  m_IsTrigger: 0
  m_Enabled: 1
  serializedVersion: 4
  m_Convex: 1
  m_CookingOptions: 30
  m_Mesh: {fileID: -2432090755550338912, guid: 8a6f11b0916e10a4e830b2d586d4a375, type: 3}
--- !u!114 &1637131743
MonoBehaviour:
  m_ObjectHideFlags: 0
  m_CorrespondingSourceObject: {fileID: 0}
  m_PrefabInstance: {fileID: 0}
  m_PrefabAsset: {fileID: 0}
  m_GameObject: {fileID: 4420100642425161568}
  m_Enabled: 1
  m_EditorHideFlags: 0
  m_Script: {fileID: 11500000, guid: 1c4e8e9550d6917419808a0c4f94be2a, type: 3}
  m_Name: 
  m_EditorClassIdentifier: 
  SecondsBetweenRandomTurns: 0.5
  SheepSpeed: 250
--- !u!1001 &3573100307564427825
PrefabInstance:
  m_ObjectHideFlags: 0
  serializedVersion: 2
  m_Modification:
    m_TransformParent: {fileID: 0}
    m_Modifications:
    - target: {fileID: -8679921383154817045, guid: 8a6f11b0916e10a4e830b2d586d4a375, type: 3}
      propertyPath: m_RootOrder
      value: 0
      objectReference: {fileID: 0}
    - target: {fileID: -8679921383154817045, guid: 8a6f11b0916e10a4e830b2d586d4a375, type: 3}
      propertyPath: m_LocalScale.x
      value: 3
      objectReference: {fileID: 0}
    - target: {fileID: -8679921383154817045, guid: 8a6f11b0916e10a4e830b2d586d4a375, type: 3}
      propertyPath: m_LocalScale.y
      value: 3
      objectReference: {fileID: 0}
    - target: {fileID: -8679921383154817045, guid: 8a6f11b0916e10a4e830b2d586d4a375, type: 3}
      propertyPath: m_LocalScale.z
      value: 3
      objectReference: {fileID: 0}
    - target: {fileID: -8679921383154817045, guid: 8a6f11b0916e10a4e830b2d586d4a375, type: 3}
      propertyPath: m_LocalPosition.x
      value: -778.72437
      objectReference: {fileID: 0}
    - target: {fileID: -8679921383154817045, guid: 8a6f11b0916e10a4e830b2d586d4a375, type: 3}
      propertyPath: m_LocalPosition.y
      value: 1
      objectReference: {fileID: 0}
    - target: {fileID: -8679921383154817045, guid: 8a6f11b0916e10a4e830b2d586d4a375, type: 3}
      propertyPath: m_LocalPosition.z
      value: 3.344535
      objectReference: {fileID: 0}
    - target: {fileID: -8679921383154817045, guid: 8a6f11b0916e10a4e830b2d586d4a375, type: 3}
      propertyPath: m_LocalRotation.w
      value: 0.7038966
      objectReference: {fileID: 0}
    - target: {fileID: -8679921383154817045, guid: 8a6f11b0916e10a4e830b2d586d4a375, type: 3}
      propertyPath: m_LocalRotation.x
      value: -0
      objectReference: {fileID: 0}
    - target: {fileID: -8679921383154817045, guid: 8a6f11b0916e10a4e830b2d586d4a375, type: 3}
      propertyPath: m_LocalRotation.y
      value: -0.71030253
      objectReference: {fileID: 0}
    - target: {fileID: -8679921383154817045, guid: 8a6f11b0916e10a4e830b2d586d4a375, type: 3}
      propertyPath: m_LocalRotation.z
      value: -0
      objectReference: {fileID: 0}
    - target: {fileID: -8679921383154817045, guid: 8a6f11b0916e10a4e830b2d586d4a375, type: 3}
      propertyPath: m_LocalEulerAnglesHint.x
      value: 0
      objectReference: {fileID: 0}
    - target: {fileID: -8679921383154817045, guid: 8a6f11b0916e10a4e830b2d586d4a375, type: 3}
      propertyPath: m_LocalEulerAnglesHint.y
      value: -90.519
      objectReference: {fileID: 0}
    - target: {fileID: -8679921383154817045, guid: 8a6f11b0916e10a4e830b2d586d4a375, type: 3}
      propertyPath: m_LocalEulerAnglesHint.z
      value: 0
      objectReference: {fileID: 0}
    - target: {fileID: 919132149155446097, guid: 8a6f11b0916e10a4e830b2d586d4a375, type: 3}
      propertyPath: m_Name
      value: Sheep
      objectReference: {fileID: 0}
    - target: {fileID: 919132149155446097, guid: 8a6f11b0916e10a4e830b2d586d4a375, type: 3}
      propertyPath: m_TagString
      value: Sheep
      objectReference: {fileID: 0}
    m_RemovedComponents: []
  m_SourcePrefab: {fileID: 100100000, guid: 8a6f11b0916e10a4e830b2d586d4a375, type: 3}
--- !u!1 &4420100642425161568 stripped
GameObject:
  m_CorrespondingSourceObject: {fileID: 919132149155446097, guid: 8a6f11b0916e10a4e830b2d586d4a375, type: 3}
  m_PrefabInstance: {fileID: 3573100307564427825}
  m_PrefabAsset: {fileID: 0}
