# MagicaVoxel @ Ephtracy

# group
o 

# material
mtllib ChickenPen.mtl
usemtl palette

# normals
vn -1 0 0
vn 1 0 0
vn 0 0 1
vn 0 0 -1
vn 0 -1 0
vn 0 1 0

# texcoords
vt 0.166016 0.5
vt 0.177734 0.5
vt 0.310547 0.5
vt 0.955078 0.5

# verts
v -1.8 0.1 1.9
v -1.8 0.1 1.4
v -1.8 0.1 -1.4
v -1.8 0.1 -1.9
v -1.8 0.6 1.9
v -1.8 0.6 1.4
v -1.8 0.6 -1.4
v -1.8 0.6 -1.9
v -1.8 0.7 1.8
v -1.8 0.7 -1.8
v -1.8 3.9 1.8
v -1.8 3.9 -1.8
v -1.8 4 1.9
v -1.8 4 1.8
v -1.8 4.1 1.8
v -1.8 4.1 1.5
v -1.8 4.2 1.5
v -1.8 4.2 1.2
v -1.8 4.3 1.2
v -1.8 4.3 0.9
v -1.8 4.4 0.9
v -1.8 4.4 0.6
v -1.8 4.5 0.6
v -1.8 4.5 0.3
v -1.8 4.6 0.3
v -1.8 4.6 -0.1
v -1.8 4.7 -0.1
v -1.8 4.7 -0.5
v -1.8 4.8 -0.5
v -1.8 4.8 -0.9
v -1.8 4.9 -0.9
v -1.8 4.9 -1.2
v -1.8 5 -1.2
v -1.8 5 -1.9
v -0.9 0 -3.5
v -0.9 0 -3.7
v -0.9 0.1 -3.4
v -0.9 0.1 -3.5
v -0.9 0.1 -3.6
v -0.9 0.1 -3.7
v -0.9 0.2 -3.3
v -0.9 0.2 -3.4
v -0.9 0.2 -3.5
v -0.9 0.2 -3.6
v -0.9 0.3 -3.2
v -0.9 0.3 -3.3
v -0.9 0.3 -3.4
v -0.9 0.3 -3.5
v -0.9 0.4 -3.1
v -0.9 0.4 -3.2
v -0.9 0.4 -3.3
v -0.9 0.4 -3.4
v -0.9 0.5 -3
v -0.9 0.5 -3.1
v -0.9 0.5 -3.2
v -0.9 0.5 -3.3
v -0.9 0.6 -2.9
v -0.9 0.6 -3
v -0.9 0.6 -3.1
v -0.9 0.6 -3.2
v -0.9 0.7 -2.8
v -0.9 0.7 -2.9
v -0.9 0.7 -3
v -0.9 0.7 -3.1
v -0.9 0.8 -2.7
v -0.9 0.8 -2.8
v -0.9 0.8 -2.9
v -0.9 0.8 -3
v -0.9 0.9 -2.6
v -0.9 0.9 -2.7
v -0.9 0.9 -2.8
v -0.9 0.9 -2.9
v -0.9 1 -2.5
v -0.9 1 -2.6
v -0.9 1 -2.7
v -0.9 1 -2.8
v -0.9 1.1 -2.4
v -0.9 1.1 -2.5
v -0.9 1.1 -2.6
v -0.9 1.1 -2.7
v -0.9 1.2 -1.9
v -0.9 1.2 -2.4
v -0.9 1.2 -2.6
v -0.9 1.3 -1.9
v -0.9 1.3 -2.4
v 0.9 0.6 -1.8
v 0.9 0.6 -1.9
v 0.9 0.7 -1.8
v 0.9 0.7 -1.9
v 0.9 1.2 -1.8
v 0.9 1.2 -1.9
v 1 1.3 0.8
v 1 1.3 -1.8
v 1 1.3 -1.9
v 1 3 0.8
v 1 3 -1.8
v 1 3 -1.9
v 1.3 0.1 1.9
v 1.3 0.1 1.4
v 1.3 0.1 -1.4
v 1.3 0.1 -1.9
v 1.3 0.6 1.9
v 1.3 0.6 1.8
v 1.3 0.6 1.4
v 1.3 0.6 -1.4
v 1.3 0.6 -1.8
v 1.3 0.6 -1.9
v 1.7 4.8 -1.7
v 1.7 4.8 -1.8
v 1.7 4.9 -1.7
v 1.7 4.9 -1.8
v 1.7 4.9 -1.9
v 1.7 5 -1.8
v 1.7 5 -1.9
v -1.7 4.8 -1.7
v -1.7 4.8 -1.8
v -1.7 4.9 -1.7
v -1.7 4.9 -1.8
v -1.7 4.9 -1.9
v -1.7 5 -1.8
v -1.7 5 -1.9
v -1.3 0.1 1.9
v -1.3 0.1 1.4
v -1.3 0.1 -1.4
v -1.3 0.1 -1.9
v -1.3 0.6 1.9
v -1.3 0.6 1.8
v -1.3 0.6 1.4
v -1.3 0.6 -1.4
v -1.3 0.6 -1.8
v -1.3 0.6 -1.9
v -1 1.3 0.8
v -1 1.3 -1.8
v -1 1.3 -1.9
v -1 3 0.8
v -1 3 -1.8
v -1 3 -1.9
v -0.9 0.6 -1.8
v -0.9 0.6 -1.9
v -0.9 0.7 -1.8
v -0.9 0.7 -1.9
v -0.9 1.2 -1.8
v -0.9 1.2 -1.9
v 0.9 0 -3.5
v 0.9 0 -3.7
v 0.9 0.1 -3.4
v 0.9 0.1 -3.5
v 0.9 0.1 -3.6
v 0.9 0.1 -3.7
v 0.9 0.2 -3.3
v 0.9 0.2 -3.4
v 0.9 0.2 -3.5
v 0.9 0.2 -3.6
v 0.9 0.3 -3.2
v 0.9 0.3 -3.3
v 0.9 0.3 -3.4
v 0.9 0.3 -3.5
v 0.9 0.4 -3.1
v 0.9 0.4 -3.2
v 0.9 0.4 -3.3
v 0.9 0.4 -3.4
v 0.9 0.5 -3
v 0.9 0.5 -3.1
v 0.9 0.5 -3.2
v 0.9 0.5 -3.3
v 0.9 0.6 -2.9
v 0.9 0.6 -3
v 0.9 0.6 -3.1
v 0.9 0.6 -3.2
v 0.9 0.7 -2.8
v 0.9 0.7 -2.9
v 0.9 0.7 -3
v 0.9 0.7 -3.1
v 0.9 0.8 -2.7
v 0.9 0.8 -2.8
v 0.9 0.8 -2.9
v 0.9 0.8 -3
v 0.9 0.9 -2.6
v 0.9 0.9 -2.7
v 0.9 0.9 -2.8
v 0.9 0.9 -2.9
v 0.9 1 -2.5
v 0.9 1 -2.6
v 0.9 1 -2.7
v 0.9 1 -2.8
v 0.9 1.1 -2.4
v 0.9 1.1 -2.5
v 0.9 1.1 -2.6
v 0.9 1.1 -2.7
v 0.9 1.2 -1.9
v 0.9 1.2 -2.4
v 0.9 1.2 -2.6
v 0.9 1.3 -1.9
v 0.9 1.3 -2.4
v 1.8 0.1 1.9
v 1.8 0.1 1.4
v 1.8 0.1 -1.4
v 1.8 0.1 -1.9
v 1.8 0.6 1.9
v 1.8 0.6 1.4
v 1.8 0.6 -1.4
v 1.8 0.6 -1.9
v 1.8 0.7 1.8
v 1.8 0.7 -1.8
v 1.8 3.9 1.8
v 1.8 3.9 -1.8
v 1.8 4 1.9
v 1.8 4 1.8
v 1.8 4.1 1.8
v 1.8 4.1 1.5
v 1.8 4.2 1.5
v 1.8 4.2 1.2
v 1.8 4.3 1.2
v 1.8 4.3 0.9
v 1.8 4.4 0.9
v 1.8 4.4 0.6
v 1.8 4.5 0.6
v 1.8 4.5 0.3
v 1.8 4.6 0.3
v 1.8 4.6 -0.1
v 1.8 4.7 -0.1
v 1.8 4.7 -0.5
v 1.8 4.8 -0.5
v 1.8 4.8 -0.9
v 1.8 4.9 -0.9
v 1.8 4.9 -1.2
v 1.8 5 -1.2
v 1.8 5 -1.9
v -1.8 0.1 1.9
v -1.8 0.6 1.9
v -1.8 4 1.9
v -1.7 0.7 1.9
v -1.7 3.9 1.9
v -1.3 0.1 1.9
v -1.3 0.6 1.9
v 1.3 0.1 1.9
v 1.3 0.6 1.9
v 1.7 0.7 1.9
v 1.7 3.9 1.9
v 1.8 0.1 1.9
v 1.8 0.6 1.9
v 1.8 4 1.9
v -1.8 4 1.8
v -1.8 4.1 1.8
v 1.8 4 1.8
v 1.8 4.1 1.8
v -1.8 4.1 1.5
v -1.8 4.2 1.5
v 1.8 4.1 1.5
v 1.8 4.2 1.5
v -1.8 4.2 1.2
v -1.8 4.3 1.2
v 1.8 4.2 1.2
v 1.8 4.3 1.2
v -1.8 4.3 0.9
v -1.8 4.4 0.9
v 1.8 4.3 0.9
v 1.8 4.4 0.9
v -1.8 4.4 0.6
v -1.8 4.5 0.6
v 1.8 4.4 0.6
v 1.8 4.5 0.6
v -1.8 4.5 0.3
v -1.8 4.6 0.3
v 1.8 4.5 0.3
v 1.8 4.6 0.3
v -1.8 4.6 -0.1
v -1.8 4.7 -0.1
v 1.8 4.6 -0.1
v 1.8 4.7 -0.1
v -1.8 4.7 -0.5
v -1.8 4.8 -0.5
v 1.8 4.7 -0.5
v 1.8 4.8 -0.5
v -1.8 4.8 -0.9
v -1.8 4.9 -0.9
v 1.8 4.8 -0.9
v 1.8 4.9 -0.9
v -1.8 4.9 -1.2
v -1.8 5 -1.2
v 1.8 4.9 -1.2
v 1.8 5 -1.2
v -1.8 0.1 -1.4
v -1.8 0.6 -1.4
v -1.7 0.6 -1.4
v -1.3 0.1 -1.4
v -1.3 0.6 -1.4
v 1.3 0.1 -1.4
v 1.3 0.6 -1.4
v 1.7 0.6 -1.4
v 1.8 0.1 -1.4
v 1.8 0.6 -1.4
v -1.7 4.8 -1.8
v -1.7 4.9 -1.8
v 1.7 4.8 -1.8
v 1.7 4.9 -1.8
v -0.9 1.1 -2.4
v -0.9 1.2 -2.4
v 0.9 1.1 -2.4
v 0.9 1.2 -2.4
v -0.9 1 -2.5
v -0.9 1.1 -2.5
v 0.9 1 -2.5
v 0.9 1.1 -2.5
v -0.9 0.9 -2.6
v -0.9 1 -2.6
v 0.9 0.9 -2.6
v 0.9 1 -2.6
v -0.9 0.8 -2.7
v -0.9 0.9 -2.7
v 0.9 0.8 -2.7
v 0.9 0.9 -2.7
v -0.9 0.7 -2.8
v -0.9 0.8 -2.8
v 0.9 0.7 -2.8
v 0.9 0.8 -2.8
v -0.9 0.6 -2.9
v -0.9 0.7 -2.9
v 0.9 0.6 -2.9
v 0.9 0.7 -2.9
v -0.9 0.5 -3
v -0.9 0.6 -3
v 0.9 0.5 -3
v 0.9 0.6 -3
v -0.9 0.4 -3.1
v -0.9 0.5 -3.1
v 0.9 0.4 -3.1
v 0.9 0.5 -3.1
v -0.9 0.3 -3.2
v -0.9 0.4 -3.2
v 0.9 0.3 -3.2
v 0.9 0.4 -3.2
v -0.9 0.2 -3.3
v -0.9 0.3 -3.3
v 0.9 0.2 -3.3
v 0.9 0.3 -3.3
v -0.9 0.1 -3.4
v -0.9 0.2 -3.4
v 0.9 0.1 -3.4
v 0.9 0.2 -3.4
v -0.9 0 -3.5
v -0.9 0.1 -3.5
v 0.9 0 -3.5
v 0.9 0.1 -3.5
v -1.8 0.1 1.4
v -1.8 0.6 1.4
v -1.7 0.6 1.4
v -1.3 0.1 1.4
v -1.3 0.6 1.4
v 1.3 0.1 1.4
v 1.3 0.6 1.4
v 1.7 0.6 1.4
v 1.8 0.1 1.4
v 1.8 0.6 1.4
v -1 1.3 0.8
v -1 3 0.8
v 1 1.3 0.8
v 1 3 0.8
v -1.7 4.8 -1.7
v -1.7 4.9 -1.7
v 1.7 4.8 -1.7
v 1.7 4.9 -1.7
v -1.7 4.9 -1.8
v -1.7 5 -1.8
v -0.9 0.6 -1.8
v -0.9 0.7 -1.8
v -0.9 1.2 -1.8
v 0.9 0.6 -1.8
v 0.9 0.7 -1.8
v 0.9 1.2 -1.8
v 1.7 4.9 -1.8
v 1.7 5 -1.8
v -1.8 0.1 -1.9
v -1.8 0.6 -1.9
v -1.8 5 -1.9
v -1.7 0.7 -1.9
v -1.7 3.9 -1.9
v -1.7 4.9 -1.9
v -1.7 5 -1.9
v -1.3 0.1 -1.9
v -1.3 0.6 -1.9
v -1.1 1.2 -1.9
v -1.1 3.2 -1.9
v -1 1.3 -1.9
v -1 3 -1.9
v -0.9 0.6 -1.9
v -0.9 0.7 -1.9
v -0.9 1.2 -1.9
v -0.9 1.3 -1.9
v 0.9 0.6 -1.9
v 0.9 0.7 -1.9
v 0.9 1.2 -1.9
v 0.9 1.3 -1.9
v 1 1.3 -1.9
v 1 3 -1.9
v 1.1 1.2 -1.9
v 1.1 3.2 -1.9
v 1.3 0.1 -1.9
v 1.3 0.6 -1.9
v 1.7 0.7 -1.9
v 1.7 3.9 -1.9
v 1.7 4.9 -1.9
v 1.7 5 -1.9
v 1.8 0.1 -1.9
v 1.8 0.6 -1.9
v 1.8 5 -1.9
v -0.9 1.2 -2.4
v -0.9 1.3 -2.4
v 0.9 1.2 -2.4
v 0.9 1.3 -2.4
v -0.9 1.1 -2.6
v -0.9 1.2 -2.6
v 0.9 1.1 -2.6
v 0.9 1.2 -2.6
v -0.9 1 -2.7
v -0.9 1.1 -2.7
v 0.9 1 -2.7
v 0.9 1.1 -2.7
v -0.9 0.9 -2.8
v -0.9 1 -2.8
v 0.9 0.9 -2.8
v 0.9 1 -2.8
v -0.9 0.8 -2.9
v -0.9 0.9 -2.9
v 0.9 0.8 -2.9
v 0.9 0.9 -2.9
v -0.9 0.7 -3
v -0.9 0.8 -3
v 0.9 0.7 -3
v 0.9 0.8 -3
v -0.9 0.6 -3.1
v -0.9 0.7 -3.1
v 0.9 0.6 -3.1
v 0.9 0.7 -3.1
v -0.9 0.5 -3.2
v -0.9 0.6 -3.2
v 0.9 0.5 -3.2
v 0.9 0.6 -3.2
v -0.9 0.4 -3.3
v -0.9 0.5 -3.3
v 0.9 0.4 -3.3
v 0.9 0.5 -3.3
v -0.9 0.3 -3.4
v -0.9 0.4 -3.4
v 0.9 0.3 -3.4
v 0.9 0.4 -3.4
v -0.9 0.2 -3.5
v -0.9 0.3 -3.5
v 0.9 0.2 -3.5
v 0.9 0.3 -3.5
v -0.9 0.1 -3.6
v -0.9 0.2 -3.6
v 0.9 0.1 -3.6
v 0.9 0.2 -3.6
v -0.9 0 -3.7
v -0.9 0.1 -3.7
v 0.9 0 -3.7
v 0.9 0.1 -3.7
v -0.9 0 -3.5
v 0.9 0 -3.5
v -0.9 0 -3.7
v 0.9 0 -3.7
v -1.8 0.1 1.9
v -1.3 0.1 1.9
v 1.3 0.1 1.9
v 1.8 0.1 1.9
v -1.8 0.1 1.4
v -1.3 0.1 1.4
v 1.3 0.1 1.4
v 1.8 0.1 1.4
v -1.8 0.1 -1.4
v -1.3 0.1 -1.4
v 1.3 0.1 -1.4
v 1.8 0.1 -1.4
v -1.8 0.1 -1.9
v -1.3 0.1 -1.9
v 1.3 0.1 -1.9
v 1.8 0.1 -1.9
v -0.9 0.1 -3.4
v 0.9 0.1 -3.4
v -0.9 0.1 -3.5
v 0.9 0.1 -3.5
v -0.9 0.2 -3.3
v 0.9 0.2 -3.3
v -0.9 0.2 -3.4
v 0.9 0.2 -3.4
v -0.9 0.3 -3.2
v 0.9 0.3 -3.2
v -0.9 0.3 -3.3
v 0.9 0.3 -3.3
v -0.9 0.4 -3.1
v 0.9 0.4 -3.1
v -0.9 0.4 -3.2
v 0.9 0.4 -3.2
v -0.9 0.5 -3
v 0.9 0.5 -3
v -0.9 0.5 -3.1
v 0.9 0.5 -3.1
v -1.3 0.6 1.9
v 1.3 0.6 1.9
v -1.3 0.6 1.8
v 1.3 0.6 1.8
v -1.8 0.6 1.4
v -1.7 0.6 1.4
v -1.3 0.6 1.4
v 1.3 0.6 1.4
v 1.7 0.6 1.4
v 1.8 0.6 1.4
v -1.8 0.6 -1.4
v -1.7 0.6 -1.4
v -1.3 0.6 -1.4
v 1.3 0.6 -1.4
v 1.7 0.6 -1.4
v 1.8 0.6 -1.4
v -0.9 0.6 -1.7
v 0.9 0.6 -1.7
v -1.3 0.6 -1.8
v -0.9 0.6 -1.8
v 0.9 0.6 -1.8
v 1.3 0.6 -1.8
v -1.3 0.6 -1.9
v -0.9 0.6 -1.9
v 0.9 0.6 -1.9
v 1.3 0.6 -1.9
v -0.9 0.6 -2.9
v 0.9 0.6 -2.9
v -0.9 0.6 -3
v 0.9 0.6 -3
v -0.9 0.7 -2.8
v 0.9 0.7 -2.8
v -0.9 0.7 -2.9
v 0.9 0.7 -2.9
v -0.9 0.8 -2.7
v 0.9 0.8 -2.7
v -0.9 0.8 -2.8
v 0.9 0.8 -2.8
v -0.9 0.9 -2.6
v 0.9 0.9 -2.6
v -0.9 0.9 -2.7
v 0.9 0.9 -2.7
v -0.9 1 -2.5
v 0.9 1 -2.5
v -0.9 1 -2.6
v 0.9 1 -2.6
v -0.9 1.1 -2.4
v 0.9 1.1 -2.4
v -0.9 1.1 -2.5
v 0.9 1.1 -2.5
v -0.9 1.2 -1.8
v 0.9 1.2 -1.8
v -0.9 1.2 -1.9
v 0.9 1.2 -1.9
v -0.9 1.2 -2.4
v 0.9 1.2 -2.4
v -1 3 0.8
v 1 3 0.8
v -1 3 -1.8
v 1 3 -1.8
v -1 3 -1.9
v 1 3 -1.9
v -1.7 4.9 -1.7
v 1.7 4.9 -1.7
v -1.7 4.9 -1.8
v 1.7 4.9 -1.8
v -0.9 0.1 -3.6
v 0.9 0.1 -3.6
v -0.9 0.1 -3.7
v 0.9 0.1 -3.7
v -0.9 0.2 -3.5
v 0.9 0.2 -3.5
v -0.9 0.2 -3.6
v 0.9 0.2 -3.6
v -0.9 0.3 -3.4
v 0.9 0.3 -3.4
v -0.9 0.3 -3.5
v 0.9 0.3 -3.5
v -0.9 0.4 -3.3
v 0.9 0.4 -3.3
v -0.9 0.4 -3.4
v 0.9 0.4 -3.4
v -0.9 0.5 -3.2
v 0.9 0.5 -3.2
v -0.9 0.5 -3.3
v 0.9 0.5 -3.3
v -0.9 0.6 -3.1
v 0.9 0.6 -3.1
v -0.9 0.6 -3.2
v 0.9 0.6 -3.2
v -0.9 0.7 -3
v 0.9 0.7 -3
v -0.9 0.7 -3.1
v 0.9 0.7 -3.1
v -0.9 0.8 -2.9
v 0.9 0.8 -2.9
v -0.9 0.8 -3
v 0.9 0.8 -3
v -0.9 0.9 -2.8
v 0.9 0.9 -2.8
v -0.9 0.9 -2.9
v 0.9 0.9 -2.9
v -0.9 1 -2.7
v 0.9 1 -2.7
v -0.9 1 -2.8
v 0.9 1 -2.8
v -0.9 1.1 -2.6
v 0.9 1.1 -2.6
v -0.9 1.1 -2.7
v 0.9 1.1 -2.7
v -0.9 1.2 -2.4
v 0.9 1.2 -2.4
v -0.9 1.2 -2.6
v 0.9 1.2 -2.6
v -1 1.3 0.8
v 1 1.3 0.8
v -1 1.3 -1.8
v -0.9 1.3 -1.8
v 0.9 1.3 -1.8
v 1 1.3 -1.8
v -1 1.3 -1.9
v -0.9 1.3 -1.9
v 0.9 1.3 -1.9
v 1 1.3 -1.9
v -0.9 1.3 -2.4
v 0.9 1.3 -2.4
v -1.8 4 1.9
v 1.8 4 1.9
v -1.8 4 1.8
v 1.8 4 1.8
v -1.8 4.1 1.8
v 1.8 4.1 1.8
v -1.8 4.1 1.5
v 1.8 4.1 1.5
v -1.8 4.2 1.5
v 1.8 4.2 1.5
v -1.8 4.2 1.2
v 1.8 4.2 1.2
v -1.8 4.3 1.2
v 1.8 4.3 1.2
v -1.8 4.3 0.9
v 1.8 4.3 0.9
v -1.8 4.4 0.9
v 1.8 4.4 0.9
v -1.8 4.4 0.6
v 1.8 4.4 0.6
v -1.8 4.5 0.6
v 1.8 4.5 0.6
v -1.8 4.5 0.3
v 1.8 4.5 0.3
v -1.8 4.6 0.3
v 1.8 4.6 0.3
v -1.8 4.6 -0.1
v 1.8 4.6 -0.1
v -1.8 4.7 -0.1
v 1.8 4.7 -0.1
v -1.8 4.7 -0.5
v 1.8 4.7 -0.5
v -1.8 4.8 -0.5
v 1.8 4.8 -0.5
v -1.8 4.8 -0.9
v 1.8 4.8 -0.9
v -1.7 4.8 -1.7
v 1.7 4.8 -1.7
v -1.7 4.8 -1.8
v 1.7 4.8 -1.8
v -1.8 4.9 -0.9
v 1.8 4.9 -0.9
v -1.8 4.9 -1.2
v 1.8 4.9 -1.2
v -1.7 4.9 -1.8
v 1.7 4.9 -1.8
v -1.7 4.9 -1.9
v 1.7 4.9 -1.9
v -1.8 5 -1.2
v 1.8 5 -1.2
v -1.7 5 -1.8
v 1.7 5 -1.8
v -1.8 5 -1.9
v -1.7 5 -1.9
v 1.7 5 -1.9
v 1.8 5 -1.9

# faces
f 5/3/1 2/3/1 1/3/1
f 6/3/1 2/3/1 5/3/1
f 7/3/1 4/3/1 3/3/1
f 8/3/1 4/3/1 7/3/1
f 9/1/1 6/1/1 5/1/1
f 9/1/1 7/1/1 6/1/1
f 9/1/1 8/1/1 7/1/1
f 10/1/1 8/1/1 9/1/1
f 11/1/1 9/1/1 5/1/1
f 11/3/1 10/3/1 9/3/1
f 12/1/1 8/1/1 10/1/1
f 12/3/1 10/3/1 11/3/1
f 13/1/1 11/1/1 5/1/1
f 13/1/1 12/1/1 11/1/1
f 14/1/1 12/1/1 13/1/1
f 15/1/1 12/1/1 14/1/1
f 16/1/1 12/1/1 15/1/1
f 17/1/1 12/1/1 16/1/1
f 18/1/1 12/1/1 17/1/1
f 19/1/1 12/1/1 18/1/1
f 20/1/1 12/1/1 19/1/1
f 21/1/1 12/1/1 20/1/1
f 22/1/1 12/1/1 21/1/1
f 23/1/1 12/1/1 22/1/1
f 24/1/1 12/1/1 23/1/1
f 25/1/1 12/1/1 24/1/1
f 26/1/1 12/1/1 25/1/1
f 27/1/1 12/1/1 26/1/1
f 28/1/1 12/1/1 27/1/1
f 29/1/1 12/1/1 28/1/1
f 30/1/1 12/1/1 29/1/1
f 31/1/1 12/1/1 30/1/1
f 32/1/1 12/1/1 31/1/1
f 33/1/1 12/1/1 32/1/1
f 34/1/1 8/1/1 12/1/1
f 34/1/1 12/1/1 33/1/1
f 38/1/1 36/1/1 35/1/1
f 39/1/1 36/1/1 38/1/1
f 40/1/1 36/1/1 39/1/1
f 42/1/1 38/1/1 37/1/1
f 42/1/1 39/1/1 38/1/1
f 43/1/1 39/1/1 42/1/1
f 44/1/1 39/1/1 43/1/1
f 46/1/1 42/1/1 41/1/1
f 46/1/1 43/1/1 42/1/1
f 47/1/1 43/1/1 46/1/1
f 48/1/1 43/1/1 47/1/1
f 50/1/1 46/1/1 45/1/1
f 50/1/1 47/1/1 46/1/1
f 51/1/1 47/1/1 50/1/1
f 52/1/1 47/1/1 51/1/1
f 54/1/1 50/1/1 49/1/1
f 54/1/1 51/1/1 50/1/1
f 55/1/1 51/1/1 54/1/1
f 56/1/1 51/1/1 55/1/1
f 58/1/1 54/1/1 53/1/1
f 58/1/1 55/1/1 54/1/1
f 59/1/1 55/1/1 58/1/1
f 60/1/1 55/1/1 59/1/1
f 62/1/1 58/1/1 57/1/1
f 62/1/1 59/1/1 58/1/1
f 63/1/1 59/1/1 62/1/1
f 64/1/1 59/1/1 63/1/1
f 66/1/1 62/1/1 61/1/1
f 66/1/1 63/1/1 62/1/1
f 67/1/1 63/1/1 66/1/1
f 68/1/1 63/1/1 67/1/1
f 70/1/1 66/1/1 65/1/1
f 70/1/1 67/1/1 66/1/1
f 71/1/1 67/1/1 70/1/1
f 72/1/1 67/1/1 71/1/1
f 74/1/1 70/1/1 69/1/1
f 74/1/1 71/1/1 70/1/1
f 75/1/1 71/1/1 74/1/1
f 76/1/1 71/1/1 75/1/1
f 78/1/1 74/1/1 73/1/1
f 78/1/1 75/1/1 74/1/1
f 79/1/1 75/1/1 78/1/1
f 80/1/1 75/1/1 79/1/1
f 82/1/1 78/1/1 77/1/1
f 82/1/1 79/1/1 78/1/1
f 83/1/1 79/1/1 82/1/1
f 84/1/1 82/1/1 81/1/1
f 85/1/1 82/1/1 84/1/1
f 88/1/1 87/1/1 86/1/1
f 89/1/1 87/1/1 88/1/1
f 90/3/1 89/3/1 88/3/1
f 91/3/1 89/3/1 90/3/1
f 95/4/1 93/4/1 92/4/1
f 96/2/1 94/2/1 93/2/1
f 96/4/1 93/4/1 95/4/1
f 97/2/1 94/2/1 96/2/1
f 102/3/1 99/3/1 98/3/1
f 103/3/1 99/3/1 102/3/1
f 104/3/1 99/3/1 103/3/1
f 105/3/1 101/3/1 100/3/1
f 106/3/1 101/3/1 105/3/1
f 107/3/1 101/3/1 106/3/1
f 110/1/1 109/1/1 108/1/1
f 111/1/1 109/1/1 110/1/1
f 113/1/1 112/1/1 111/1/1
f 114/1/1 112/1/1 113/1/1
f 115/1/2 116/1/2 117/1/2
f 117/1/2 116/1/2 118/1/2
f 118/1/2 119/1/2 120/1/2
f 120/1/2 119/1/2 121/1/2
f 122/3/2 123/3/2 126/3/2
f 126/3/2 123/3/2 127/3/2
f 127/3/2 123/3/2 128/3/2
f 124/3/2 125/3/2 129/3/2
f 129/3/2 125/3/2 130/3/2
f 130/3/2 125/3/2 131/3/2
f 132/4/2 133/4/2 135/4/2
f 133/2/2 134/2/2 136/2/2
f 135/4/2 133/4/2 136/4/2
f 136/2/2 134/2/2 137/2/2
f 138/1/2 139/1/2 140/1/2
f 140/1/2 139/1/2 141/1/2
f 140/3/2 141/3/2 142/3/2
f 142/3/2 141/3/2 143/3/2
f 144/1/2 145/1/2 147/1/2
f 147/1/2 145/1/2 148/1/2
f 148/1/2 145/1/2 149/1/2
f 146/1/2 147/1/2 151/1/2
f 147/1/2 148/1/2 151/1/2
f 151/1/2 148/1/2 152/1/2
f 152/1/2 148/1/2 153/1/2
f 150/1/2 151/1/2 155/1/2
f 151/1/2 152/1/2 155/1/2
f 155/1/2 152/1/2 156/1/2
f 156/1/2 152/1/2 157/1/2
f 154/1/2 155/1/2 159/1/2
f 155/1/2 156/1/2 159/1/2
f 159/1/2 156/1/2 160/1/2
f 160/1/2 156/1/2 161/1/2
f 158/1/2 159/1/2 163/1/2
f 159/1/2 160/1/2 163/1/2
f 163/1/2 160/1/2 164/1/2
f 164/1/2 160/1/2 165/1/2
f 162/1/2 163/1/2 167/1/2
f 163/1/2 164/1/2 167/1/2
f 167/1/2 164/1/2 168/1/2
f 168/1/2 164/1/2 169/1/2
f 166/1/2 167/1/2 171/1/2
f 167/1/2 168/1/2 171/1/2
f 171/1/2 168/1/2 172/1/2
f 172/1/2 168/1/2 173/1/2
f 170/1/2 171/1/2 175/1/2
f 171/1/2 172/1/2 175/1/2
f 175/1/2 172/1/2 176/1/2
f 176/1/2 172/1/2 177/1/2
f 174/1/2 175/1/2 179/1/2
f 175/1/2 176/1/2 179/1/2
f 179/1/2 176/1/2 180/1/2
f 180/1/2 176/1/2 181/1/2
f 178/1/2 179/1/2 183/1/2
f 179/1/2 180/1/2 183/1/2
f 183/1/2 180/1/2 184/1/2
f 184/1/2 180/1/2 185/1/2
f 182/1/2 183/1/2 187/1/2
f 183/1/2 184/1/2 187/1/2
f 187/1/2 184/1/2 188/1/2
f 188/1/2 184/1/2 189/1/2
f 186/1/2 187/1/2 191/1/2
f 187/1/2 188/1/2 191/1/2
f 191/1/2 188/1/2 192/1/2
f 190/1/2 191/1/2 193/1/2
f 193/1/2 191/1/2 194/1/2
f 195/3/2 196/3/2 199/3/2
f 199/3/2 196/3/2 200/3/2
f 197/3/2 198/3/2 201/3/2
f 201/3/2 198/3/2 202/3/2
f 199/1/2 200/1/2 203/1/2
f 200/1/2 201/1/2 203/1/2
f 201/1/2 202/1/2 203/1/2
f 203/1/2 202/1/2 204/1/2
f 199/1/2 203/1/2 205/1/2
f 203/3/2 204/3/2 205/3/2
f 204/1/2 202/1/2 206/1/2
f 205/3/2 204/3/2 206/3/2
f 199/1/2 205/1/2 207/1/2
f 205/1/2 206/1/2 207/1/2
f 207/1/2 206/1/2 208/1/2
f 208/1/2 206/1/2 209/1/2
f 209/1/2 206/1/2 210/1/2
f 210/1/2 206/1/2 211/1/2
f 211/1/2 206/1/2 212/1/2
f 212/1/2 206/1/2 213/1/2
f 213/1/2 206/1/2 214/1/2
f 214/1/2 206/1/2 215/1/2
f 215/1/2 206/1/2 216/1/2
f 216/1/2 206/1/2 217/1/2
f 217/1/2 206/1/2 218/1/2
f 218/1/2 206/1/2 219/1/2
f 219/1/2 206/1/2 220/1/2
f 220/1/2 206/1/2 221/1/2
f 221/1/2 206/1/2 222/1/2
f 222/1/2 206/1/2 223/1/2
f 223/1/2 206/1/2 224/1/2
f 224/1/2 206/1/2 225/1/2
f 225/1/2 206/1/2 226/1/2
f 226/1/2 206/1/2 227/1/2
f 206/1/2 202/1/2 228/1/2
f 227/1/2 206/1/2 228/1/2
f 232/1/3 231/1/3 230/1/3
f 233/1/3 231/1/3 232/1/3
f 234/3/3 230/3/3 229/3/3
f 235/1/3 232/1/3 230/1/3
f 235/3/3 230/3/3 234/3/3
f 237/1/3 232/1/3 235/1/3
f 238/3/3 233/3/3 232/3/3
f 238/1/3 232/1/3 237/1/3
f 239/1/3 231/1/3 233/1/3
f 239/3/3 233/3/3 238/3/3
f 240/3/3 237/3/3 236/3/3
f 241/1/3 238/1/3 237/1/3
f 241/3/3 237/3/3 240/3/3
f 241/1/3 239/1/3 238/1/3
f 242/1/3 231/1/3 239/1/3
f 242/1/3 239/1/3 241/1/3
f 245/1/3 244/1/3 243/1/3
f 246/1/3 244/1/3 245/1/3
f 249/1/3 248/1/3 247/1/3
f 250/1/3 248/1/3 249/1/3
f 253/1/3 252/1/3 251/1/3
f 254/1/3 252/1/3 253/1/3
f 257/1/3 256/1/3 255/1/3
f 258/1/3 256/1/3 257/1/3
f 261/1/3 260/1/3 259/1/3
f 262/1/3 260/1/3 261/1/3
f 265/1/3 264/1/3 263/1/3
f 266/1/3 264/1/3 265/1/3
f 269/1/3 268/1/3 267/1/3
f 270/1/3 268/1/3 269/1/3
f 273/1/3 272/1/3 271/1/3
f 274/1/3 272/1/3 273/1/3
f 277/1/3 276/1/3 275/1/3
f 278/1/3 276/1/3 277/1/3
f 281/1/3 280/1/3 279/1/3
f 282/1/3 280/1/3 281/1/3
f 285/3/3 284/3/3 283/3/3
f 286/3/3 285/3/3 283/3/3
f 287/3/3 285/3/3 286/3/3
f 290/3/3 289/3/3 288/3/3
f 291/3/3 290/3/3 288/3/3
f 292/3/3 290/3/3 291/3/3
f 295/1/3 294/1/3 293/1/3
f 296/1/3 294/1/3 295/1/3
f 299/1/3 298/1/3 297/1/3
f 300/1/3 298/1/3 299/1/3
f 303/1/3 302/1/3 301/1/3
f 304/1/3 302/1/3 303/1/3
f 307/1/3 306/1/3 305/1/3
f 308/1/3 306/1/3 307/1/3
f 311/1/3 310/1/3 309/1/3
f 312/1/3 310/1/3 311/1/3
f 315/1/3 314/1/3 313/1/3
f 316/1/3 314/1/3 315/1/3
f 319/1/3 318/1/3 317/1/3
f 320/1/3 318/1/3 319/1/3
f 323/1/3 322/1/3 321/1/3
f 324/1/3 322/1/3 323/1/3
f 327/1/3 326/1/3 325/1/3
f 328/1/3 326/1/3 327/1/3
f 331/1/3 330/1/3 329/1/3
f 332/1/3 330/1/3 331/1/3
f 335/1/3 334/1/3 333/1/3
f 336/1/3 334/1/3 335/1/3
f 339/1/3 338/1/3 337/1/3
f 340/1/3 338/1/3 339/1/3
f 343/1/3 342/1/3 341/1/3
f 344/1/3 342/1/3 343/1/3
f 345/3/4 346/3/4 347/3/4
f 345/3/4 347/3/4 348/3/4
f 348/3/4 347/3/4 349/3/4
f 350/3/4 351/3/4 352/3/4
f 350/3/4 352/3/4 353/3/4
f 353/3/4 352/3/4 354/3/4
f 355/4/4 356/4/4 357/4/4
f 357/4/4 356/4/4 358/4/4
f 359/1/4 360/1/4 361/1/4
f 361/1/4 360/1/4 362/1/4
f 365/1/4 366/1/4 368/1/4
f 366/3/4 367/3/4 369/3/4
f 368/1/4 366/1/4 369/1/4
f 369/3/4 367/3/4 370/3/4
f 363/1/4 364/1/4 371/1/4
f 371/1/4 364/1/4 372/1/4
f 374/1/4 375/1/4 376/1/4
f 376/1/4 375/1/4 377/1/4
f 377/1/4 375/1/4 378/1/4
f 378/1/4 375/1/4 379/1/4
f 373/3/4 374/3/4 380/3/4
f 374/1/4 376/1/4 381/1/4
f 380/3/4 374/3/4 381/3/4
f 376/3/4 377/3/4 382/3/4
f 382/3/4 377/3/4 383/3/4
f 382/2/4 383/2/4 384/2/4
f 384/2/4 383/2/4 385/2/4
f 381/1/4 376/1/4 386/1/4
f 376/3/4 382/3/4 387/3/4
f 386/1/4 376/1/4 387/1/4
f 382/2/4 384/2/4 388/2/4
f 387/3/4 382/3/4 388/3/4
f 388/2/4 384/2/4 389/2/4
f 392/2/4 393/2/4 394/2/4
f 385/2/4 383/2/4 395/2/4
f 392/2/4 394/2/4 396/2/4
f 394/2/4 395/2/4 396/2/4
f 391/3/4 392/3/4 396/3/4
f 395/2/4 383/2/4 397/2/4
f 396/2/4 395/2/4 397/2/4
f 383/3/4 377/3/4 397/3/4
f 390/1/4 391/1/4 399/1/4
f 391/3/4 396/3/4 400/3/4
f 396/3/4 397/3/4 400/3/4
f 399/1/4 391/1/4 400/1/4
f 377/1/4 378/1/4 401/1/4
f 400/3/4 397/3/4 401/3/4
f 397/3/4 377/3/4 401/3/4
f 401/1/4 378/1/4 402/1/4
f 398/3/4 399/3/4 404/3/4
f 402/1/4 403/1/4 405/1/4
f 404/3/4 399/3/4 405/3/4
f 399/1/4 400/1/4 405/1/4
f 401/1/4 402/1/4 405/1/4
f 400/1/4 401/1/4 405/1/4
f 405/1/4 403/1/4 406/1/4
f 407/1/4 408/1/4 409/1/4
f 409/1/4 408/1/4 410/1/4
f 411/1/4 412/1/4 413/1/4
f 413/1/4 412/1/4 414/1/4
f 415/1/4 416/1/4 417/1/4
f 417/1/4 416/1/4 418/1/4
f 419/1/4 420/1/4 421/1/4
f 421/1/4 420/1/4 422/1/4
f 423/1/4 424/1/4 425/1/4
f 425/1/4 424/1/4 426/1/4
f 427/1/4 428/1/4 429/1/4
f 429/1/4 428/1/4 430/1/4
f 431/1/4 432/1/4 433/1/4
f 433/1/4 432/1/4 434/1/4
f 435/1/4 436/1/4 437/1/4
f 437/1/4 436/1/4 438/1/4
f 439/1/4 440/1/4 441/1/4
f 441/1/4 440/1/4 442/1/4
f 443/1/4 444/1/4 445/1/4
f 445/1/4 444/1/4 446/1/4
f 447/1/4 448/1/4 449/1/4
f 449/1/4 448/1/4 450/1/4
f 451/1/4 452/1/4 453/1/4
f 453/1/4 452/1/4 454/1/4
f 455/1/4 456/1/4 457/1/4
f 457/1/4 456/1/4 458/1/4
f 461/1/5 460/1/5 459/1/5
f 462/1/5 460/1/5 461/1/5
f 467/3/5 464/3/5 463/3/5
f 468/3/5 464/3/5 467/3/5
f 469/3/5 466/3/5 465/3/5
f 470/3/5 466/3/5 469/3/5
f 475/3/5 472/3/5 471/3/5
f 476/3/5 472/3/5 475/3/5
f 477/3/5 474/3/5 473/3/5
f 478/3/5 474/3/5 477/3/5
f 481/1/5 480/1/5 479/1/5
f 482/1/5 480/1/5 481/1/5
f 485/1/5 484/1/5 483/1/5
f 486/1/5 484/1/5 485/1/5
f 489/1/5 488/1/5 487/1/5
f 490/1/5 488/1/5 489/1/5
f 493/1/5 492/1/5 491/1/5
f 494/1/5 492/1/5 493/1/5
f 497/1/5 496/1/5 495/1/5
f 498/1/5 496/1/5 497/1/5
f 501/1/5 500/1/5 499/1/5
f 502/1/5 500/1/5 501/1/5
f 505/3/5 502/3/5 501/3/5
f 506/3/5 502/3/5 505/3/5
f 509/1/5 504/1/5 503/1/5
f 510/3/5 506/3/5 505/3/5
f 510/1/5 504/1/5 509/1/5
f 510/3/5 505/3/5 504/3/5
f 510/3/5 507/3/5 506/3/5
f 511/3/5 507/3/5 510/3/5
f 512/3/5 507/3/5 511/3/5
f 513/1/5 508/1/5 507/1/5
f 513/3/5 507/3/5 512/3/5
f 514/1/5 508/1/5 513/1/5
f 515/3/5 512/3/5 511/3/5
f 516/3/5 512/3/5 515/3/5
f 517/3/5 515/3/5 511/3/5
f 518/1/5 516/1/5 515/1/5
f 518/3/5 515/3/5 517/3/5
f 519/3/5 512/3/5 516/3/5
f 519/1/5 516/1/5 518/1/5
f 520/3/5 512/3/5 519/3/5
f 521/1/5 518/1/5 517/1/5
f 522/1/5 518/1/5 521/1/5
f 523/1/5 520/1/5 519/1/5
f 524/1/5 520/1/5 523/1/5
f 527/1/5 526/1/5 525/1/5
f 528/1/5 526/1/5 527/1/5
f 531/1/5 530/1/5 529/1/5
f 532/1/5 530/1/5 531/1/5
f 535/1/5 534/1/5 533/1/5
f 536/1/5 534/1/5 535/1/5
f 539/1/5 538/1/5 537/1/5
f 540/1/5 538/1/5 539/1/5
f 543/1/5 542/1/5 541/1/5
f 544/1/5 542/1/5 543/1/5
f 547/1/5 546/1/5 545/1/5
f 548/1/5 546/1/5 547/1/5
f 551/1/5 550/1/5 549/1/5
f 552/1/5 550/1/5 551/1/5
f 553/1/5 552/1/5 551/1/5
f 554/1/5 552/1/5 553/1/5
f 557/4/5 556/4/5 555/4/5
f 558/4/5 556/4/5 557/4/5
f 559/2/5 558/2/5 557/2/5
f 560/2/5 558/2/5 559/2/5
f 563/1/5 562/1/5 561/1/5
f 564/1/5 562/1/5 563/1/5
f 565/1/6 566/1/6 567/1/6
f 567/1/6 566/1/6 568/1/6
f 569/1/6 570/1/6 571/1/6
f 571/1/6 570/1/6 572/1/6
f 573/1/6 574/1/6 575/1/6
f 575/1/6 574/1/6 576/1/6
f 577/1/6 578/1/6 579/1/6
f 579/1/6 578/1/6 580/1/6
f 581/1/6 582/1/6 583/1/6
f 583/1/6 582/1/6 584/1/6
f 585/1/6 586/1/6 587/1/6
f 587/1/6 586/1/6 588/1/6
f 589/1/6 590/1/6 591/1/6
f 591/1/6 590/1/6 592/1/6
f 593/1/6 594/1/6 595/1/6
f 595/1/6 594/1/6 596/1/6
f 597/1/6 598/1/6 599/1/6
f 599/1/6 598/1/6 600/1/6
f 601/1/6 602/1/6 603/1/6
f 603/1/6 602/1/6 604/1/6
f 605/1/6 606/1/6 607/1/6
f 607/1/6 606/1/6 608/1/6
f 609/1/6 610/1/6 611/1/6
f 611/1/6 610/1/6 612/1/6
f 613/4/6 614/4/6 615/4/6
f 615/4/6 614/4/6 616/4/6
f 616/4/6 614/4/6 617/4/6
f 617/4/6 614/4/6 618/4/6
f 615/2/6 616/2/6 619/2/6
f 616/1/6 617/1/6 620/1/6
f 619/2/6 616/2/6 620/2/6
f 617/2/6 618/2/6 621/2/6
f 620/1/6 617/1/6 621/1/6
f 621/2/6 618/2/6 622/2/6
f 620/1/6 621/1/6 623/1/6
f 623/1/6 621/1/6 624/1/6
f 625/1/6 626/1/6 627/1/6
f 627/1/6 626/1/6 628/1/6
f 629/1/6 630/1/6 631/1/6
f 631/1/6 630/1/6 632/1/6
f 633/1/6 634/1/6 635/1/6
f 635/1/6 634/1/6 636/1/6
f 637/1/6 638/1/6 639/1/6
f 639/1/6 638/1/6 640/1/6
f 641/1/6 642/1/6 643/1/6
f 643/1/6 642/1/6 644/1/6
f 645/1/6 646/1/6 647/1/6
f 647/1/6 646/1/6 648/1/6
f 649/1/6 650/1/6 651/1/6
f 651/1/6 650/1/6 652/1/6
f 653/1/6 654/1/6 655/1/6
f 655/1/6 654/1/6 656/1/6
f 657/1/6 658/1/6 659/1/6
f 659/1/6 658/1/6 660/1/6
f 661/1/6 662/1/6 663/1/6
f 663/1/6 662/1/6 664/1/6
f 665/1/6 666/1/6 667/1/6
f 667/1/6 666/1/6 668/1/6
f 669/1/6 670/1/6 671/1/6
f 671/1/6 670/1/6 672/1/6
f 673/1/6 674/1/6 675/1/6
f 675/1/6 674/1/6 676/1/6
f 673/1/6 675/1/6 677/1/6
f 677/1/6 675/1/6 678/1/6
f 676/1/6 674/1/6 679/1/6
f 679/1/6 674/1/6 680/1/6
