# MagicaVoxel @ Ephtracy

# group
o 

# material
mtllib HatHat.mtl
usemtl palette

# normals
vn -1 0 0
vn 1 0 0
vn 0 0 1
vn 0 0 -1
vn 0 -1 0
vn 0 1 0

# texcoords
vt 0.673828 0.5
vt 0.994141 0.5

# verts
v -0.9 0 0.2
v -0.9 0 -0.2
v -0.9 0.1 0.2
v -0.9 0.1 -0.2
v -0.8 0 0.4
v -0.8 0 0.2
v -0.8 0 -0.2
v -0.8 0 -0.4
v -0.8 0.1 0.4
v -0.8 0.1 0.2
v -0.8 0.1 -0.2
v -0.8 0.1 -0.4
v -0.7 0 0.5
v -0.7 0 0.4
v -0.7 0 -0.4
v -0.7 0 -0.5
v -0.7 0.1 0.5
v -0.7 0.1 0.4
v -0.7 0.1 -0.4
v -0.7 0.1 -0.5
v -0.6 0 0.6
v -0.6 0 0.5
v -0.6 0 -0.5
v -0.6 0 -0.6
v -0.6 0.1 0.6
v -0.6 0.1 0.5
v -0.6 0.1 0.2
v -0.6 0.1 -0.3
v -0.6 0.1 -0.5
v -0.6 0.1 -0.6
v -0.6 0.3 0.2
v -0.6 0.3 -0.3
v -0.6 0.8 0.2
v -0.6 0.8 -0.3
v -0.5 0 0.7
v -0.5 0 0.6
v -0.5 0 -0.6
v -0.5 0 -0.7
v -0.5 0.1 0.7
v -0.5 0.1 0.6
v -0.5 0.1 0.3
v -0.5 0.1 0.2
v -0.5 0.1 -0.3
v -0.5 0.1 -0.5
v -0.5 0.1 -0.6
v -0.5 0.1 -0.7
v -0.5 0.3 0.3
v -0.5 0.3 0.2
v -0.5 0.3 -0.3
v -0.5 0.3 -0.5
v -0.5 0.8 0.3
v -0.5 0.8 0.2
v -0.5 0.8 -0.3
v -0.5 0.8 -0.5
v -0.3 0 0.8
v -0.3 0 0.7
v -0.3 0 -0.7
v -0.3 0 -0.8
v -0.3 0.1 0.8
v -0.3 0.1 0.7
v -0.3 0.1 0.4
v -0.3 0.1 0.3
v -0.3 0.1 -0.5
v -0.3 0.1 -0.6
v -0.3 0.1 -0.7
v -0.3 0.1 -0.8
v -0.3 0.3 0.4
v -0.3 0.3 0.3
v -0.3 0.3 -0.5
v -0.3 0.3 -0.6
v -0.3 0.8 0.4
v -0.3 0.8 0.3
v -0.3 0.8 -0.5
v -0.3 0.8 -0.6
v -0.2 0.1 0.5
v -0.2 0.1 0.4
v -0.2 0.3 0.5
v -0.2 0.3 0.4
v -0.2 0.8 0.5
v -0.2 0.8 0.4
v 0.2 0.1 0.5
v 0.2 0.1 0.4
v 0.2 0.3 0.5
v 0.2 0.3 0.4
v 0.2 0.8 0.5
v 0.2 0.8 0.4
v 0.3 0 0.8
v 0.3 0 0.7
v 0.3 0 -0.7
v 0.3 0 -0.8
v 0.3 0.1 0.8
v 0.3 0.1 0.7
v 0.3 0.1 0.4
v 0.3 0.1 0.3
v 0.3 0.1 -0.5
v 0.3 0.1 -0.6
v 0.3 0.1 -0.7
v 0.3 0.1 -0.8
v 0.3 0.3 0.4
v 0.3 0.3 0.3
v 0.3 0.3 -0.5
v 0.3 0.3 -0.6
v 0.3 0.8 0.4
v 0.3 0.8 0.3
v 0.3 0.8 -0.5
v 0.3 0.8 -0.6
v 0.5 0 0.7
v 0.5 0 0.6
v 0.5 0 -0.6
v 0.5 0 -0.7
v 0.5 0.1 0.7
v 0.5 0.1 0.6
v 0.5 0.1 0.3
v 0.5 0.1 0.2
v 0.5 0.1 -0.3
v 0.5 0.1 -0.5
v 0.5 0.1 -0.6
v 0.5 0.1 -0.7
v 0.5 0.3 0.3
v 0.5 0.3 0.2
v 0.5 0.3 -0.3
v 0.5 0.3 -0.5
v 0.5 0.8 0.3
v 0.5 0.8 0.2
v 0.5 0.8 -0.3
v 0.5 0.8 -0.5
v 0.6 0 0.6
v 0.6 0 0.5
v 0.6 0 -0.5
v 0.6 0 -0.6
v 0.6 0.1 0.6
v 0.6 0.1 0.5
v 0.6 0.1 0.2
v 0.6 0.1 -0.3
v 0.6 0.1 -0.5
v 0.6 0.1 -0.6
v 0.6 0.3 0.2
v 0.6 0.3 -0.3
v 0.6 0.8 0.2
v 0.6 0.8 -0.3
v 0.7 0 0.5
v 0.7 0 0.4
v 0.7 0 -0.4
v 0.7 0 -0.5
v 0.7 0.1 0.5
v 0.7 0.1 0.4
v 0.7 0.1 -0.4
v 0.7 0.1 -0.5
v 0.8 0 0.4
v 0.8 0 0.2
v 0.8 0 -0.2
v 0.8 0 -0.4
v 0.8 0.1 0.4
v 0.8 0.1 0.2
v 0.8 0.1 -0.2
v 0.8 0.1 -0.4
v 0.9 0 0.2
v 0.9 0 -0.2
v 0.9 0.1 0.2
v 0.9 0.1 -0.2
v -0.3 0 0.8
v -0.3 0.1 0.8
v 0.3 0 0.8
v 0.3 0.1 0.8
v -0.5 0 0.7
v -0.5 0.1 0.7
v -0.3 0 0.7
v -0.3 0.1 0.7
v 0.3 0 0.7
v 0.3 0.1 0.7
v 0.5 0 0.7
v 0.5 0.1 0.7
v -0.6 0 0.6
v -0.6 0.1 0.6
v -0.5 0 0.6
v -0.5 0.1 0.6
v 0.5 0 0.6
v 0.5 0.1 0.6
v 0.6 0 0.6
v 0.6 0.1 0.6
v -0.7 0 0.5
v -0.7 0.1 0.5
v -0.6 0 0.5
v -0.6 0.1 0.5
v -0.2 0.1 0.5
v -0.2 0.3 0.5
v -0.2 0.8 0.5
v 0.2 0.1 0.5
v 0.2 0.3 0.5
v 0.2 0.8 0.5
v 0.6 0 0.5
v 0.6 0.1 0.5
v 0.7 0 0.5
v 0.7 0.1 0.5
v -0.8 0 0.4
v -0.8 0.1 0.4
v -0.7 0 0.4
v -0.7 0.1 0.4
v -0.3 0.1 0.4
v -0.3 0.3 0.4
v -0.3 0.8 0.4
v -0.2 0.1 0.4
v -0.2 0.3 0.4
v -0.2 0.8 0.4
v 0.2 0.1 0.4
v 0.2 0.3 0.4
v 0.2 0.8 0.4
v 0.3 0.1 0.4
v 0.3 0.3 0.4
v 0.3 0.8 0.4
v 0.7 0 0.4
v 0.7 0.1 0.4
v 0.8 0 0.4
v 0.8 0.1 0.4
v -0.5 0.1 0.3
v -0.5 0.3 0.3
v -0.5 0.8 0.3
v -0.3 0.1 0.3
v -0.3 0.3 0.3
v -0.3 0.8 0.3
v 0.3 0.1 0.3
v 0.3 0.3 0.3
v 0.3 0.8 0.3
v 0.5 0.1 0.3
v 0.5 0.3 0.3
v 0.5 0.8 0.3
v -0.9 0 0.2
v -0.9 0.1 0.2
v -0.8 0 0.2
v -0.8 0.1 0.2
v -0.6 0.1 0.2
v -0.6 0.3 0.2
v -0.6 0.8 0.2
v -0.5 0.1 0.2
v -0.5 0.3 0.2
v -0.5 0.8 0.2
v 0.5 0.1 0.2
v 0.5 0.3 0.2
v 0.5 0.8 0.2
v 0.6 0.1 0.2
v 0.6 0.3 0.2
v 0.6 0.8 0.2
v 0.8 0 0.2
v 0.8 0.1 0.2
v 0.9 0 0.2
v 0.9 0.1 0.2
v -0.9 0 -0.2
v -0.9 0.1 -0.2
v -0.8 0 -0.2
v -0.8 0.1 -0.2
v 0.8 0 -0.2
v 0.8 0.1 -0.2
v 0.9 0 -0.2
v 0.9 0.1 -0.2
v -0.6 0.1 -0.3
v -0.6 0.3 -0.3
v -0.6 0.8 -0.3
v -0.5 0.1 -0.3
v -0.5 0.3 -0.3
v -0.5 0.8 -0.3
v 0.5 0.1 -0.3
v 0.5 0.3 -0.3
v 0.5 0.8 -0.3
v 0.6 0.1 -0.3
v 0.6 0.3 -0.3
v 0.6 0.8 -0.3
v -0.8 0 -0.4
v -0.8 0.1 -0.4
v -0.7 0 -0.4
v -0.7 0.1 -0.4
v 0.7 0 -0.4
v 0.7 0.1 -0.4
v 0.8 0 -0.4
v 0.8 0.1 -0.4
v -0.7 0 -0.5
v -0.7 0.1 -0.5
v -0.6 0 -0.5
v -0.6 0.1 -0.5
v -0.5 0.1 -0.5
v -0.5 0.3 -0.5
v -0.5 0.8 -0.5
v -0.3 0.1 -0.5
v -0.3 0.3 -0.5
v -0.3 0.8 -0.5
v 0.3 0.1 -0.5
v 0.3 0.3 -0.5
v 0.3 0.8 -0.5
v 0.5 0.1 -0.5
v 0.5 0.3 -0.5
v 0.5 0.8 -0.5
v 0.6 0 -0.5
v 0.6 0.1 -0.5
v 0.7 0 -0.5
v 0.7 0.1 -0.5
v -0.6 0 -0.6
v -0.6 0.1 -0.6
v -0.5 0 -0.6
v -0.5 0.1 -0.6
v -0.3 0.1 -0.6
v -0.3 0.3 -0.6
v -0.3 0.8 -0.6
v 0.3 0.1 -0.6
v 0.3 0.3 -0.6
v 0.3 0.8 -0.6
v 0.5 0 -0.6
v 0.5 0.1 -0.6
v 0.6 0 -0.6
v 0.6 0.1 -0.6
v -0.5 0 -0.7
v -0.5 0.1 -0.7
v -0.3 0 -0.7
v -0.3 0.1 -0.7
v 0.3 0 -0.7
v 0.3 0.1 -0.7
v 0.5 0 -0.7
v 0.5 0.1 -0.7
v -0.3 0 -0.8
v -0.3 0.1 -0.8
v 0.3 0 -0.8
v 0.3 0.1 -0.8
v -0.3 0 0.8
v 0.3 0 0.8
v -0.5 0 0.7
v -0.3 0 0.7
v 0.3 0 0.7
v 0.5 0 0.7
v -0.6 0 0.6
v -0.5 0 0.6
v 0.5 0 0.6
v 0.6 0 0.6
v -0.7 0 0.5
v -0.6 0 0.5
v 0.6 0 0.5
v 0.7 0 0.5
v -0.8 0 0.4
v -0.7 0 0.4
v 0.7 0 0.4
v 0.8 0 0.4
v -0.9 0 0.2
v -0.8 0 0.2
v 0.8 0 0.2
v 0.9 0 0.2
v -0.9 0 -0.2
v -0.8 0 -0.2
v 0.8 0 -0.2
v 0.9 0 -0.2
v -0.8 0 -0.4
v -0.7 0 -0.4
v 0.7 0 -0.4
v 0.8 0 -0.4
v -0.7 0 -0.5
v -0.6 0 -0.5
v 0.6 0 -0.5
v 0.7 0 -0.5
v -0.6 0 -0.6
v -0.5 0 -0.6
v 0.5 0 -0.6
v 0.6 0 -0.6
v -0.5 0 -0.7
v -0.3 0 -0.7
v 0.3 0 -0.7
v 0.5 0 -0.7
v -0.3 0 -0.8
v 0.3 0 -0.8
v -0.3 0.1 0.8
v 0.3 0.1 0.8
v -0.5 0.1 0.7
v -0.3 0.1 0.7
v 0.3 0.1 0.7
v 0.5 0.1 0.7
v -0.6 0.1 0.6
v -0.5 0.1 0.6
v 0.5 0.1 0.6
v 0.6 0.1 0.6
v -0.7 0.1 0.5
v -0.6 0.1 0.5
v -0.2 0.1 0.5
v 0.2 0.1 0.5
v 0.6 0.1 0.5
v 0.7 0.1 0.5
v -0.8 0.1 0.4
v -0.7 0.1 0.4
v -0.3 0.1 0.4
v -0.2 0.1 0.4
v 0.2 0.1 0.4
v 0.3 0.1 0.4
v 0.7 0.1 0.4
v 0.8 0.1 0.4
v -0.5 0.1 0.3
v -0.3 0.1 0.3
v 0.3 0.1 0.3
v 0.5 0.1 0.3
v -0.9 0.1 0.2
v -0.8 0.1 0.2
v -0.6 0.1 0.2
v -0.5 0.1 0.2
v 0.5 0.1 0.2
v 0.6 0.1 0.2
v 0.8 0.1 0.2
v 0.9 0.1 0.2
v -0.9 0.1 -0.2
v -0.8 0.1 -0.2
v 0.8 0.1 -0.2
v 0.9 0.1 -0.2
v -0.6 0.1 -0.3
v -0.5 0.1 -0.3
v 0.5 0.1 -0.3
v 0.6 0.1 -0.3
v -0.8 0.1 -0.4
v -0.7 0.1 -0.4
v 0.7 0.1 -0.4
v 0.8 0.1 -0.4
v -0.7 0.1 -0.5
v -0.6 0.1 -0.5
v -0.5 0.1 -0.5
v -0.3 0.1 -0.5
v 0.3 0.1 -0.5
v 0.5 0.1 -0.5
v 0.6 0.1 -0.5
v 0.7 0.1 -0.5
v -0.6 0.1 -0.6
v -0.5 0.1 -0.6
v -0.3 0.1 -0.6
v 0.3 0.1 -0.6
v 0.5 0.1 -0.6
v 0.6 0.1 -0.6
v -0.5 0.1 -0.7
v -0.3 0.1 -0.7
v 0.3 0.1 -0.7
v 0.5 0.1 -0.7
v -0.3 0.1 -0.8
v 0.3 0.1 -0.8
v -0.2 0.8 0.5
v 0.2 0.8 0.5
v -0.3 0.8 0.4
v -0.2 0.8 0.4
v 0.2 0.8 0.4
v 0.3 0.8 0.4
v -0.5 0.8 0.3
v -0.3 0.8 0.3
v 0.3 0.8 0.3
v 0.5 0.8 0.3
v -0.6 0.8 0.2
v -0.5 0.8 0.2
v 0.5 0.8 0.2
v 0.6 0.8 0.2
v -0.6 0.8 -0.3
v -0.5 0.8 -0.3
v 0.5 0.8 -0.3
v 0.6 0.8 -0.3
v -0.5 0.8 -0.5
v -0.3 0.8 -0.5
v 0.3 0.8 -0.5
v 0.5 0.8 -0.5
v -0.3 0.8 -0.6
v 0.3 0.8 -0.6

# faces
f 3/2/1 2/2/1 1/2/1
f 4/2/1 2/2/1 3/2/1
f 9/2/1 6/2/1 5/2/1
f 10/2/1 6/2/1 9/2/1
f 11/2/1 8/2/1 7/2/1
f 12/2/1 8/2/1 11/2/1
f 17/2/1 14/2/1 13/2/1
f 18/2/1 14/2/1 17/2/1
f 19/2/1 16/2/1 15/2/1
f 20/2/1 16/2/1 19/2/1
f 25/2/1 22/2/1 21/2/1
f 26/2/1 22/2/1 25/2/1
f 29/2/1 24/2/1 23/2/1
f 30/2/1 24/2/1 29/2/1
f 31/1/1 28/1/1 27/1/1
f 32/1/1 28/1/1 31/1/1
f 33/2/1 32/2/1 31/2/1
f 34/2/1 32/2/1 33/2/1
f 39/2/1 36/2/1 35/2/1
f 40/2/1 36/2/1 39/2/1
f 45/2/1 38/2/1 37/2/1
f 46/2/1 38/2/1 45/2/1
f 47/1/1 42/1/1 41/1/1
f 48/1/1 42/1/1 47/1/1
f 49/1/1 44/1/1 43/1/1
f 50/1/1 44/1/1 49/1/1
f 51/2/1 48/2/1 47/2/1
f 52/2/1 48/2/1 51/2/1
f 53/2/1 50/2/1 49/2/1
f 54/2/1 50/2/1 53/2/1
f 59/2/1 56/2/1 55/2/1
f 60/2/1 56/2/1 59/2/1
f 65/2/1 58/2/1 57/2/1
f 66/2/1 58/2/1 65/2/1
f 67/1/1 62/1/1 61/1/1
f 68/1/1 62/1/1 67/1/1
f 69/1/1 64/1/1 63/1/1
f 70/1/1 64/1/1 69/1/1
f 71/2/1 68/2/1 67/2/1
f 72/2/1 68/2/1 71/2/1
f 73/2/1 70/2/1 69/2/1
f 74/2/1 70/2/1 73/2/1
f 77/1/1 76/1/1 75/1/1
f 78/1/1 76/1/1 77/1/1
f 79/2/1 78/2/1 77/2/1
f 80/2/1 78/2/1 79/2/1
f 81/1/2 82/1/2 83/1/2
f 83/1/2 82/1/2 84/1/2
f 83/2/2 84/2/2 85/2/2
f 85/2/2 84/2/2 86/2/2
f 87/2/2 88/2/2 91/2/2
f 91/2/2 88/2/2 92/2/2
f 89/2/2 90/2/2 97/2/2
f 97/2/2 90/2/2 98/2/2
f 93/1/2 94/1/2 99/1/2
f 99/1/2 94/1/2 100/1/2
f 95/1/2 96/1/2 101/1/2
f 101/1/2 96/1/2 102/1/2
f 99/2/2 100/2/2 103/2/2
f 103/2/2 100/2/2 104/2/2
f 101/2/2 102/2/2 105/2/2
f 105/2/2 102/2/2 106/2/2
f 107/2/2 108/2/2 111/2/2
f 111/2/2 108/2/2 112/2/2
f 109/2/2 110/2/2 117/2/2
f 117/2/2 110/2/2 118/2/2
f 113/1/2 114/1/2 119/1/2
f 119/1/2 114/1/2 120/1/2
f 115/1/2 116/1/2 121/1/2
f 121/1/2 116/1/2 122/1/2
f 119/2/2 120/2/2 123/2/2
f 123/2/2 120/2/2 124/2/2
f 121/2/2 122/2/2 125/2/2
f 125/2/2 122/2/2 126/2/2
f 127/2/2 128/2/2 131/2/2
f 131/2/2 128/2/2 132/2/2
f 129/2/2 130/2/2 135/2/2
f 135/2/2 130/2/2 136/2/2
f 133/1/2 134/1/2 137/1/2
f 137/1/2 134/1/2 138/1/2
f 137/2/2 138/2/2 139/2/2
f 139/2/2 138/2/2 140/2/2
f 141/2/2 142/2/2 145/2/2
f 145/2/2 142/2/2 146/2/2
f 143/2/2 144/2/2 147/2/2
f 147/2/2 144/2/2 148/2/2
f 149/2/2 150/2/2 153/2/2
f 153/2/2 150/2/2 154/2/2
f 151/2/2 152/2/2 155/2/2
f 155/2/2 152/2/2 156/2/2
f 157/2/2 158/2/2 159/2/2
f 159/2/2 158/2/2 160/2/2
f 163/2/3 162/2/3 161/2/3
f 164/2/3 162/2/3 163/2/3
f 167/2/3 166/2/3 165/2/3
f 168/2/3 166/2/3 167/2/3
f 171/2/3 170/2/3 169/2/3
f 172/2/3 170/2/3 171/2/3
f 175/2/3 174/2/3 173/2/3
f 176/2/3 174/2/3 175/2/3
f 179/2/3 178/2/3 177/2/3
f 180/2/3 178/2/3 179/2/3
f 183/2/3 182/2/3 181/2/3
f 184/2/3 182/2/3 183/2/3
f 188/1/3 186/1/3 185/1/3
f 189/2/3 187/2/3 186/2/3
f 189/1/3 186/1/3 188/1/3
f 190/2/3 187/2/3 189/2/3
f 193/2/3 192/2/3 191/2/3
f 194/2/3 192/2/3 193/2/3
f 197/2/3 196/2/3 195/2/3
f 198/2/3 196/2/3 197/2/3
f 202/1/3 200/1/3 199/1/3
f 203/2/3 201/2/3 200/2/3
f 203/1/3 200/1/3 202/1/3
f 204/2/3 201/2/3 203/2/3
f 208/1/3 206/1/3 205/1/3
f 209/2/3 207/2/3 206/2/3
f 209/1/3 206/1/3 208/1/3
f 210/2/3 207/2/3 209/2/3
f 213/2/3 212/2/3 211/2/3
f 214/2/3 212/2/3 213/2/3
f 218/1/3 216/1/3 215/1/3
f 219/2/3 217/2/3 216/2/3
f 219/1/3 216/1/3 218/1/3
f 220/2/3 217/2/3 219/2/3
f 224/1/3 222/1/3 221/1/3
f 225/2/3 223/2/3 222/2/3
f 225/1/3 222/1/3 224/1/3
f 226/2/3 223/2/3 225/2/3
f 229/2/3 228/2/3 227/2/3
f 230/2/3 228/2/3 229/2/3
f 234/1/3 232/1/3 231/1/3
f 235/2/3 233/2/3 232/2/3
f 235/1/3 232/1/3 234/1/3
f 236/2/3 233/2/3 235/2/3
f 240/1/3 238/1/3 237/1/3
f 241/2/3 239/2/3 238/2/3
f 241/1/3 238/1/3 240/1/3
f 242/2/3 239/2/3 241/2/3
f 245/2/3 244/2/3 243/2/3
f 246/2/3 244/2/3 245/2/3
f 247/2/4 248/2/4 249/2/4
f 249/2/4 248/2/4 250/2/4
f 251/2/4 252/2/4 253/2/4
f 253/2/4 252/2/4 254/2/4
f 255/1/4 256/1/4 258/1/4
f 256/2/4 257/2/4 259/2/4
f 258/1/4 256/1/4 259/1/4
f 259/2/4 257/2/4 260/2/4
f 261/1/4 262/1/4 264/1/4
f 262/2/4 263/2/4 265/2/4
f 264/1/4 262/1/4 265/1/4
f 265/2/4 263/2/4 266/2/4
f 267/2/4 268/2/4 269/2/4
f 269/2/4 268/2/4 270/2/4
f 271/2/4 272/2/4 273/2/4
f 273/2/4 272/2/4 274/2/4
f 275/2/4 276/2/4 277/2/4
f 277/2/4 276/2/4 278/2/4
f 279/1/4 280/1/4 282/1/4
f 280/2/4 281/2/4 283/2/4
f 282/1/4 280/1/4 283/1/4
f 283/2/4 281/2/4 284/2/4
f 285/1/4 286/1/4 288/1/4
f 286/2/4 287/2/4 289/2/4
f 288/1/4 286/1/4 289/1/4
f 289/2/4 287/2/4 290/2/4
f 291/2/4 292/2/4 293/2/4
f 293/2/4 292/2/4 294/2/4
f 295/2/4 296/2/4 297/2/4
f 297/2/4 296/2/4 298/2/4
f 299/1/4 300/1/4 302/1/4
f 300/2/4 301/2/4 303/2/4
f 302/1/4 300/1/4 303/1/4
f 303/2/4 301/2/4 304/2/4
f 305/2/4 306/2/4 307/2/4
f 307/2/4 306/2/4 308/2/4
f 309/2/4 310/2/4 311/2/4
f 311/2/4 310/2/4 312/2/4
f 313/2/4 314/2/4 315/2/4
f 315/2/4 314/2/4 316/2/4
f 317/2/4 318/2/4 319/2/4
f 319/2/4 318/2/4 320/2/4
f 324/2/5 322/2/5 321/2/5
f 325/2/5 322/2/5 324/2/5
f 328/2/5 324/2/5 323/2/5
f 328/2/5 326/2/5 325/2/5
f 328/2/5 325/2/5 324/2/5
f 329/2/5 326/2/5 328/2/5
f 332/2/5 328/2/5 327/2/5
f 332/2/5 330/2/5 329/2/5
f 332/2/5 329/2/5 328/2/5
f 333/2/5 330/2/5 332/2/5
f 336/2/5 332/2/5 331/2/5
f 336/2/5 334/2/5 333/2/5
f 336/2/5 333/2/5 332/2/5
f 337/2/5 334/2/5 336/2/5
f 340/2/5 336/2/5 335/2/5
f 340/2/5 338/2/5 337/2/5
f 340/2/5 337/2/5 336/2/5
f 341/2/5 338/2/5 340/2/5
f 343/2/5 340/2/5 339/2/5
f 343/2/5 342/2/5 341/2/5
f 343/2/5 341/2/5 340/2/5
f 344/2/5 342/2/5 343/2/5
f 345/2/5 342/2/5 344/2/5
f 346/2/5 342/2/5 345/2/5
f 347/2/5 345/2/5 344/2/5
f 348/2/5 345/2/5 347/2/5
f 349/2/5 345/2/5 348/2/5
f 350/2/5 345/2/5 349/2/5
f 351/2/5 349/2/5 348/2/5
f 352/2/5 349/2/5 351/2/5
f 353/2/5 349/2/5 352/2/5
f 354/2/5 349/2/5 353/2/5
f 355/2/5 353/2/5 352/2/5
f 356/2/5 353/2/5 355/2/5
f 357/2/5 353/2/5 356/2/5
f 358/2/5 353/2/5 357/2/5
f 359/2/5 357/2/5 356/2/5
f 360/2/5 357/2/5 359/2/5
f 361/2/5 357/2/5 360/2/5
f 362/2/5 357/2/5 361/2/5
f 363/2/5 361/2/5 360/2/5
f 364/2/5 361/2/5 363/2/5
f 365/2/6 366/2/6 368/2/6
f 368/2/6 366/2/6 369/2/6
f 367/2/6 368/2/6 372/2/6
f 369/2/6 370/2/6 372/2/6
f 368/2/6 369/2/6 372/2/6
f 372/2/6 370/2/6 373/2/6
f 371/2/6 372/2/6 376/2/6
f 373/2/6 374/2/6 376/2/6
f 372/2/6 373/2/6 376/2/6
f 376/2/6 374/2/6 377/2/6
f 377/2/6 374/2/6 378/2/6
f 378/2/6 374/2/6 379/2/6
f 375/2/6 376/2/6 382/2/6
f 376/2/6 377/2/6 382/2/6
f 382/2/6 377/2/6 383/2/6
f 383/2/6 377/2/6 384/2/6
f 378/2/6 379/2/6 385/2/6
f 379/2/6 380/2/6 385/2/6
f 385/2/6 380/2/6 386/2/6
f 386/2/6 380/2/6 387/2/6
f 382/2/6 383/2/6 389/2/6
f 381/2/6 382/2/6 389/2/6
f 389/2/6 383/2/6 390/2/6
f 387/2/6 388/2/6 391/2/6
f 386/2/6 387/2/6 391/2/6
f 391/2/6 388/2/6 392/2/6
f 381/2/6 389/2/6 394/2/6
f 394/2/6 389/2/6 395/2/6
f 395/2/6 389/2/6 396/2/6
f 392/2/6 388/2/6 397/2/6
f 397/2/6 388/2/6 398/2/6
f 398/2/6 388/2/6 399/2/6
f 393/2/6 394/2/6 401/2/6
f 394/2/6 395/2/6 401/2/6
f 401/2/6 395/2/6 402/2/6
f 399/2/6 400/2/6 403/2/6
f 398/2/6 399/2/6 403/2/6
f 403/2/6 400/2/6 404/2/6
f 402/2/6 395/2/6 405/2/6
f 398/2/6 403/2/6 408/2/6
f 405/2/6 406/2/6 409/2/6
f 402/2/6 405/2/6 409/2/6
f 409/2/6 406/2/6 410/2/6
f 407/2/6 408/2/6 411/2/6
f 408/2/6 403/2/6 411/2/6
f 411/2/6 403/2/6 412/2/6
f 410/2/6 406/2/6 413/2/6
f 413/2/6 406/2/6 414/2/6
f 414/2/6 406/2/6 415/2/6
f 407/2/6 411/2/6 418/2/6
f 418/2/6 411/2/6 419/2/6
f 419/2/6 411/2/6 420/2/6
f 415/2/6 416/2/6 421/2/6
f 414/2/6 415/2/6 421/2/6
f 421/2/6 416/2/6 422/2/6
f 422/2/6 416/2/6 423/2/6
f 418/2/6 419/2/6 424/2/6
f 417/2/6 418/2/6 424/2/6
f 424/2/6 419/2/6 425/2/6
f 425/2/6 419/2/6 426/2/6
f 422/2/6 423/2/6 427/2/6
f 424/2/6 425/2/6 427/2/6
f 423/2/6 424/2/6 427/2/6
f 427/2/6 425/2/6 428/2/6
f 428/2/6 425/2/6 429/2/6
f 429/2/6 425/2/6 430/2/6
f 428/2/6 429/2/6 431/2/6
f 431/2/6 429/2/6 432/2/6
f 433/2/6 434/2/6 436/2/6
f 436/2/6 434/2/6 437/2/6
f 435/2/6 436/2/6 440/2/6
f 437/2/6 438/2/6 440/2/6
f 436/2/6 437/2/6 440/2/6
f 440/2/6 438/2/6 441/2/6
f 439/2/6 440/2/6 444/2/6
f 441/2/6 442/2/6 444/2/6
f 440/2/6 441/2/6 444/2/6
f 444/2/6 442/2/6 445/2/6
f 443/2/6 444/2/6 447/2/6
f 445/2/6 446/2/6 447/2/6
f 444/2/6 445/2/6 447/2/6
f 447/2/6 446/2/6 448/2/6
f 448/2/6 446/2/6 449/2/6
f 449/2/6 446/2/6 450/2/6
f 448/2/6 449/2/6 451/2/6
f 451/2/6 449/2/6 452/2/6
f 452/2/6 449/2/6 453/2/6
f 453/2/6 449/2/6 454/2/6
f 452/2/6 453/2/6 455/2/6
f 455/2/6 453/2/6 456/2/6
