# MagicaVoxel @ Ephtracy

# group
o 

# material
mtllib Sheep.mtl
usemtl palette

# normals
vn -1 0 0
vn 1 0 0
vn 0 0 1
vn 0 0 -1
vn 0 -1 0
vn 0 1 0

# texcoords
vt 0.0292969 0.5
vt 0.373047 0.5
vt 0.958984 0.5

# verts
v -0.9 0.5 1.4
v -0.9 0.5 0.1
v -0.9 0.6 0.1
v -0.9 0.6 0
v -0.9 1.1 1.4
v -0.9 1.1 0
v -0.8 0 1.4
v -0.8 0 1.2
v -0.8 0 0.3
v -0.8 0 0.1
v -0.8 0.1 1.4
v -0.8 0.1 1.2
v -0.8 0.1 0.3
v -0.8 0.1 0.1
v -0.8 0.5 1.4
v -0.8 0.5 1.2
v -0.8 0.5 0.3
v -0.8 0.5 0.1
v -0.8 0.5 0
v -0.8 0.6 0.1
v -0.8 0.6 0
v -0.8 0.7 1.5
v -0.8 0.7 1.4
v -0.8 1.1 1.4
v -0.8 1.1 0.1
v -0.8 1.2 1.5
v -0.8 1.2 0.1
v -0.7 0.6 1.5
v -0.7 0.6 1.4
v -0.7 0.7 1.5
v -0.7 0.7 1.4
v -0.7 0.9 1.8
v -0.7 0.9 1.5
v -0.7 1 1.9
v -0.7 1 1.8
v -0.7 1.2 1.5
v -0.7 1.2 1.4
v -0.7 1.4 1.9
v -0.7 1.4 1.8
v -0.7 1.4 1.5
v -0.7 1.4 1.4
v -0.7 1.5 1.8
v -0.7 1.5 1.5
v -0.6 0.9 1.9
v -0.6 0.9 1.8
v -0.6 0.9 0
v -0.6 0.9 -0.1
v -0.6 1 1.9
v -0.6 1 1.8
v -0.6 1 -0.1
v -0.6 1 -0.2
v -0.6 1.1 0.1
v -0.6 1.1 0
v -0.6 1.1 -0.1
v -0.6 1.1 -0.2
v -0.6 1.2 0.1
v -0.6 1.2 -0.1
v -0.6 1.4 1.9
v -0.6 1.4 1.8
v -0.6 1.4 1.5
v -0.6 1.4 1.4
v -0.6 1.5 1.9
v -0.6 1.5 1.8
v -0.6 1.5 1.5
v -0.6 1.5 1.4
v -0.5 0.9 -0.1
v -0.5 0.9 -0.2
v -0.5 1 -0.1
v -0.5 1 -0.2
v -0.5 1.1 -0.1
v -0.5 1.1 -0.2
v -0.5 1.2 -0.1
v -0.5 1.2 -0.2
v -0.3 0 1.4
v -0.3 0 1.2
v -0.3 0 0.3
v -0.3 0 0.1
v -0.3 0.1 1.4
v -0.3 0.1 1.2
v -0.3 0.1 0.3
v -0.3 0.1 0.1
v -0.3 0.5 1.4
v -0.3 0.5 1.2
v -0.3 0.5 0.3
v -0.3 0.5 0.1
v -0.6 0 1.4
v -0.6 0 1.2
v -0.6 0 0.3
v -0.6 0 0.1
v -0.6 0.1 1.4
v -0.6 0.1 1.2
v -0.6 0.1 0.3
v -0.6 0.1 0.1
v -0.6 0.5 1.4
v -0.6 0.5 1.2
v -0.6 0.5 0.3
v -0.6 0.5 0.1
v -0.4 0.9 -0.1
v -0.4 0.9 -0.2
v -0.4 1 -0.1
v -0.4 1 -0.2
v -0.4 1.1 -0.1
v -0.4 1.1 -0.2
v -0.4 1.2 -0.1
v -0.4 1.2 -0.2
v -0.3 0.9 1.9
v -0.3 0.9 1.8
v -0.3 0.9 0
v -0.3 0.9 -0.1
v -0.3 1 1.9
v -0.3 1 1.8
v -0.3 1 -0.1
v -0.3 1 -0.2
v -0.3 1.1 0.1
v -0.3 1.1 0
v -0.3 1.1 -0.1
v -0.3 1.1 -0.2
v -0.3 1.2 0.1
v -0.3 1.2 -0.1
v -0.3 1.4 1.9
v -0.3 1.4 1.8
v -0.3 1.4 1.5
v -0.3 1.4 1.4
v -0.3 1.5 1.9
v -0.3 1.5 1.8
v -0.3 1.5 1.5
v -0.3 1.5 1.4
v -0.2 0.6 1.5
v -0.2 0.6 1.4
v -0.2 0.7 1.5
v -0.2 0.7 1.4
v -0.2 0.9 1.8
v -0.2 0.9 1.5
v -0.2 1 1.9
v -0.2 1 1.8
v -0.2 1.2 1.5
v -0.2 1.2 1.4
v -0.2 1.4 1.9
v -0.2 1.4 1.8
v -0.2 1.4 1.5
v -0.2 1.4 1.4
v -0.2 1.5 1.8
v -0.2 1.5 1.5
v -0.1 0 1.4
v -0.1 0 1.2
v -0.1 0 0.3
v -0.1 0 0.1
v -0.1 0.1 1.4
v -0.1 0.1 1.2
v -0.1 0.1 0.3
v -0.1 0.1 0.1
v -0.1 0.5 1.4
v -0.1 0.5 1.2
v -0.1 0.5 0.3
v -0.1 0.5 0.1
v -0.1 0.5 0
v -0.1 0.6 0.1
v -0.1 0.6 0
v -0.1 0.7 1.5
v -0.1 0.7 1.4
v -0.1 1.1 1.4
v -0.1 1.1 0.1
v -0.1 1.2 1.5
v -0.1 1.2 0.1
v 0 0.5 1.4
v 0 0.5 0.1
v 0 0.6 0.1
v 0 0.6 0
v 0 1.1 1.4
v 0 1.1 0
v -0.7 1 1.9
v -0.7 1.4 1.9
v -0.6 0.9 1.9
v -0.6 1 1.9
v -0.6 1.2 1.9
v -0.6 1.3 1.9
v -0.6 1.4 1.9
v -0.6 1.5 1.9
v -0.5 1.2 1.9
v -0.5 1.3 1.9
v -0.4 1.2 1.9
v -0.4 1.3 1.9
v -0.3 0.9 1.9
v -0.3 1 1.9
v -0.3 1.2 1.9
v -0.3 1.3 1.9
v -0.3 1.4 1.9
v -0.3 1.5 1.9
v -0.2 1 1.9
v -0.2 1.4 1.9
v -0.7 0.9 1.8
v -0.7 1 1.8
v -0.7 1.4 1.8
v -0.7 1.5 1.8
v -0.6 0.9 1.8
v -0.6 1 1.8
v -0.6 1.4 1.8
v -0.6 1.5 1.8
v -0.3 0.9 1.8
v -0.3 1 1.8
v -0.3 1.4 1.8
v -0.3 1.5 1.8
v -0.2 0.9 1.8
v -0.2 1 1.8
v -0.2 1.4 1.8
v -0.2 1.5 1.8
v -0.8 0.7 1.5
v -0.8 1.2 1.5
v -0.7 0.6 1.5
v -0.7 0.7 1.5
v -0.7 0.9 1.5
v -0.7 1.2 1.5
v -0.2 0.6 1.5
v -0.2 0.7 1.5
v -0.2 0.9 1.5
v -0.2 1.2 1.5
v -0.1 0.7 1.5
v -0.1 1.2 1.5
v -0.9 0.5 1.4
v -0.9 1.1 1.4
v -0.8 0 1.4
v -0.8 0.1 1.4
v -0.8 0.5 1.4
v -0.8 0.7 1.4
v -0.8 1.1 1.4
v -0.7 0.6 1.4
v -0.7 0.7 1.4
v -0.6 0 1.4
v -0.6 0.1 1.4
v -0.6 0.5 1.4
v -0.3 0 1.4
v -0.3 0.1 1.4
v -0.3 0.5 1.4
v -0.2 0.6 1.4
v -0.2 0.7 1.4
v -0.1 0 1.4
v -0.1 0.1 1.4
v -0.1 0.5 1.4
v -0.1 0.7 1.4
v -0.1 1.1 1.4
v 0 0.5 1.4
v 0 1.1 1.4
v -0.8 0 0.3
v -0.8 0.1 0.3
v -0.8 0.5 0.3
v -0.6 0 0.3
v -0.6 0.1 0.3
v -0.6 0.5 0.3
v -0.3 0 0.3
v -0.3 0.1 0.3
v -0.3 0.5 0.3
v -0.1 0 0.3
v -0.1 0.1 0.3
v -0.1 0.5 0.3
v -0.7 1.4 1.5
v -0.7 1.5 1.5
v -0.6 1.4 1.5
v -0.6 1.5 1.5
v -0.3 1.4 1.5
v -0.3 1.5 1.5
v -0.2 1.4 1.5
v -0.2 1.5 1.5
v -0.7 1.2 1.4
v -0.7 1.4 1.4
v -0.6 1.4 1.4
v -0.6 1.5 1.4
v -0.3 1.4 1.4
v -0.3 1.5 1.4
v -0.2 1.2 1.4
v -0.2 1.4 1.4
v -0.8 0 1.2
v -0.8 0.1 1.2
v -0.8 0.5 1.2
v -0.6 0 1.2
v -0.6 0.1 1.2
v -0.6 0.5 1.2
v -0.3 0 1.2
v -0.3 0.1 1.2
v -0.3 0.5 1.2
v -0.1 0 1.2
v -0.1 0.1 1.2
v -0.1 0.5 1.2
v -0.9 0.5 0.1
v -0.9 0.6 0.1
v -0.8 0 0.1
v -0.8 0.1 0.1
v -0.8 0.5 0.1
v -0.8 0.6 0.1
v -0.8 1.1 0.1
v -0.8 1.2 0.1
v -0.6 0 0.1
v -0.6 0.1 0.1
v -0.6 0.5 0.1
v -0.6 1.1 0.1
v -0.6 1.2 0.1
v -0.3 0 0.1
v -0.3 0.1 0.1
v -0.3 0.5 0.1
v -0.3 1.1 0.1
v -0.3 1.2 0.1
v -0.1 0 0.1
v -0.1 0.1 0.1
v -0.1 0.5 0.1
v -0.1 0.6 0.1
v -0.1 1.1 0.1
v -0.1 1.2 0.1
v 0 0.5 0.1
v 0 0.6 0.1
v -0.9 0.6 0
v -0.9 1.1 0
v -0.8 0.5 0
v -0.8 0.6 0
v -0.6 0.9 0
v -0.6 1.1 0
v -0.3 0.9 0
v -0.3 1.1 0
v -0.1 0.5 0
v -0.1 0.6 0
v 0 0.6 0
v 0 1.1 0
v -0.6 0.9 -0.1
v -0.6 1 -0.1
v -0.6 1.1 -0.1
v -0.6 1.2 -0.1
v -0.5 0.9 -0.1
v -0.5 1 -0.1
v -0.5 1.1 -0.1
v -0.5 1.2 -0.1
v -0.4 0.9 -0.1
v -0.4 1 -0.1
v -0.4 1.1 -0.1
v -0.4 1.2 -0.1
v -0.3 0.9 -0.1
v -0.3 1 -0.1
v -0.3 1.1 -0.1
v -0.3 1.2 -0.1
v -0.6 1 -0.2
v -0.6 1.1 -0.2
v -0.5 0.9 -0.2
v -0.5 1 -0.2
v -0.5 1.1 -0.2
v -0.5 1.2 -0.2
v -0.4 0.9 -0.2
v -0.4 1 -0.2
v -0.4 1.1 -0.2
v -0.4 1.2 -0.2
v -0.3 1 -0.2
v -0.3 1.1 -0.2
v -0.8 0 1.4
v -0.6 0 1.4
v -0.3 0 1.4
v -0.1 0 1.4
v -0.8 0 1.2
v -0.6 0 1.2
v -0.3 0 1.2
v -0.1 0 1.2
v -0.8 0 0.3
v -0.6 0 0.3
v -0.3 0 0.3
v -0.1 0 0.3
v -0.8 0 0.1
v -0.6 0 0.1
v -0.3 0 0.1
v -0.1 0 0.1
v -0.9 0.5 1.4
v -0.8 0.5 1.4
v -0.6 0.5 1.4
v -0.3 0.5 1.4
v -0.1 0.5 1.4
v 0 0.5 1.4
v -0.8 0.5 1.2
v -0.6 0.5 1.2
v -0.3 0.5 1.2
v -0.1 0.5 1.2
v -0.8 0.5 0.3
v -0.6 0.5 0.3
v -0.3 0.5 0.3
v -0.1 0.5 0.3
v -0.9 0.5 0.1
v -0.8 0.5 0.1
v -0.6 0.5 0.1
v -0.3 0.5 0.1
v -0.1 0.5 0.1
v 0 0.5 0.1
v -0.8 0.5 0
v -0.1 0.5 0
v -0.7 0.6 1.5
v -0.2 0.6 1.5
v -0.7 0.6 1.4
v -0.2 0.6 1.4
v -0.9 0.6 0.1
v -0.8 0.6 0.1
v -0.1 0.6 0.1
v 0 0.6 0.1
v -0.9 0.6 0
v -0.8 0.6 0
v -0.1 0.6 0
v 0 0.6 0
v -0.8 0.7 1.5
v -0.7 0.7 1.5
v -0.2 0.7 1.5
v -0.1 0.7 1.5
v -0.8 0.7 1.4
v -0.7 0.7 1.4
v -0.2 0.7 1.4
v -0.1 0.7 1.4
v -0.6 0.9 1.9
v -0.3 0.9 1.9
v -0.7 0.9 1.8
v -0.6 0.9 1.8
v -0.3 0.9 1.8
v -0.2 0.9 1.8
v -0.7 0.9 1.5
v -0.2 0.9 1.5
v -0.6 0.9 0
v -0.3 0.9 0
v -0.6 0.9 -0.1
v -0.5 0.9 -0.1
v -0.4 0.9 -0.1
v -0.3 0.9 -0.1
v -0.5 0.9 -0.2
v -0.4 0.9 -0.2
v -0.7 1 1.9
v -0.6 1 1.9
v -0.3 1 1.9
v -0.2 1 1.9
v -0.7 1 1.8
v -0.6 1 1.8
v -0.3 1 1.8
v -0.2 1 1.8
v -0.6 1 -0.1
v -0.5 1 -0.1
v -0.4 1 -0.1
v -0.3 1 -0.1
v -0.6 1 -0.2
v -0.5 1 -0.2
v -0.4 1 -0.2
v -0.3 1 -0.2
v -0.9 1.1 1.4
v -0.8 1.1 1.4
v -0.1 1.1 1.4
v 0 1.1 1.4
v -0.8 1.1 0.1
v -0.6 1.1 0.1
v -0.3 1.1 0.1
v -0.1 1.1 0.1
v -0.9 1.1 0
v -0.6 1.1 0
v -0.3 1.1 0
v 0 1.1 0
v -0.6 1.1 -0.1
v -0.5 1.1 -0.1
v -0.4 1.1 -0.1
v -0.3 1.1 -0.1
v -0.6 1.1 -0.2
v -0.5 1.1 -0.2
v -0.4 1.1 -0.2
v -0.3 1.1 -0.2
v -0.8 1.2 1.5
v -0.7 1.2 1.5
v -0.2 1.2 1.5
v -0.1 1.2 1.5
v -0.7 1.2 1.4
v -0.2 1.2 1.4
v -0.8 1.2 0.1
v -0.6 1.2 0.1
v -0.3 1.2 0.1
v -0.1 1.2 0.1
v -0.6 1.2 -0.1
v -0.5 1.2 -0.1
v -0.4 1.2 -0.1
v -0.3 1.2 -0.1
v -0.5 1.2 -0.2
v -0.4 1.2 -0.2
v -0.7 1.4 1.9
v -0.6 1.4 1.9
v -0.3 1.4 1.9
v -0.2 1.4 1.9
v -0.7 1.4 1.8
v -0.6 1.4 1.8
v -0.3 1.4 1.8
v -0.2 1.4 1.8
v -0.7 1.4 1.5
v -0.6 1.4 1.5
v -0.3 1.4 1.5
v -0.2 1.4 1.5
v -0.7 1.4 1.4
v -0.6 1.4 1.4
v -0.3 1.4 1.4
v -0.2 1.4 1.4
v -0.6 1.5 1.9
v -0.3 1.5 1.9
v -0.7 1.5 1.8
v -0.6 1.5 1.8
v -0.3 1.5 1.8
v -0.2 1.5 1.8
v -0.7 1.5 1.5
v -0.6 1.5 1.5
v -0.3 1.5 1.5
v -0.2 1.5 1.5
v -0.6 1.5 1.4
v -0.3 1.5 1.4

# faces
f 3/3/1 2/3/1 1/3/1
f 5/3/1 3/3/1 1/3/1
f 5/3/1 4/3/1 3/3/1
f 6/3/1 4/3/1 5/3/1
f 11/3/1 8/3/1 7/3/1
f 12/3/1 8/3/1 11/3/1
f 13/3/1 10/3/1 9/3/1
f 14/3/1 10/3/1 13/3/1
f 15/1/1 12/1/1 11/1/1
f 16/1/1 12/1/1 15/1/1
f 17/1/1 14/1/1 13/1/1
f 18/1/1 14/1/1 17/1/1
f 20/3/1 19/3/1 18/3/1
f 21/3/1 19/3/1 20/3/1
f 24/3/1 23/3/1 22/3/1
f 26/3/1 24/3/1 22/3/1
f 26/3/1 25/3/1 24/3/1
f 27/3/1 25/3/1 26/3/1
f 30/3/1 29/3/1 28/3/1
f 31/3/1 29/3/1 30/3/1
f 35/3/1 33/3/1 32/3/1
f 36/3/1 33/3/1 35/3/1
f 36/3/1 35/3/1 34/3/1
f 38/3/1 36/3/1 34/3/1
f 38/3/1 37/3/1 36/3/1
f 39/3/1 37/3/1 38/3/1
f 40/3/1 37/3/1 39/3/1
f 41/3/1 37/3/1 40/3/1
f 42/3/1 40/3/1 39/3/1
f 43/3/1 40/3/1 42/3/1
f 48/3/1 45/3/1 44/3/1
f 49/3/1 45/3/1 48/3/1
f 50/3/1 47/3/1 46/3/1
f 53/3/1 51/3/1 50/3/1
f 53/3/1 50/3/1 46/3/1
f 54/3/1 51/3/1 53/3/1
f 55/3/1 51/3/1 54/3/1
f 56/3/1 53/3/1 52/3/1
f 56/3/1 54/3/1 53/3/1
f 57/3/1 54/3/1 56/3/1
f 62/3/1 59/3/1 58/3/1
f 63/3/1 59/3/1 62/3/1
f 64/3/1 61/3/1 60/3/1
f 65/3/1 61/3/1 64/3/1
f 68/3/1 67/3/1 66/3/1
f 69/3/1 67/3/1 68/3/1
f 72/3/1 71/3/1 70/3/1
f 73/3/1 71/3/1 72/3/1
f 78/3/1 75/3/1 74/3/1
f 79/3/1 75/3/1 78/3/1
f 80/3/1 77/3/1 76/3/1
f 81/3/1 77/3/1 80/3/1
f 82/1/1 79/1/1 78/1/1
f 83/1/1 79/1/1 82/1/1
f 84/1/1 81/1/1 80/1/1
f 85/1/1 81/1/1 84/1/1
f 86/3/2 87/3/2 90/3/2
f 90/3/2 87/3/2 91/3/2
f 88/3/2 89/3/2 92/3/2
f 92/3/2 89/3/2 93/3/2
f 90/1/2 91/1/2 94/1/2
f 94/1/2 91/1/2 95/1/2
f 92/1/2 93/1/2 96/1/2
f 96/1/2 93/1/2 97/1/2
f 98/3/2 99/3/2 100/3/2
f 100/3/2 99/3/2 101/3/2
f 102/3/2 103/3/2 104/3/2
f 104/3/2 103/3/2 105/3/2
f 106/3/2 107/3/2 110/3/2
f 110/3/2 107/3/2 111/3/2
f 108/3/2 109/3/2 112/3/2
f 112/3/2 113/3/2 115/3/2
f 108/3/2 112/3/2 115/3/2
f 115/3/2 113/3/2 116/3/2
f 116/3/2 113/3/2 117/3/2
f 114/3/2 115/3/2 118/3/2
f 115/3/2 116/3/2 118/3/2
f 118/3/2 116/3/2 119/3/2
f 120/3/2 121/3/2 124/3/2
f 124/3/2 121/3/2 125/3/2
f 122/3/2 123/3/2 126/3/2
f 126/3/2 123/3/2 127/3/2
f 128/3/2 129/3/2 130/3/2
f 130/3/2 129/3/2 131/3/2
f 132/3/2 133/3/2 135/3/2
f 135/3/2 133/3/2 136/3/2
f 134/3/2 135/3/2 136/3/2
f 134/3/2 136/3/2 138/3/2
f 136/3/2 137/3/2 138/3/2
f 138/3/2 137/3/2 139/3/2
f 139/3/2 137/3/2 140/3/2
f 140/3/2 137/3/2 141/3/2
f 139/3/2 140/3/2 142/3/2
f 142/3/2 140/3/2 143/3/2
f 144/3/2 145/3/2 148/3/2
f 148/3/2 145/3/2 149/3/2
f 146/3/2 147/3/2 150/3/2
f 150/3/2 147/3/2 151/3/2
f 148/1/2 149/1/2 152/1/2
f 152/1/2 149/1/2 153/1/2
f 150/1/2 151/1/2 154/1/2
f 154/1/2 151/1/2 155/1/2
f 155/3/2 156/3/2 157/3/2
f 157/3/2 156/3/2 158/3/2
f 159/3/2 160/3/2 161/3/2
f 159/3/2 161/3/2 163/3/2
f 161/3/2 162/3/2 163/3/2
f 163/3/2 162/3/2 164/3/2
f 165/3/2 166/3/2 167/3/2
f 165/3/2 167/3/2 169/3/2
f 167/3/2 168/3/2 169/3/2
f 169/3/2 168/3/2 170/3/2
f 174/3/3 172/3/3 171/3/3
f 175/3/3 172/3/3 174/3/3
f 176/3/3 172/3/3 175/3/3
f 177/3/3 172/3/3 176/3/3
f 179/1/3 175/1/3 174/1/3
f 179/2/3 176/2/3 175/2/3
f 180/1/3 177/1/3 176/1/3
f 180/2/3 176/2/3 179/2/3
f 181/1/3 179/1/3 174/1/3
f 181/1/3 180/1/3 179/1/3
f 182/1/3 177/1/3 180/1/3
f 182/1/3 180/1/3 181/1/3
f 183/3/3 174/3/3 173/3/3
f 184/1/3 181/1/3 174/1/3
f 184/3/3 174/3/3 183/3/3
f 185/2/3 182/2/3 181/2/3
f 185/1/3 181/1/3 184/1/3
f 186/1/3 177/1/3 182/1/3
f 186/2/3 182/2/3 185/2/3
f 187/3/3 178/3/3 177/3/3
f 187/1/3 177/1/3 186/1/3
f 188/3/3 178/3/3 187/3/3
f 189/3/3 185/3/3 184/3/3
f 189/3/3 186/3/3 185/3/3
f 189/3/3 187/3/3 186/3/3
f 190/3/3 187/3/3 189/3/3
f 195/3/3 192/3/3 191/3/3
f 196/3/3 192/3/3 195/3/3
f 197/3/3 194/3/3 193/3/3
f 198/3/3 194/3/3 197/3/3
f 203/3/3 200/3/3 199/3/3
f 204/3/3 200/3/3 203/3/3
f 205/3/3 202/3/3 201/3/3
f 206/3/3 202/3/3 205/3/3
f 210/3/3 208/3/3 207/3/3
f 211/3/3 208/3/3 210/3/3
f 212/3/3 208/3/3 211/3/3
f 213/3/3 210/3/3 209/3/3
f 213/3/3 211/3/3 210/3/3
f 214/3/3 211/3/3 213/3/3
f 215/3/3 211/3/3 214/3/3
f 217/3/3 216/3/3 215/3/3
f 217/3/3 215/3/3 214/3/3
f 218/3/3 216/3/3 217/3/3
f 223/3/3 220/3/3 219/3/3
f 224/3/3 220/3/3 223/3/3
f 225/3/3 220/3/3 224/3/3
f 226/3/3 224/3/3 223/3/3
f 227/3/3 224/3/3 226/3/3
f 228/3/3 222/3/3 221/3/3
f 229/1/3 223/1/3 222/1/3
f 229/3/3 222/3/3 228/3/3
f 230/3/3 226/3/3 223/3/3
f 230/1/3 223/1/3 229/1/3
f 233/3/3 226/3/3 230/3/3
f 234/3/3 226/3/3 233/3/3
f 236/3/3 232/3/3 231/3/3
f 237/1/3 233/1/3 232/1/3
f 237/3/3 232/3/3 236/3/3
f 238/3/3 235/3/3 234/3/3
f 238/1/3 233/1/3 237/1/3
f 238/3/3 234/3/3 233/3/3
f 239/3/3 235/3/3 238/3/3
f 241/3/3 239/3/3 238/3/3
f 241/3/3 240/3/3 239/3/3
f 242/3/3 240/3/3 241/3/3
f 246/3/3 244/3/3 243/3/3
f 247/1/3 245/1/3 244/1/3
f 247/3/3 244/3/3 246/3/3
f 248/1/3 245/1/3 247/1/3
f 252/3/3 250/3/3 249/3/3
f 253/1/3 251/1/3 250/1/3
f 253/3/3 250/3/3 252/3/3
f 254/1/3 251/1/3 253/1/3
f 255/3/4 256/3/4 257/3/4
f 257/3/4 256/3/4 258/3/4
f 259/3/4 260/3/4 261/3/4
f 261/3/4 260/3/4 262/3/4
f 263/3/4 264/3/4 265/3/4
f 263/3/4 265/3/4 267/3/4
f 265/3/4 266/3/4 267/3/4
f 267/3/4 266/3/4 268/3/4
f 263/3/4 267/3/4 269/3/4
f 269/3/4 267/3/4 270/3/4
f 271/3/4 272/3/4 274/3/4
f 272/1/4 273/1/4 275/1/4
f 274/3/4 272/3/4 275/3/4
f 275/1/4 273/1/4 276/1/4
f 277/3/4 278/3/4 280/3/4
f 278/1/4 279/1/4 281/1/4
f 280/3/4 278/3/4 281/3/4
f 281/1/4 279/1/4 282/1/4
f 283/3/4 284/3/4 287/3/4
f 287/3/4 284/3/4 288/3/4
f 285/3/4 286/3/4 291/3/4
f 286/1/4 287/1/4 292/1/4
f 291/3/4 286/3/4 292/3/4
f 292/1/4 287/1/4 293/1/4
f 289/3/4 290/3/4 294/3/4
f 294/3/4 290/3/4 295/3/4
f 296/3/4 297/3/4 301/3/4
f 297/1/4 298/1/4 302/1/4
f 301/3/4 297/3/4 302/3/4
f 302/1/4 298/1/4 303/1/4
f 299/3/4 300/3/4 305/3/4
f 305/3/4 300/3/4 306/3/4
f 303/3/4 304/3/4 307/3/4
f 307/3/4 304/3/4 308/3/4
f 309/3/4 310/3/4 312/3/4
f 312/3/4 310/3/4 313/3/4
f 311/3/4 312/3/4 313/3/4
f 313/3/4 310/3/4 314/3/4
f 311/3/4 313/3/4 315/3/4
f 311/3/4 315/3/4 317/3/4
f 315/3/4 316/3/4 317/3/4
f 317/3/4 316/3/4 318/3/4
f 318/3/4 316/3/4 319/3/4
f 319/3/4 316/3/4 320/3/4
f 321/3/4 322/3/4 325/3/4
f 325/3/4 322/3/4 326/3/4
f 323/3/4 324/3/4 327/3/4
f 327/3/4 324/3/4 328/3/4
f 329/3/4 330/3/4 333/3/4
f 333/3/4 330/3/4 334/3/4
f 331/3/4 332/3/4 335/3/4
f 335/3/4 332/3/4 336/3/4
f 337/3/4 338/3/4 340/3/4
f 340/3/4 338/3/4 341/3/4
f 339/3/4 340/3/4 343/3/4
f 341/3/4 342/3/4 343/3/4
f 340/3/4 341/3/4 343/3/4
f 343/3/4 342/3/4 344/3/4
f 344/3/4 342/3/4 345/3/4
f 345/3/4 342/3/4 346/3/4
f 344/3/4 345/3/4 347/3/4
f 347/3/4 345/3/4 348/3/4
f 353/3/5 350/3/5 349/3/5
f 354/3/5 350/3/5 353/3/5
f 355/3/5 352/3/5 351/3/5
f 356/3/5 352/3/5 355/3/5
f 361/3/5 358/3/5 357/3/5
f 362/3/5 358/3/5 361/3/5
f 363/3/5 360/3/5 359/3/5
f 364/3/5 360/3/5 363/3/5
f 371/3/5 366/3/5 365/3/5
f 372/3/5 368/3/5 367/3/5
f 373/3/5 368/3/5 372/3/5
f 374/3/5 370/3/5 369/3/5
f 375/3/5 373/3/5 372/3/5
f 375/3/5 374/3/5 373/3/5
f 375/3/5 371/3/5 365/3/5
f 375/3/5 372/3/5 371/3/5
f 376/3/5 374/3/5 375/3/5
f 377/3/5 374/3/5 376/3/5
f 378/3/5 370/3/5 374/3/5
f 378/3/5 374/3/5 377/3/5
f 379/3/5 375/3/5 365/3/5
f 380/3/5 375/3/5 379/3/5
f 381/3/5 377/3/5 376/3/5
f 382/3/5 377/3/5 381/3/5
f 383/3/5 370/3/5 378/3/5
f 384/3/5 370/3/5 383/3/5
f 385/3/5 382/3/5 381/3/5
f 385/3/5 383/3/5 382/3/5
f 385/3/5 381/3/5 380/3/5
f 386/3/5 383/3/5 385/3/5
f 389/3/5 388/3/5 387/3/5
f 390/3/5 388/3/5 389/3/5
f 395/3/5 392/3/5 391/3/5
f 396/3/5 392/3/5 395/3/5
f 397/3/5 394/3/5 393/3/5
f 398/3/5 394/3/5 397/3/5
f 403/3/5 400/3/5 399/3/5
f 404/3/5 400/3/5 403/3/5
f 405/3/5 402/3/5 401/3/5
f 406/3/5 402/3/5 405/3/5
f 410/3/5 408/3/5 407/3/5
f 411/3/5 408/3/5 410/3/5
f 413/3/5 410/3/5 409/3/5
f 413/3/5 412/3/5 411/3/5
f 413/3/5 411/3/5 410/3/5
f 414/3/5 412/3/5 413/3/5
f 417/3/5 416/3/5 415/3/5
f 418/3/5 416/3/5 417/3/5
f 419/3/5 416/3/5 418/3/5
f 420/3/5 416/3/5 419/3/5
f 421/3/5 419/3/5 418/3/5
f 422/3/5 419/3/5 421/3/5
f 427/3/5 424/3/5 423/3/5
f 428/3/5 424/3/5 427/3/5
f 429/3/5 426/3/5 425/3/5
f 430/3/5 426/3/5 429/3/5
f 435/3/5 432/3/5 431/3/5
f 436/3/5 432/3/5 435/3/5
f 437/3/5 434/3/5 433/3/5
f 438/3/5 434/3/5 437/3/5
f 439/3/6 440/3/6 443/3/6
f 441/3/6 442/3/6 446/3/6
f 443/3/6 444/3/6 447/3/6
f 439/3/6 443/3/6 447/3/6
f 447/3/6 444/3/6 448/3/6
f 445/3/6 446/3/6 449/3/6
f 446/3/6 442/3/6 450/3/6
f 449/3/6 446/3/6 450/3/6
f 451/3/6 452/3/6 455/3/6
f 455/3/6 452/3/6 456/3/6
f 453/3/6 454/3/6 457/3/6
f 457/3/6 454/3/6 458/3/6
f 459/3/6 460/3/6 463/3/6
f 461/3/6 462/3/6 464/3/6
f 459/3/6 463/3/6 465/3/6
f 463/3/6 464/3/6 465/3/6
f 465/3/6 464/3/6 466/3/6
f 466/3/6 464/3/6 467/3/6
f 464/3/6 462/3/6 468/3/6
f 467/3/6 464/3/6 468/3/6
f 466/3/6 467/3/6 469/3/6
f 469/3/6 467/3/6 470/3/6
f 470/3/6 467/3/6 471/3/6
f 471/3/6 467/3/6 472/3/6
f 470/3/6 471/3/6 473/3/6
f 473/3/6 471/3/6 474/3/6
f 475/3/6 476/3/6 479/3/6
f 479/3/6 476/3/6 480/3/6
f 477/3/6 478/3/6 481/3/6
f 481/3/6 478/3/6 482/3/6
f 483/3/6 484/3/6 487/3/6
f 487/3/6 484/3/6 488/3/6
f 485/3/6 486/3/6 489/3/6
f 489/3/6 486/3/6 490/3/6
f 491/3/6 492/3/6 494/3/6
f 494/3/6 492/3/6 495/3/6
f 493/3/6 494/3/6 497/3/6
f 495/3/6 496/3/6 497/3/6
f 494/3/6 495/3/6 497/3/6
f 497/3/6 496/3/6 498/3/6
f 498/3/6 496/3/6 499/3/6
f 499/3/6 496/3/6 500/3/6
f 498/3/6 499/3/6 501/3/6
f 501/3/6 499/3/6 502/3/6
