# Object Export From Tinkercad Server 2015

mtllib obj.mtl

o obj_0
v 1 		-52 		20
v 1 		-52 		0
v 1 		43 		0
v 1 		43 		20
v -19 		43 		20
v -19 		43 		0
v -19 		-52 		0
v -19 		-52 		20
v 0.239 		-55.827 		20
v -0.181 		-56.714 		20
v 0.569 		-54.903 		20
v 0.808 		-53.951 		20
v 0.952 		-52.98 		20
v -18.569 		-54.903 		20
v -0.685 		-57.556 		20
v -4.286 		51.819 		0
v -5.173 		52.239 		0
v -1.27 		-58.344 		20
v -8.02 		-61.952 		20
v -7.049 		-61.808 		20
v -6.097 		-61.569 		20
v -5.173 		-61.239 		20
v -4.286 		-60.819 		20
v -3.444 		-60.315 		20
v -2.656 		-59.73 		20
v -1.929 		-59.071 		20
v -6.097 		52.569 		0
v -7.049 		52.808 		0
v -8.02 		52.952 		0
v -18.239 		-55.827 		20
v -16.071 		-59.071 		20
v -15.344 		-59.73 		20
v -14.556 		-60.315 		20
v -13.714 		-60.819 		20
v -0.181 		-56.714 		0
v -12.827 		-61.239 		20
v -11.903 		-61.569 		20
v -10.951 		-61.808 		20
v -9.98 		-61.952 		20
v -9 		-62 		20
v -9 		53 		20
v -0.685 		-57.556 		0
v -9 		53 		0
v -16.071 		-59.071 		0
v -1.27 		-58.344 		0
v -18.952 		-52.98 		20
v -9.98 		52.952 		0
v -18.808 		-53.951 		20
v -17.819 		-56.714 		20
v -17.315 		-57.556 		20
v -16.73 		-58.344 		20
v -16.73 		-58.344 		0
v -1.929 		-59.071 		0
v -10.951 		52.808 		0
v -17.315 		-57.556 		0
v 0.952 		43.98 		20
v 0.808 		44.951 		20
v 0.569 		45.903 		20
v 0.239 		46.827 		20
v -11.903 		52.569 		0
v -2.656 		-59.73 		0
v -17.819 		-56.714 		0
v -12.827 		52.239 		0
v -3.444 		-60.315 		0
v -18.239 		-55.827 		0
v -18.569 		-54.903 		0
v -13.714 		51.819 		0
v -0.181 		47.714 		20
v -0.685 		48.556 		20
v -1.27 		49.344 		20
v -1.929 		50.071 		20
v -4.286 		-60.819 		0
v -2.656 		50.73 		20
v -3.444 		51.315 		20
v -4.286 		51.819 		20
v -5.173 		52.239 		20
v -6.097 		52.569 		20
v -7.049 		52.808 		20
v -8.02 		52.952 		20
v -14.556 		51.315 		0
v -18.808 		-53.951 		0
v -5.173 		-61.239 		0
v -9.98 		52.952 		20
v -18.952 		-52.98 		0
v -6.097 		-61.569 		0
v -10.951 		52.808 		20
v -7.049 		-61.808 		0
v -11.903 		52.569 		20
v -12.827 		52.239 		20
v -13.714 		51.819 		20
v -14.556 		51.315 		20
v -15.344 		50.73 		20
v -16.071 		50.071 		20
v -8.02 		-61.952 		0
v -16.73 		49.344 		20
v -17.315 		48.556 		20
v -17.819 		47.714 		20
v -18.239 		46.827 		20
v -18.569 		45.903 		20
v -9 		-62 		0
v -18.808 		44.951 		20
v -18.952 		43.98 		20
v -9.98 		-61.952 		0
v -10.951 		-61.808 		0
v 0.952 		-52.98 		0
v 0.808 		-53.951 		0
v 0.569 		-54.903 		0
v 0.239 		-55.827 		0
v -11.903 		-61.569 		0
v -12.827 		-61.239 		0
v -13.714 		-60.819 		0
v -14.556 		-60.315 		0
v -15.344 		-59.73 		0
v 0.952 		43.98 		0
v 0.239 		46.827 		0
v 0.569 		45.903 		0
v 0.808 		44.951 		0
v -3.444 		51.315 		0
v -2.656 		50.73 		0
v -1.929 		50.071 		0
v -1.27 		49.344 		0
v -0.685 		48.556 		0
v -0.181 		47.714 		0
v -15.344 		50.73 		0
v -16.071 		50.071 		0
v -16.73 		49.344 		0
v -18.952 		43.98 		0
v -18.808 		44.951 		0
v -18.569 		45.903 		0
v -18.239 		46.827 		0
v -17.315 		48.556 		0
v -17.819 		47.714 		0
# 132 vertices

g group_0_15277357

usemtl color_15277357
s 0

f 1 	2 	3
f 1 	3 	4
f 5 	6 	7
f 5 	7 	8
f 12 	13 	11
f 13 	1 	11
f 21 	1 	20
f 22 	1 	21
f 23 	1 	22
f 24 	1 	23
f 25 	1 	24
f 26 	1 	25
f 18 	1 	26
f 15 	1 	18
f 10 	1 	15
f 9 	1 	10
f 9 	11 	1
f 19 	20 	1
f 32 	1 	31
f 33 	1 	32
f 34 	1 	33
f 36 	1 	34
f 37 	1 	36
f 38 	1 	37
f 39 	1 	38
f 40 	1 	39
f 19 	1 	40
f 51 	31 	1
f 14 	1 	48
f 46 	48 	1
f 30 	1 	14
f 49 	1 	30
f 50 	1 	49
f 51 	1 	50
f 8 	46 	1
f 51 	52 	44
f 55 	52 	51
f 58 	5 	57
f 56 	57 	5
f 59 	5 	58
f 4 	56 	5
f 14 	66 	65
f 5 	59 	68
f 5 	68 	69
f 5 	69 	70
f 5 	70 	71
f 5 	71 	73
f 5 	73 	74
f 5 	74 	75
f 5 	75 	76
f 5 	76 	77
f 78 	5 	77
f 79 	5 	78
f 81 	66 	14
f 8 	7 	84
f 4 	114 	56
f 5 	79 	41
f 5 	41 	83
f 5 	83 	86
f 5 	86 	88
f 5 	88 	89
f 5 	89 	90
f 5 	90 	91
f 5 	91 	92
f 5 	92 	93
f 93 	95 	5
f 57 	56 	114
f 95 	96 	5
f 96 	97 	5
f 97 	98 	5
f 5 	98 	99
f 101 	102 	99
f 5 	99 	102
f 8 	1 	5
f 4 	5 	1
f 106 	107 	105
f 2 	105 	107
f 108 	2 	107
f 35 	2 	108
f 34 	111 	110
f 34 	110 	36
f 111 	34 	112
f 33 	112 	34
f 2 	35 	42
f 2 	42 	45
f 2 	45 	53
f 2 	53 	61
f 2 	61 	64
f 2 	64 	72
f 82 	2 	72
f 85 	2 	82
f 87 	2 	85
f 94 	2 	87
f 113 	112 	33
f 119 	118 	73
f 98 	129 	99
f 2 	94 	100
f 2 	100 	103
f 2 	103 	104
f 2 	104 	109
f 2 	109 	110
f 2 	110 	111
f 2 	111 	112
f 2 	112 	113
f 2 	113 	44
f 44 	52 	2
f 129 	101 	99
f 71 	70 	121
f 102 	6 	5
f 52 	55 	2
f 55 	62 	2
f 62 	65 	2
f 65 	66 	2
f 66 	81 	2
f 84 	2 	81
f 7 	2 	84
f 4 	3 	114
f 119 	73 	71
f 117 	57 	114
f 117 	114 	116
f 116 	114 	3
f 74 	73 	118
f 57 	117 	58
f 116 	58 	117
f 58 	116 	59
f 115 	59 	116
f 118 	16 	75
f 118 	75 	74
f 123 	68 	115
f 59 	115 	68
f 16 	17 	76
f 16 	76 	75
f 27 	3 	28
f 29 	28 	3
f 17 	3 	27
f 16 	3 	17
f 118 	3 	16
f 119 	3 	118
f 120 	3 	119
f 121 	3 	120
f 122 	3 	121
f 123 	3 	122
f 115 	3 	123
f 115 	116 	3
f 43 	29 	3
f 76 	17 	77
f 27 	77 	17
f 122 	69 	68
f 78 	77 	28
f 27 	28 	77
f 69 	122 	70
f 121 	70 	122
f 67 	3 	80
f 124 	80 	3
f 63 	3 	67
f 60 	3 	63
f 54 	3 	60
f 47 	3 	54
f 43 	3 	47
f 125 	124 	3
f 6 	127 	3
f 78 	28 	79
f 29 	79 	28
f 125 	126 	95
f 96 	95 	131
f 126 	131 	95
f 129 	3 	128
f 127 	128 	3
f 130 	3 	129
f 132 	3 	130
f 131 	3 	132
f 126 	3 	131
f 125 	3 	126
f 131 	132 	97
f 131 	97 	96
f 29 	43 	79
f 98 	97 	130
f 132 	130 	97
f 6 	3 	7
f 2 	7 	3
f 41 	79 	43
f 65 	30 	14
f 2 	1 	13
f 47 	83 	43
f 41 	43 	83
f 48 	81 	14
f 81 	48 	84
f 46 	84 	48
f 86 	83 	54
f 47 	54 	83
f 11 	9 	108
f 8 	84 	46
f 54 	60 	88
f 54 	88 	86
f 13 	105 	2
f 13 	12 	106
f 13 	106 	105
f 89 	88 	63
f 60 	63 	88
f 107 	106 	11
f 12 	11 	106
f 11 	108 	107
f 63 	67 	90
f 63 	90 	89
f 108 	9 	10
f 35 	108 	10
f 91 	90 	80
f 67 	80 	90
f 10 	15 	42
f 10 	42 	35
f 92 	91 	124
f 80 	124 	91
f 45 	42 	18
f 15 	18 	42
f 38 	37 	109
f 18 	26 	53
f 18 	53 	45
f 124 	125 	93
f 124 	93 	92
f 61 	53 	25
f 26 	25 	53
f 37 	36 	109
f 25 	24 	64
f 25 	64 	61
f 125 	95 	93
f 72 	64 	23
f 24 	23 	64
f 23 	22 	82
f 23 	82 	72
f 85 	82 	21
f 22 	21 	82
f 113 	33 	32
f 21 	20 	87
f 21 	87 	85
f 123 	122 	68
f 94 	87 	19
f 20 	19 	87
f 44 	113 	31
f 32 	31 	113
f 100 	94 	40
f 94 	19 	40
f 39 	103 	40
f 100 	40 	103
f 130 	129 	98
f 121 	120 	71
f 44 	31 	51
f 39 	38 	104
f 39 	104 	103
f 101 	129 	128
f 120 	119 	71
f 50 	55 	51
f 128 	127 	102
f 128 	102 	101
f 38 	109 	104
f 55 	50 	62
f 49 	62 	50
f 127 	6 	102
f 36 	110 	109
f 30 	65 	62
f 30 	62 	49
# 260 faces

 #end of obj_0

