# Object Export From Tinkercad Server 2015

mtllib obj.mtl

o obj_0
v 1.238 		4.375 		0
v 2.678 		12.678 		0
v 6.651 		7.5 		0
v 9.148 		1.47 		0
v 10 		-5 		0
v 9.148 		-11.47 		0
v 6.651 		-17.5 		0
v 2.678 		-22.678 		0
v -31.238 		4.375 		10
v -28.258 		8.258 		10
v 1.238 		-14.375 		0
v -19.853 		-23.111 		0
v -15 		-23.75 		0
v -24.375 		11.238 		10
v -28.258 		-18.258 		10
v -31.238 		-14.375 		10
v -24.375 		-21.238 		0
v -19.853 		13.111 		10
v -28.258 		-18.258 		0
v -32.678 		-22.678 		10
v -31.238 		4.375 		0
v -28.258 		8.258 		0
v -33.111 		-9.853 		10
v -31.238 		-14.375 		0
v -33.111 		-9.853 		0
v -33.75 		-5 		10
v -33.75 		-5 		0
v -2.5 		16.651 		0
v -8.53 		19.148 		0
v -8.53 		19.148 		10
v -2.5 		16.651 		10
v -32.678 		-22.678 		0
v -19.853 		-23.111 		10
v -33.111 		-0.147 		0
v -33.111 		-0.147 		10
v -1.742 		-18.258 		10
v -15 		-23.75 		10
v -1.742 		-18.258 		0
v -5.625 		-21.238 		10
v -36.651 		7.5 		0
v -24.375 		-21.238 		10
v -36.651 		7.5 		10
v -5.625 		-21.238 		0
v -10.147 		-23.111 		10
v -39.148 		1.47 		0
v -39.148 		1.47 		10
v -10.147 		-23.111 		0
v -24.375 		11.238 		0
v -19.853 		13.111 		0
v -21.47 		-29.148 		10
v -15 		-30 		0
v -15 		-30 		10
v -21.47 		-29.148 		0
v -15 		13.75 		10
v -27.5 		-26.651 		0
v -8.53 		-29.148 		10
v -2.5 		-26.651 		10
v -15 		13.75 		0
v -2.5 		-26.651 		0
v -8.53 		-29.148 		0
v -32.678 		12.678 		0
v -32.678 		12.678 		10
v -27.5 		-26.651 		10
v -10.147 		13.111 		10
v -10.147 		13.111 		0
v -36.651 		-17.5 		0
v -36.651 		-17.5 		10
v -40 		-5 		10
v -39.148 		-11.47 		10
v -27.5 		16.651 		0
v -27.5 		16.651 		10
v -39.148 		-11.47 		0
v -40 		-5 		0
v 1.238 		4.375 		10
v -5.625 		11.238 		10
v -5.625 		11.238 		0
v 6.651 		7.5 		10
v 2.678 		12.678 		10
v 9.148 		1.47 		10
v -21.47 		19.148 		0
v -21.47 		19.148 		10
v -1.742 		8.258 		10
v -1.742 		8.258 		0
v -15 		20 		0
v -15 		20 		10
v 3.111 		-0.147 		0
v 3.111 		-0.147 		10
v 3.75 		-5 		0
v 3.75 		-5 		10
v 3.111 		-9.853 		0
v 3.111 		-9.853 		10
v 1.238 		-14.375 		10
v 2.678 		-22.678 		10
v 6.651 		-17.5 		10
v 9.148 		-11.47 		10
v 10 		-5 		10
# 96 vertices

g group_0_16089887

usemtl color_16089887
s 0

f 8 	11 	7
f 11 	90 	7
f 6 	7 	90
f 14 	62 	10
f 16 	20 	15
f 18 	71 	14
f 10 	9 	21
f 10 	21 	22
f 23 	67 	16
f 55 	32 	17
f 26 	23 	25
f 26 	25 	27
f 28 	29 	30
f 28 	30 	31
f 20 	67 	66
f 26 	27 	34
f 26 	34 	35
f 19 	17 	32
f 66 	24 	32
f 19 	32 	24
f 13 	12 	33
f 13 	33 	37
f 57 	93 	39
f 33 	12 	17
f 33 	17 	41
f 40 	42 	62
f 8 	38 	11
f 44 	57 	39
f 8 	59 	43
f 43 	38 	8
f 14 	10 	22
f 14 	22 	48
f 41 	17 	19
f 41 	19 	15
f 18 	14 	48
f 18 	48 	49
f 16 	15 	19
f 16 	19 	24
f 54 	18 	49
f 54 	49 	58
f 24 	25 	16
f 23 	16 	25
f 55 	12 	53
f 17 	12 	55
f 12 	13 	53
f 51 	53 	13
f 47 	60 	13
f 43 	59 	47
f 59 	60 	47
f 51 	13 	60
f 44 	37 	56
f 57 	44 	56
f 52 	56 	37
f 50 	52 	37
f 63 	41 	20
f 50 	33 	63
f 66 	32 	20
f 25 	24 	66
f 61 	40 	62
f 20 	32 	55
f 20 	16 	67
f 26 	69 	23
f 64 	54 	58
f 64 	58 	65
f 67 	23 	69
f 35 	46 	26
f 11 	38 	36
f 27 	25 	72
f 66 	72 	25
f 36 	38 	43
f 36 	43 	39
f 69 	26 	68
f 68 	26 	46
f 73 	45 	27
f 34 	27 	45
f 72 	73 	27
f 39 	43 	47
f 39 	47 	44
f 70 	61 	62
f 70 	62 	71
f 44 	47 	13
f 44 	13 	37
f 75 	64 	65
f 75 	65 	76
f 60 	56 	52
f 60 	52 	51
f 80 	81 	85
f 77 	78 	74
f 74 	87 	77
f 4 	3 	77
f 4 	77 	79
f 59 	57 	56
f 59 	56 	60
f 80 	70 	71
f 80 	71 	81
f 10 	62 	9
f 2 	78 	77
f 2 	77 	3
f 57 	59 	8
f 82 	75 	76
f 82 	76 	83
f 2 	28 	78
f 55 	63 	20
f 85 	30 	84
f 29 	84 	30
f 9 	35 	21
f 53 	50 	63
f 53 	63 	55
f 84 	80 	85
f 1 	83 	2
f 2 	3 	1
f 51 	52 	50
f 51 	50 	53
f 1 	74 	83
f 82 	83 	74
f 28 	31 	78
f 40 	61 	21
f 66 	67 	69
f 40 	45 	46
f 40 	46 	42
f 22 	21 	61
f 48 	22 	61
f 61 	70 	48
f 49 	48 	70
f 45 	73 	46
f 70 	80 	49
f 58 	49 	80
f 1 	86 	87
f 1 	87 	74
f 80 	84 	58
f 84 	29 	58
f 21 	35 	34
f 65 	58 	29
f 29 	28 	65
f 76 	65 	28
f 87 	86 	88
f 87 	88 	89
f 73 	68 	46
f 28 	2 	76
f 83 	76 	2
f 89 	88 	90
f 89 	90 	91
f 68 	73 	72
f 68 	72 	69
f 91 	90 	11
f 91 	11 	92
f 21 	34 	40
f 45 	40 	34
f 5 	4 	96
f 79 	96 	4
f 54 	81 	18
f 72 	66 	69
f 3 	86 	1
f 92 	11 	36
f 4 	88 	86
f 4 	86 	3
f 62 	14 	71
f 64 	30 	54
f 8 	93 	57
f 90 	88 	6
f 5 	6 	88
f 4 	5 	88
f 71 	18 	81
f 85 	81 	54
f 75 	31 	64
f 8 	7 	94
f 8 	94 	93
f 82 	78 	75
f 85 	54 	30
f 7 	6 	95
f 7 	95 	94
f 6 	5 	96
f 6 	96 	95
f 74 	78 	82
f 31 	75 	78
f 30 	64 	31
f 46 	35 	42
f 35 	9 	42
f 42 	9 	62
f 79 	77 	87
f 91 	95 	89
f 87 	89 	79
f 96 	79 	89
f 92 	94 	91
f 36 	39 	93
f 92 	36 	93
f 93 	94 	92
f 95 	91 	94
f 96 	89 	95
f 41 	63 	33
f 37 	33 	50
f 15 	20 	41
# 192 faces

 #end of obj_0

