# MagicaVoxel @ Ephtracy

# group
o 

# material
mtllib Wheelbarrow.mtl
usemtl palette

# normals
vn -1 0 0
vn 1 0 0
vn 0 0 1
vn 0 0 -1
vn 0 -1 0
vn 0 1 0

# texcoords
vt 0.369141 0.5
vt 0.537109 0.5
vt 0.986328 0.5

# verts
v -0.6 0 0.9
v -0.6 0 0.7
v -0.6 0.1 1
v -0.6 0.1 0.9
v -0.6 0.4 2.6
v -0.6 0.4 2.4
v -0.6 0.5 1.1
v -0.6 0.5 1
v -0.6 0.5 0.8
v -0.6 0.5 0.7
v -0.6 0.6 2.6
v -0.6 0.6 2.4
v -0.6 0.6 1.2
v -0.6 0.6 1.1
v -0.6 0.6 0.9
v -0.6 0.6 0.8
v -0.6 0.7 1.1
v -0.6 0.7 1
v -0.6 0.8 1.1
v -0.6 0.8 1
v -0.6 0.9 1.2
v -0.6 0.9 0.9
v -0.5 0.3 2.7
v -0.5 0.3 1
v -0.5 0.3 0.7
v -0.5 0.3 0.2
v -0.5 0.4 2.6
v -0.5 0.4 2.4
v -0.5 0.4 0.2
v -0.5 0.4 0.0999999
v -0.5 0.5 1.1
v -0.5 0.5 1
v -0.5 0.5 0.8
v -0.5 0.5 0.7
v -0.5 0.6 2.6
v -0.5 0.6 2.4
v -0.5 0.6 1.9
v -0.5 0.6 1.2
v -0.5 0.6 1.1
v -0.5 0.6 0.9
v -0.5 0.6 0.8
v -0.5 0.6 0.5
v -0.5 0.6 0.3
v -0.5 0.6 0.0999999
v -0.5 0.6 -2.38419e-07
v -0.5 0.7 2.7
v -0.5 0.7 1.9
v -0.5 0.7 1.8
v -0.5 0.7 1.2
v -0.5 0.7 0.9
v -0.5 0.7 0.5
v -0.5 0.8 1.9
v -0.5 0.8 1.8
v -0.5 0.8 0.3
v -0.5 0.8 0.2
v -0.5 0.8 -2.38419e-07
v -0.5 0.8 -0.1
v -0.5 0.9 1.9
v -0.5 0.9 1.2
v -0.5 0.9 0.9
v -0.5 0.9 0.5
v -0.5 1 2
v -0.5 1 1.9
v -0.5 1 0.5
v -0.5 1.1 0.2
v -0.5 1.1 0.0999999
v -0.5 1.1 -0.1
v -0.5 1.1 -0.3
v -0.5 1.1 -0.6
v -0.5 1.2 2
v -0.5 1.2 0.5
v -0.5 1.3 2
v -0.5 1.3 0.5
v -0.5 1.3 0.0999999
v -0.5 1.3 -0.3
v -0.5 1.3 -0.6
v -0.2 0 2.9
v -0.2 0 2.1
v -0.2 0.1 3
v -0.2 0.1 2.9
v -0.2 0.1 2.1
v -0.2 0.1 2
v -0.2 0.2 2.8
v -0.2 0.2 2.2
v -0.2 0.8 2.8
v -0.2 0.8 2.2
v -0.2 0.9 3
v -0.2 0.9 2.9
v -0.2 0.9 2.1
v -0.2 0.9 2
v -0.2 1 2.9
v -0.2 1 2.1
v -0.0999998 0.2 2.8
v -0.0999998 0.2 2.7
v -0.0999998 0.2 2.6
v -0.0999998 0.2 2.4
v -0.0999998 0.2 2.3
v -0.0999998 0.2 2.2
v -0.0999998 0.3 2.8
v -0.0999998 0.3 2.7
v -0.0999998 0.3 2.6
v -0.0999998 0.3 2.4
v -0.0999998 0.3 2.3
v -0.0999998 0.3 2.2
v -0.0999998 0.4 2.8
v -0.0999998 0.4 2.7
v -0.0999998 0.4 2.6
v -0.0999998 0.4 2.4
v -0.0999998 0.4 2.3
v -0.0999998 0.4 2.2
v -0.0999998 0.6 2.8
v -0.0999998 0.6 2.7
v -0.0999998 0.6 2.6
v -0.0999998 0.6 2.4
v -0.0999998 0.6 2.3
v -0.0999998 0.6 2.2
v -0.0999998 0.7 2.8
v -0.0999998 0.7 2.7
v -0.0999998 0.7 2.6
v -0.0999998 0.7 2.4
v -0.0999998 0.7 2.3
v -0.0999998 0.7 2.2
v -0.0999998 0.8 2.8
v -0.0999998 0.8 2.7
v -0.0999998 0.8 2.6
v -0.0999998 0.8 2.4
v -0.0999998 0.8 2.3
v -0.0999998 0.8 2.2
v 0.1 0.3 1.7
v 0.1 0.3 1.6
v 0.1 0.4 1.7
v 0.1 0.4 1.6
v 0.3 0.3 2.7
v 0.3 0.3 1.7
v 0.3 0.3 0.5
v 0.3 0.3 0.2
v 0.3 0.4 2.6
v 0.3 0.4 2.4
v 0.3 0.4 1.8
v 0.3 0.4 1.7
v 0.3 0.4 1.6
v 0.3 0.4 0.6
v 0.3 0.4 0.2
v 0.3 0.4 0.0999999
v 0.3 0.5 1.7
v 0.3 0.5 1.6
v 0.3 0.6 2.6
v 0.3 0.6 2.4
v 0.3 0.6 1.9
v 0.3 0.6 1.8
v 0.3 0.6 1.7
v 0.3 0.6 1.2
v 0.3 0.6 0.9
v 0.3 0.6 0.6
v 0.3 0.6 0.5
v 0.3 0.6 0.3
v 0.3 0.6 0.0999999
v 0.3 0.6 -2.38419e-07
v 0.3 0.7 2.7
v 0.3 0.7 1.9
v 0.3 0.7 1.8
v 0.3 0.7 1.7
v 0.3 0.7 1.2
v 0.3 0.7 0.9
v 0.3 0.7 0.6
v 0.3 0.8 1.8
v 0.3 0.8 1.7
v 0.3 0.8 0.3
v 0.3 0.8 0.2
v 0.3 0.8 -2.38419e-07
v 0.3 0.8 -0.1
v 0.3 0.9 1.8
v 0.3 0.9 0.6
v 0.3 1 1.9
v 0.3 1 1.8
v 0.3 1 0.6
v 0.3 1.1 0.2
v 0.3 1.1 0.0999999
v 0.3 1.1 -0.1
v 0.3 1.1 -0.3
v 0.3 1.1 -0.6
v 0.3 1.2 1.9
v 0.3 1.2 0.6
v 0.3 1.3 1.9
v 0.3 1.3 0.6
v 0.3 1.3 0.0999999
v 0.3 1.3 -0.3
v 0.3 1.3 -0.6
v 0.4 0 0.9
v 0.4 0 0.7
v 0.4 0.1 1
v 0.4 0.1 0.9
v 0.4 0.3 1
v 0.4 0.3 0.7
v -0.5 0 0.9
v -0.5 0 0.7
v -0.5 0.1 1
v -0.5 0.1 0.9
v -0.5 0.3 1
v -0.5 0.3 0.7
v -0.4 0.3 2.7
v -0.4 0.3 1.7
v -0.4 0.3 0.5
v -0.4 0.3 0.2
v -0.4 0.4 2.6
v -0.4 0.4 2.4
v -0.4 0.4 1.8
v -0.4 0.4 1.7
v -0.4 0.4 1.6
v -0.4 0.4 0.6
v -0.4 0.4 0.2
v -0.4 0.4 0.0999999
v -0.4 0.5 1.7
v -0.4 0.5 1.6
v -0.4 0.6 2.6
v -0.4 0.6 2.4
v -0.4 0.6 1.9
v -0.4 0.6 1.8
v -0.4 0.6 1.7
v -0.4 0.6 1.2
v -0.4 0.6 0.9
v -0.4 0.6 0.6
v -0.4 0.6 0.5
v -0.4 0.6 0.3
v -0.4 0.6 0.0999999
v -0.4 0.6 -2.38419e-07
v -0.4 0.7 2.7
v -0.4 0.7 1.9
v -0.4 0.7 1.8
v -0.4 0.7 1.7
v -0.4 0.7 1.2
v -0.4 0.7 0.9
v -0.4 0.7 0.6
v -0.4 0.8 1.8
v -0.4 0.8 1.7
v -0.4 0.8 0.3
v -0.4 0.8 0.2
v -0.4 0.8 -2.38419e-07
v -0.4 0.8 -0.1
v -0.4 0.9 1.8
v -0.4 0.9 0.6
v -0.4 1 1.9
v -0.4 1 1.8
v -0.4 1 0.6
v -0.4 1.1 0.2
v -0.4 1.1 0.0999999
v -0.4 1.1 -0.1
v -0.4 1.1 -0.3
v -0.4 1.1 -0.6
v -0.4 1.2 1.9
v -0.4 1.2 0.6
v -0.4 1.3 1.9
v -0.4 1.3 0.6
v -0.4 1.3 0.0999999
v -0.4 1.3 -0.3
v -0.4 1.3 -0.6
v -0.2 0.3 1.7
v -0.2 0.3 1.6
v -0.2 0.4 1.7
v -0.2 0.4 1.6
v 1.78814e-07 0.2 2.8
v 1.78814e-07 0.2 2.7
v 1.78814e-07 0.2 2.6
v 1.78814e-07 0.2 2.4
v 1.78814e-07 0.2 2.3
v 1.78814e-07 0.2 2.2
v 1.78814e-07 0.3 2.8
v 1.78814e-07 0.3 2.7
v 1.78814e-07 0.3 2.6
v 1.78814e-07 0.3 2.4
v 1.78814e-07 0.3 2.3
v 1.78814e-07 0.3 2.2
v 1.78814e-07 0.4 2.8
v 1.78814e-07 0.4 2.7
v 1.78814e-07 0.4 2.6
v 1.78814e-07 0.4 2.4
v 1.78814e-07 0.4 2.3
v 1.78814e-07 0.4 2.2
v 1.78814e-07 0.6 2.8
v 1.78814e-07 0.6 2.7
v 1.78814e-07 0.6 2.6
v 1.78814e-07 0.6 2.4
v 1.78814e-07 0.6 2.3
v 1.78814e-07 0.6 2.2
v 1.78814e-07 0.7 2.8
v 1.78814e-07 0.7 2.7
v 1.78814e-07 0.7 2.6
v 1.78814e-07 0.7 2.4
v 1.78814e-07 0.7 2.3
v 1.78814e-07 0.7 2.2
v 1.78814e-07 0.8 2.8
v 1.78814e-07 0.8 2.7
v 1.78814e-07 0.8 2.6
v 1.78814e-07 0.8 2.4
v 1.78814e-07 0.8 2.3
v 1.78814e-07 0.8 2.2
v 0.1 0 2.9
v 0.1 0 2.1
v 0.1 0.1 3
v 0.1 0.1 2.9
v 0.1 0.1 2.1
v 0.1 0.1 2
v 0.1 0.2 2.8
v 0.1 0.2 2.2
v 0.1 0.8 2.8
v 0.1 0.8 2.2
v 0.1 0.9 3
v 0.1 0.9 2.9
v 0.1 0.9 2.1
v 0.1 0.9 2
v 0.1 1 2.9
v 0.1 1 2.1
v 0.4 0.3 2.7
v 0.4 0.3 1
v 0.4 0.3 0.7
v 0.4 0.3 0.2
v 0.4 0.4 2.6
v 0.4 0.4 2.4
v 0.4 0.4 0.2
v 0.4 0.4 0.0999999
v 0.4 0.5 1.1
v 0.4 0.5 1
v 0.4 0.5 0.8
v 0.4 0.5 0.7
v 0.4 0.6 2.6
v 0.4 0.6 2.4
v 0.4 0.6 1.9
v 0.4 0.6 1.2
v 0.4 0.6 1.1
v 0.4 0.6 0.9
v 0.4 0.6 0.8
v 0.4 0.6 0.5
v 0.4 0.6 0.3
v 0.4 0.6 0.0999999
v 0.4 0.6 -2.38419e-07
v 0.4 0.7 2.7
v 0.4 0.7 1.9
v 0.4 0.7 1.8
v 0.4 0.7 1.2
v 0.4 0.7 0.9
v 0.4 0.7 0.5
v 0.4 0.8 1.9
v 0.4 0.8 1.8
v 0.4 0.8 0.3
v 0.4 0.8 0.2
v 0.4 0.8 -2.38419e-07
v 0.4 0.8 -0.1
v 0.4 0.9 1.9
v 0.4 0.9 1.2
v 0.4 0.9 0.9
v 0.4 0.9 0.5
v 0.4 1 2
v 0.4 1 1.9
v 0.4 1 0.5
v 0.4 1.1 0.2
v 0.4 1.1 0.0999999
v 0.4 1.1 -0.1
v 0.4 1.1 -0.3
v 0.4 1.1 -0.6
v 0.4 1.2 2
v 0.4 1.2 0.5
v 0.4 1.3 2
v 0.4 1.3 0.5
v 0.4 1.3 0.0999999
v 0.4 1.3 -0.3
v 0.4 1.3 -0.6
v 0.5 0 0.9
v 0.5 0 0.7
v 0.5 0.1 1
v 0.5 0.1 0.9
v 0.5 0.4 2.6
v 0.5 0.4 2.4
v 0.5 0.5 1.1
v 0.5 0.5 1
v 0.5 0.5 0.8
v 0.5 0.5 0.7
v 0.5 0.6 2.6
v 0.5 0.6 2.4
v 0.5 0.6 1.2
v 0.5 0.6 1.1
v 0.5 0.6 0.9
v 0.5 0.6 0.8
v 0.5 0.7 1.1
v 0.5 0.7 1
v 0.5 0.8 1.1
v 0.5 0.8 1
v 0.5 0.9 1.2
v 0.5 0.9 0.9
v -0.2 0.1 3
v -0.2 0.9 3
v 0.1 0.1 3
v 0.1 0.9 3
v -0.2 0 2.9
v -0.2 0.1 2.9
v -0.2 0.9 2.9
v -0.2 1 2.9
v 0.1 0 2.9
v 0.1 0.1 2.9
v 0.1 0.9 2.9
v 0.1 1 2.9
v -0.5 0.3 2.7
v -0.5 0.7 2.7
v -0.4 0.3 2.7
v -0.4 0.7 2.7
v -0.0999998 0.3 2.7
v -0.0999998 0.4 2.7
v -0.0999998 0.6 2.7
v -0.0999998 0.7 2.7
v 1.78814e-07 0.3 2.7
v 1.78814e-07 0.4 2.7
v 1.78814e-07 0.6 2.7
v 1.78814e-07 0.7 2.7
v 0.3 0.3 2.7
v 0.3 0.7 2.7
v 0.4 0.3 2.7
v 0.4 0.7 2.7
v -0.6 0.4 2.6
v -0.6 0.6 2.6
v -0.5 0.4 2.6
v -0.5 0.6 2.6
v -0.4 0.4 2.6
v -0.4 0.6 2.6
v -0.0999998 0.2 2.6
v -0.0999998 0.3 2.6
v -0.0999998 0.4 2.6
v -0.0999998 0.6 2.6
v -0.0999998 0.7 2.6
v -0.0999998 0.8 2.6
v 1.78814e-07 0.2 2.6
v 1.78814e-07 0.3 2.6
v 1.78814e-07 0.4 2.6
v 1.78814e-07 0.6 2.6
v 1.78814e-07 0.7 2.6
v 1.78814e-07 0.8 2.6
v 0.3 0.4 2.6
v 0.3 0.6 2.6
v 0.4 0.4 2.6
v 0.4 0.6 2.6
v 0.5 0.4 2.6
v 0.5 0.6 2.6
v -0.0999998 0.2 2.3
v -0.0999998 0.3 2.3
v -0.0999998 0.7 2.3
v -0.0999998 0.8 2.3
v 1.78814e-07 0.2 2.3
v 1.78814e-07 0.3 2.3
v 1.78814e-07 0.7 2.3
v 1.78814e-07 0.8 2.3
v -0.2 0.2 2.2
v -0.2 0.8 2.2
v -0.0999998 0.2 2.2
v -0.0999998 0.3 2.2
v -0.0999998 0.4 2.2
v -0.0999998 0.6 2.2
v -0.0999998 0.7 2.2
v -0.0999998 0.8 2.2
v 1.78814e-07 0.2 2.2
v 1.78814e-07 0.3 2.2
v 1.78814e-07 0.4 2.2
v 1.78814e-07 0.6 2.2
v 1.78814e-07 0.7 2.2
v 1.78814e-07 0.8 2.2
v 0.1 0.2 2.2
v 0.1 0.8 2.2
v -0.5 1 2
v -0.5 1.2 2
v -0.5 1.3 2
v 0.4 1 2
v 0.4 1.2 2
v 0.4 1.3 2
v -0.5 0.8 1.9
v -0.5 0.9 1.9
v -0.5 1 1.9
v 0.4 0.8 1.9
v 0.4 0.9 1.9
v 0.4 1 1.9
v -0.5 0.7 1.8
v -0.5 0.8 1.8
v -0.4 0.4 1.8
v -0.4 0.6 1.8
v -0.4 0.7 1.8
v 0.3 0.4 1.8
v 0.3 0.6 1.8
v 0.3 0.7 1.8
v 0.4 0.7 1.8
v 0.4 0.8 1.8
v -0.4 0.3 1.7
v -0.4 0.4 1.7
v -0.2 0.3 1.7
v -0.2 0.4 1.7
v 0.1 0.3 1.7
v 0.1 0.4 1.7
v 0.3 0.3 1.7
v 0.3 0.4 1.7
v -0.2 0.3 1.6
v -0.2 0.4 1.6
v 0.1 0.3 1.6
v 0.1 0.4 1.6
v -0.6 0.6 1.2
v -0.6 0.9 1.2
v -0.5 0.6 1.2
v -0.5 0.7 1.2
v -0.5 0.9 1.2
v 0.4 0.6 1.2
v 0.4 0.7 1.2
v 0.4 0.9 1.2
v 0.5 0.6 1.2
v 0.5 0.9 1.2
v -0.6 0.5 1.1
v -0.6 0.6 1.1
v -0.5 0.5 1.1
v -0.5 0.6 1.1
v 0.4 0.5 1.1
v 0.4 0.6 1.1
v 0.5 0.5 1.1
v 0.5 0.6 1.1
v -0.6 0.1 1
v -0.6 0.5 1
v -0.5 0.1 1
v -0.5 0.3 1
v -0.5 0.5 1
v 0.4 0.1 1
v 0.4 0.3 1
v 0.4 0.5 1
v 0.5 0.1 1
v 0.5 0.5 1
v -0.6 0 0.9
v -0.6 0.1 0.9
v -0.5 0 0.9
v -0.5 0.1 0.9
v 0.4 0 0.9
v 0.4 0.1 0.9
v 0.5 0 0.9
v 0.5 0.1 0.9
v -0.4 0.4 0.6
v -0.4 0.6 0.6
v -0.4 0.7 0.6
v -0.4 0.9 0.6
v -0.4 1 0.6
v -0.4 1.2 0.6
v -0.4 1.3 0.6
v 0.3 0.4 0.6
v 0.3 0.6 0.6
v 0.3 0.7 0.6
v 0.3 0.9 0.6
v 0.3 1 0.6
v 0.3 1.2 0.6
v 0.3 1.3 0.6
v -0.5 0.6 0.3
v -0.5 0.8 0.3
v -0.4 0.6 0.3
v -0.4 0.8 0.3
v 0.3 0.6 0.3
v 0.3 0.8 0.3
v 0.4 0.6 0.3
v 0.4 0.8 0.3
v -0.5 0.8 0.2
v -0.5 1.1 0.2
v -0.4 0.8 0.2
v -0.4 1.1 0.2
v 0.3 0.8 0.2
v 0.3 1.1 0.2
v 0.4 0.8 0.2
v 0.4 1.1 0.2
v -0.5 1.1 0.0999999
v -0.5 1.3 0.0999999
v -0.4 1.1 0.0999999
v -0.4 1.3 0.0999999
v 0.3 1.1 0.0999999
v 0.3 1.3 0.0999999
v 0.4 1.1 0.0999999
v 0.4 1.3 0.0999999
v -0.2 0.2 2.8
v -0.2 0.8 2.8
v -0.0999998 0.2 2.8
v -0.0999998 0.3 2.8
v -0.0999998 0.4 2.8
v -0.0999998 0.6 2.8
v -0.0999998 0.7 2.8
v -0.0999998 0.8 2.8
v 1.78814e-07 0.2 2.8
v 1.78814e-07 0.3 2.8
v 1.78814e-07 0.4 2.8
v 1.78814e-07 0.6 2.8
v 1.78814e-07 0.7 2.8
v 1.78814e-07 0.8 2.8
v 0.1 0.2 2.8
v 0.1 0.8 2.8
v -0.0999998 0.2 2.7
v -0.0999998 0.3 2.7
v -0.0999998 0.7 2.7
v -0.0999998 0.8 2.7
v 1.78814e-07 0.2 2.7
v 1.78814e-07 0.3 2.7
v 1.78814e-07 0.7 2.7
v 1.78814e-07 0.8 2.7
v -0.6 0.4 2.4
v -0.6 0.6 2.4
v -0.5 0.4 2.4
v -0.5 0.6 2.4
v -0.4 0.4 2.4
v -0.4 0.6 2.4
v -0.0999998 0.2 2.4
v -0.0999998 0.3 2.4
v -0.0999998 0.4 2.4
v -0.0999998 0.6 2.4
v -0.0999998 0.7 2.4
v -0.0999998 0.8 2.4
v 1.78814e-07 0.2 2.4
v 1.78814e-07 0.3 2.4
v 1.78814e-07 0.4 2.4
v 1.78814e-07 0.6 2.4
v 1.78814e-07 0.7 2.4
v 1.78814e-07 0.8 2.4
v 0.3 0.4 2.4
v 0.3 0.6 2.4
v 0.4 0.4 2.4
v 0.4 0.6 2.4
v 0.5 0.4 2.4
v 0.5 0.6 2.4
v -0.0999998 0.3 2.3
v -0.0999998 0.4 2.3
v -0.0999998 0.6 2.3
v -0.0999998 0.7 2.3
v 1.78814e-07 0.3 2.3
v 1.78814e-07 0.4 2.3
v 1.78814e-07 0.6 2.3
v 1.78814e-07 0.7 2.3
v -0.2 0 2.1
v -0.2 0.1 2.1
v -0.2 0.9 2.1
v -0.2 1 2.1
v 0.1 0 2.1
v 0.1 0.1 2.1
v 0.1 0.9 2.1
v 0.1 1 2.1
v -0.2 0.1 2
v -0.2 0.9 2
v 0.1 0.1 2
v 0.1 0.9 2
v -0.4 1 1.9
v -0.4 1.2 1.9
v -0.4 1.3 1.9
v 0.3 1 1.9
v 0.3 1.2 1.9
v 0.3 1.3 1.9
v -0.4 0.8 1.8
v -0.4 0.9 1.8
v -0.4 1 1.8
v 0.3 0.8 1.8
v 0.3 0.9 1.8
v 0.3 1 1.8
v -0.4 0.5 1.7
v -0.4 0.6 1.7
v -0.4 0.7 1.7
v -0.4 0.8 1.7
v 0.3 0.5 1.7
v 0.3 0.6 1.7
v 0.3 0.7 1.7
v 0.3 0.8 1.7
v -0.4 0.4 1.6
v -0.4 0.5 1.6
v 0.3 0.4 1.6
v 0.3 0.5 1.6
v -0.6 0.6 0.9
v -0.6 0.9 0.9
v -0.5 0.6 0.9
v -0.5 0.7 0.9
v -0.5 0.9 0.9
v 0.4 0.6 0.9
v 0.4 0.7 0.9
v 0.4 0.9 0.9
v 0.5 0.6 0.9
v 0.5 0.9 0.9
v -0.6 0.5 0.8
v -0.6 0.6 0.8
v -0.5 0.5 0.8
v -0.5 0.6 0.8
v 0.4 0.5 0.8
v 0.4 0.6 0.8
v 0.5 0.5 0.8
v 0.5 0.6 0.8
v -0.6 0 0.7
v -0.6 0.5 0.7
v -0.5 0 0.7
v -0.5 0.3 0.7
v -0.5 0.5 0.7
v 0.4 0 0.7
v 0.4 0.3 0.7
v 0.4 0.5 0.7
v 0.5 0 0.7
v 0.5 0.5 0.7
v -0.5 0.6 0.5
v -0.5 0.7 0.5
v -0.5 0.9 0.5
v -0.5 1 0.5
v -0.5 1.2 0.5
v -0.5 1.3 0.5
v -0.4 0.3 0.5
v -0.4 0.6 0.5
v 0.3 0.3 0.5
v 0.3 0.6 0.5
v 0.4 0.6 0.5
v 0.4 0.7 0.5
v 0.4 0.9 0.5
v 0.4 1 0.5
v 0.4 1.2 0.5
v 0.4 1.3 0.5
v -0.5 0.3 0.2
v -0.5 0.4 0.2
v -0.4 0.3 0.2
v -0.4 0.4 0.2
v 0.3 0.3 0.2
v 0.3 0.4 0.2
v 0.4 0.3 0.2
v 0.4 0.4 0.2
v -0.5 0.4 0.0999999
v -0.5 0.6 0.0999999
v -0.4 0.4 0.0999999
v -0.4 0.6 0.0999999
v 0.3 0.4 0.0999999
v 0.3 0.6 0.0999999
v 0.4 0.4 0.0999999
v 0.4 0.6 0.0999999
v -0.5 0.6 -2.38419e-07
v -0.5 0.8 -2.38419e-07
v -0.4 0.6 -2.38419e-07
v -0.4 0.8 -2.38419e-07
v 0.3 0.6 -2.38419e-07
v 0.3 0.8 -2.38419e-07
v 0.4 0.6 -2.38419e-07
v 0.4 0.8 -2.38419e-07
v -0.5 0.8 -0.1
v -0.5 1.1 -0.1
v -0.4 0.8 -0.1
v -0.4 1.1 -0.1
v 0.3 0.8 -0.1
v 0.3 1.1 -0.1
v 0.4 0.8 -0.1
v 0.4 1.1 -0.1
v -0.5 1.1 -0.6
v -0.5 1.3 -0.6
v -0.4 1.1 -0.6
v -0.4 1.3 -0.6
v 0.3 1.1 -0.6
v 0.3 1.3 -0.6
v 0.4 1.1 -0.6
v 0.4 1.3 -0.6
v -0.2 0 2.9
v 0.1 0 2.9
v -0.2 0 2.1
v 0.1 0 2.1
v -0.6 0 0.9
v -0.5 0 0.9
v 0.4 0 0.9
v 0.5 0 0.9
v -0.6 0 0.7
v -0.5 0 0.7
v 0.4 0 0.7
v 0.5 0 0.7
v -0.2 0.1 3
v 0.1 0.1 3
v -0.2 0.1 2.9
v 0.1 0.1 2.9
v -0.2 0.1 2.1
v 0.1 0.1 2.1
v -0.2 0.1 2
v 0.1 0.1 2
v -0.6 0.1 1
v -0.5 0.1 1
v 0.4 0.1 1
v 0.5 0.1 1
v -0.6 0.1 0.9
v -0.5 0.1 0.9
v 0.4 0.1 0.9
v 0.5 0.1 0.9
v -0.5 0.3 2.7
v -0.4 0.3 2.7
v -0.0999998 0.3 2.7
v 1.78814e-07 0.3 2.7
v 0.3 0.3 2.7
v 0.4 0.3 2.7
v -0.0999998 0.3 2.6
v 1.78814e-07 0.3 2.6
v -0.0999998 0.3 2.4
v 1.78814e-07 0.3 2.4
v -0.0999998 0.3 2.3
v 1.78814e-07 0.3 2.3
v -0.4 0.3 1.7
v -0.2 0.3 1.7
v 0.1 0.3 1.7
v 0.3 0.3 1.7
v -0.2 0.3 1.6
v 0.1 0.3 1.6
v -0.5 0.3 1
v 0.4 0.3 1
v -0.5 0.3 0.7
v 0.4 0.3 0.7
v -0.4 0.3 0.5
v 0.3 0.3 0.5
v -0.5 0.3 0.2
v -0.4 0.3 0.2
v 0.3 0.3 0.2
v 0.4 0.3 0.2
v -0.0999998 0.4 2.8
v 1.78814e-07 0.4 2.8
v -0.0999998 0.4 2.7
v 1.78814e-07 0.4 2.7
v -0.6 0.4 2.6
v -0.5 0.4 2.6
v -0.4 0.4 2.6
v -0.0999998 0.4 2.6
v 1.78814e-07 0.4 2.6
v 0.3 0.4 2.6
v 0.4 0.4 2.6
v 0.5 0.4 2.6
v -0.6 0.4 2.4
v -0.5 0.4 2.4
v -0.4 0.4 2.4
v -0.0999998 0.4 2.4
v 1.78814e-07 0.4 2.4
v 0.3 0.4 2.4
v 0.4 0.4 2.4
v 0.5 0.4 2.4
v -0.0999998 0.4 2.3
v 1.78814e-07 0.4 2.3
v -0.0999998 0.4 2.2
v 1.78814e-07 0.4 2.2
v -0.4 0.4 1.8
v 0.3 0.4 1.8
v -0.4 0.4 1.7
v -0.2 0.4 1.7
v 0.1 0.4 1.7
v 0.3 0.4 1.7
v -0.2 0.4 1.6
v 0.1 0.4 1.6
v -0.5 0.4 0.2
v -0.4 0.4 0.2
v 0.3 0.4 0.2
v 0.4 0.4 0.2
v -0.5 0.4 0.0999999
v -0.4 0.4 0.0999999
v 0.3 0.4 0.0999999
v 0.4 0.4 0.0999999
v -0.6 0.5 1.1
v -0.5 0.5 1.1
v 0.4 0.5 1.1
v 0.5 0.5 1.1
v -0.6 0.5 1
v -0.5 0.5 1
v 0.4 0.5 1
v 0.5 0.5 1
v -0.6 0.6 1.2
v -0.5 0.6 1.2
v 0.4 0.6 1.2
v 0.5 0.6 1.2
v -0.6 0.6 1.1
v -0.5 0.6 1.1
v 0.4 0.6 1.1
v 0.5 0.6 1.1
v -0.5 0.6 0.0999999
v -0.4 0.6 0.0999999
v 0.3 0.6 0.0999999
v 0.4 0.6 0.0999999
v -0.5 0.6 -2.38419e-07
v -0.4 0.6 -2.38419e-07
v 0.3 0.6 -2.38419e-07
v 0.4 0.6 -2.38419e-07
v -0.0999998 0.7 2.8
v 1.78814e-07 0.7 2.8
v -0.0999998 0.7 2.7
v 1.78814e-07 0.7 2.7
v -0.0999998 0.7 2.3
v 1.78814e-07 0.7 2.3
v -0.0999998 0.7 2.2
v 1.78814e-07 0.7 2.2
v -0.2 0.8 2.8
v -0.0999998 0.8 2.8
v 1.78814e-07 0.8 2.8
v 0.1 0.8 2.8
v -0.0999998 0.8 2.7
v 1.78814e-07 0.8 2.7
v -0.0999998 0.8 2.6
v 1.78814e-07 0.8 2.6
v -0.0999998 0.8 2.4
v 1.78814e-07 0.8 2.4
v -0.0999998 0.8 2.3
v 1.78814e-07 0.8 2.3
v -0.2 0.8 2.2
v -0.0999998 0.8 2.2
v 1.78814e-07 0.8 2.2
v 0.1 0.8 2.2
v -0.5 0.8 1.9
v 0.4 0.8 1.9
v -0.5 0.8 1.8
v 0.4 0.8 1.8
v -0.5 0.8 -2.38419e-07
v -0.4 0.8 -2.38419e-07
v 0.3 0.8 -2.38419e-07
v 0.4 0.8 -2.38419e-07
v -0.5 0.8 -0.1
v -0.4 0.8 -0.1
v 0.3 0.8 -0.1
v 0.4 0.8 -0.1
v -0.5 1 2
v 0.4 1 2
v -0.5 1 1.9
v 0.4 1 1.9
v -0.5 1.1 -0.1
v -0.4 1.1 -0.1
v 0.3 1.1 -0.1
v 0.4 1.1 -0.1
v -0.5 1.1 -0.3
v -0.4 1.1 -0.3
v 0.3 1.1 -0.3
v 0.4 1.1 -0.3
v -0.5 1.1 -0.6
v -0.4 1.1 -0.6
v 0.3 1.1 -0.6
v 0.4 1.1 -0.6
v -0.2 0.2 2.8
v -0.0999998 0.2 2.8
v 1.78814e-07 0.2 2.8
v 0.1 0.2 2.8
v -0.0999998 0.2 2.7
v 1.78814e-07 0.2 2.7
v -0.0999998 0.2 2.6
v 1.78814e-07 0.2 2.6
v -0.0999998 0.2 2.4
v 1.78814e-07 0.2 2.4
v -0.0999998 0.2 2.3
v 1.78814e-07 0.2 2.3
v -0.2 0.2 2.2
v -0.0999998 0.2 2.2
v 1.78814e-07 0.2 2.2
v 0.1 0.2 2.2
v -0.0999998 0.3 2.8
v 1.78814e-07 0.3 2.8
v -0.0999998 0.3 2.7
v 1.78814e-07 0.3 2.7
v -0.0999998 0.3 2.3
v 1.78814e-07 0.3 2.3
v -0.0999998 0.3 2.2
v 1.78814e-07 0.3 2.2
v -0.4 0.4 1.6
v 0.3 0.4 1.6
v -0.4 0.4 0.6
v 0.3 0.4 0.6
v -0.4 0.5 1.7
v 0.3 0.5 1.7
v -0.4 0.5 1.6
v 0.3 0.5 1.6
v -0.6 0.5 0.8
v -0.5 0.5 0.8
v 0.4 0.5 0.8
v 0.5 0.5 0.8
v -0.6 0.5 0.7
v -0.5 0.5 0.7
v 0.4 0.5 0.7
v 0.5 0.5 0.7
v -0.0999998 0.6 2.8
v 1.78814e-07 0.6 2.8
v -0.0999998 0.6 2.7
v 1.78814e-07 0.6 2.7
v -0.6 0.6 2.6
v -0.5 0.6 2.6
v -0.4 0.6 2.6
v -0.0999998 0.6 2.6
v 1.78814e-07 0.6 2.6
v 0.3 0.6 2.6
v 0.4 0.6 2.6
v 0.5 0.6 2.6
v -0.6 0.6 2.4
v -0.5 0.6 2.4
v -0.4 0.6 2.4
v -0.0999998 0.6 2.4
v 1.78814e-07 0.6 2.4
v 0.3 0.6 2.4
v 0.4 0.6 2.4
v 0.5 0.6 2.4
v -0.0999998 0.6 2.3
v 1.78814e-07 0.6 2.3
v -0.0999998 0.6 2.2
v 1.78814e-07 0.6 2.2
v -0.6 0.6 0.9
v -0.5 0.6 0.9
v 0.4 0.6 0.9
v 0.5 0.6 0.9
v -0.6 0.6 0.8
v -0.5 0.6 0.8
v 0.4 0.6 0.8
v 0.5 0.6 0.8
v -0.5 0.6 0.5
v -0.4 0.6 0.5
v 0.3 0.6 0.5
v 0.4 0.6 0.5
v -0.5 0.6 0.3
v -0.4 0.6 0.3
v 0.3 0.6 0.3
v 0.4 0.6 0.3
v -0.5 0.7 2.7
v -0.4 0.7 2.7
v -0.0999998 0.7 2.7
v 1.78814e-07 0.7 2.7
v 0.3 0.7 2.7
v 0.4 0.7 2.7
v -0.0999998 0.7 2.6
v 1.78814e-07 0.7 2.6
v -0.0999998 0.7 2.4
v 1.78814e-07 0.7 2.4
v -0.0999998 0.7 2.3
v 1.78814e-07 0.7 2.3
v -0.5 0.7 1.9
v -0.4 0.7 1.9
v 0.3 0.7 1.9
v 0.4 0.7 1.9
v -0.5 0.7 1.8
v -0.4 0.7 1.8
v 0.3 0.7 1.8
v 0.4 0.7 1.8
v -0.4 0.8 1.8
v 0.3 0.8 1.8
v -0.4 0.8 1.7
v 0.3 0.8 1.7
v -0.5 0.8 0.3
v -0.4 0.8 0.3
v 0.3 0.8 0.3
v 0.4 0.8 0.3
v -0.5 0.8 0.2
v -0.4 0.8 0.2
v 0.3 0.8 0.2
v 0.4 0.8 0.2
v -0.2 0.9 3
v 0.1 0.9 3
v -0.2 0.9 2.9
v 0.1 0.9 2.9
v -0.2 0.9 2.1
v 0.1 0.9 2.1
v -0.2 0.9 2
v 0.1 0.9 2
v -0.6 0.9 1.2
v -0.5 0.9 1.2
v 0.4 0.9 1.2
v 0.5 0.9 1.2
v -0.6 0.9 0.9
v -0.5 0.9 0.9
v 0.4 0.9 0.9
v 0.5 0.9 0.9
v -0.2 1 2.9
v 0.1 1 2.9
v -0.2 1 2.1
v 0.1 1 2.1
v -0.4 1 1.9
v 0.3 1 1.9
v -0.4 1 1.8
v 0.3 1 1.8
v -0.5 1.1 0.2
v -0.4 1.1 0.2
v 0.3 1.1 0.2
v 0.4 1.1 0.2
v -0.5 1.1 0.0999999
v -0.4 1.1 0.0999999
v 0.3 1.1 0.0999999
v 0.4 1.1 0.0999999
v -0.5 1.3 2
v 0.4 1.3 2
v -0.4 1.3 1.9
v 0.3 1.3 1.9
v -0.4 1.3 0.6
v 0.3 1.3 0.6
v -0.5 1.3 0.5
v 0.4 1.3 0.5
v -0.5 1.3 0.0999999
v -0.4 1.3 0.0999999
v 0.3 1.3 0.0999999
v 0.4 1.3 0.0999999
v -0.5 1.3 -0.3
v -0.4 1.3 -0.3
v 0.3 1.3 -0.3
v 0.4 1.3 -0.3
v -0.5 1.3 -0.6
v -0.4 1.3 -0.6
v 0.3 1.3 -0.6
v 0.4 1.3 -0.6

# faces
f 4/1/1 2/1/1 1/1/1
f 8/1/1 4/1/1 3/1/1
f 9/1/1 2/1/1 4/1/1
f 9/1/1 4/1/1 8/1/1
f 10/1/1 2/1/1 9/1/1
f 11/2/1 6/2/1 5/2/1
f 12/2/1 6/2/1 11/2/1
f 14/1/1 8/1/1 7/1/1
f 14/1/1 9/1/1 8/1/1
f 15/1/1 9/1/1 14/1/1
f 16/1/1 9/1/1 15/1/1
f 17/1/1 14/1/1 13/1/1
f 17/1/1 15/1/1 14/1/1
f 18/1/1 15/1/1 17/1/1
f 19/1/1 17/1/1 13/1/1
f 19/3/1 18/3/1 17/3/1
f 20/1/1 15/1/1 18/1/1
f 20/3/1 18/3/1 19/3/1
f 21/1/1 19/1/1 13/1/1
f 21/1/1 20/1/1 19/1/1
f 22/1/1 15/1/1 20/1/1
f 22/1/1 20/1/1 21/1/1
f 27/1/1 24/1/1 23/1/1
f 28/1/1 24/1/1 27/1/1
f 29/1/1 26/1/1 25/1/1
f 31/1/1 24/1/1 28/1/1
f 32/1/1 24/1/1 31/1/1
f 34/1/1 30/1/1 29/1/1
f 34/1/1 29/1/1 25/1/1
f 35/1/1 27/1/1 23/1/1
f 36/1/1 31/1/1 28/1/1
f 37/1/1 31/1/1 36/1/1
f 38/1/1 31/1/1 37/1/1
f 39/1/1 31/1/1 38/1/1
f 41/1/1 34/1/1 33/1/1
f 42/1/1 30/1/1 34/1/1
f 42/1/1 34/1/1 41/1/1
f 43/1/1 30/1/1 42/1/1
f 44/1/1 30/1/1 43/1/1
f 46/1/1 35/1/1 23/1/1
f 46/1/1 36/1/1 35/1/1
f 46/1/1 37/1/1 36/1/1
f 47/2/1 38/2/1 37/2/1
f 47/1/1 37/1/1 46/1/1
f 48/2/1 38/2/1 47/2/1
f 49/2/1 38/2/1 48/2/1
f 50/2/1 41/2/1 40/2/1
f 50/2/1 42/2/1 41/2/1
f 51/2/1 42/2/1 50/2/1
f 53/1/1 49/1/1 48/1/1
f 54/1/1 45/1/1 44/1/1
f 54/1/1 44/1/1 43/1/1
f 55/1/1 45/1/1 54/1/1
f 56/1/1 45/1/1 55/1/1
f 58/1/1 53/1/1 52/1/1
f 59/1/1 49/1/1 53/1/1
f 59/1/1 53/1/1 58/1/1
f 60/1/1 51/1/1 50/1/1
f 61/1/1 51/1/1 60/1/1
f 63/2/1 59/2/1 58/2/1
f 63/2/1 60/2/1 59/2/1
f 63/2/1 61/2/1 60/2/1
f 64/2/1 61/2/1 63/2/1
f 65/1/1 57/1/1 56/1/1
f 65/1/1 56/1/1 55/1/1
f 66/1/1 57/1/1 65/1/1
f 67/1/1 57/1/1 66/1/1
f 70/1/1 64/1/1 63/1/1
f 70/1/1 63/1/1 62/1/1
f 71/1/1 64/1/1 70/1/1
f 72/2/1 71/2/1 70/2/1
f 73/2/1 71/2/1 72/2/1
f 74/1/1 68/1/1 67/1/1
f 74/1/1 67/1/1 66/1/1
f 75/3/1 69/3/1 68/3/1
f 75/1/1 68/1/1 74/1/1
f 76/3/1 69/3/1 75/3/1
f 80/3/1 78/3/1 77/3/1
f 81/3/1 78/3/1 80/3/1
f 83/1/1 81/1/1 80/1/1
f 84/1/1 81/1/1 83/1/1
f 85/1/1 83/1/1 80/1/1
f 86/1/1 81/1/1 84/1/1
f 87/3/1 80/3/1 79/3/1
f 88/1/1 86/1/1 85/1/1
f 88/3/1 80/3/1 87/3/1
f 88/1/1 85/1/1 80/1/1
f 89/3/1 82/3/1 81/3/1
f 89/1/1 86/1/1 88/1/1
f 89/1/1 81/1/1 86/1/1
f 90/3/1 82/3/1 89/3/1
f 91/3/1 89/3/1 88/3/1
f 92/3/1 89/3/1 91/3/1
f 99/1/1 94/1/1 93/1/1
f 100/1/1 94/1/1 99/1/1
f 101/1/1 96/1/1 95/1/1
f 102/1/1 96/1/1 101/1/1
f 103/1/1 98/1/1 97/1/1
f 104/1/1 98/1/1 103/1/1
f 106/1/1 102/1/1 101/1/1
f 106/1/1 103/1/1 102/1/1
f 106/1/1 101/1/1 100/1/1
f 107/1/1 103/1/1 106/1/1
f 108/1/1 103/1/1 107/1/1
f 109/1/1 103/1/1 108/1/1
f 111/1/1 106/1/1 105/1/1
f 111/1/1 107/1/1 106/1/1
f 112/1/1 107/1/1 111/1/1
f 113/1/1 107/1/1 112/1/1
f 114/1/1 110/1/1 109/1/1
f 114/1/1 109/1/1 108/1/1
f 115/1/1 110/1/1 114/1/1
f 116/1/1 110/1/1 115/1/1
f 118/1/1 113/1/1 112/1/1
f 118/1/1 115/1/1 114/1/1
f 118/1/1 114/1/1 113/1/1
f 119/1/1 115/1/1 118/1/1
f 120/1/1 115/1/1 119/1/1
f 121/1/1 115/1/1 120/1/1
f 123/1/1 118/1/1 117/1/1
f 124/1/1 118/1/1 123/1/1
f 125/1/1 120/1/1 119/1/1
f 126/1/1 120/1/1 125/1/1
f 127/1/1 122/1/1 121/1/1
f 128/1/1 122/1/1 127/1/1
f 131/1/1 130/1/1 129/1/1
f 132/1/1 130/1/1 131/1/1
f 137/1/1 134/1/1 133/1/1
f 138/1/1 134/1/1 137/1/1
f 139/1/1 134/1/1 138/1/1
f 140/1/1 134/1/1 139/1/1
f 143/1/1 136/1/1 135/1/1
f 146/1/1 142/1/1 141/1/1
f 147/1/1 137/1/1 133/1/1
f 148/1/1 139/1/1 138/1/1
f 149/1/1 139/1/1 148/1/1
f 150/1/1 139/1/1 149/1/1
f 151/1/1 146/1/1 145/1/1
f 152/1/1 142/1/1 146/1/1
f 152/1/1 146/1/1 151/1/1
f 153/1/1 142/1/1 152/1/1
f 154/1/1 142/1/1 153/1/1
f 155/1/1 143/1/1 135/1/1
f 155/1/1 144/1/1 143/1/1
f 156/1/1 144/1/1 155/1/1
f 157/1/1 144/1/1 156/1/1
f 159/1/1 147/1/1 133/1/1
f 159/1/1 148/1/1 147/1/1
f 159/1/1 149/1/1 148/1/1
f 160/2/1 150/2/1 149/2/1
f 160/1/1 149/1/1 159/1/1
f 161/2/1 150/2/1 160/2/1
f 162/2/1 152/2/1 151/2/1
f 163/1/1 153/1/1 152/1/1
f 163/2/1 152/2/1 162/2/1
f 164/2/1 154/2/1 153/2/1
f 164/1/1 153/1/1 163/1/1
f 165/2/1 154/2/1 164/2/1
f 167/1/1 163/1/1 162/1/1
f 167/1/1 164/1/1 163/1/1
f 167/1/1 165/1/1 164/1/1
f 168/1/1 158/1/1 157/1/1
f 168/1/1 157/1/1 156/1/1
f 169/1/1 158/1/1 168/1/1
f 170/1/1 158/1/1 169/1/1
f 172/1/1 167/1/1 166/1/1
f 173/1/1 165/1/1 167/1/1
f 173/1/1 167/1/1 172/1/1
f 175/2/1 173/2/1 172/2/1
f 176/2/1 173/2/1 175/2/1
f 177/1/1 171/1/1 170/1/1
f 177/1/1 170/1/1 169/1/1
f 178/1/1 171/1/1 177/1/1
f 179/1/1 171/1/1 178/1/1
f 182/1/1 176/1/1 175/1/1
f 182/1/1 175/1/1 174/1/1
f 183/1/1 176/1/1 182/1/1
f 184/2/1 183/2/1 182/2/1
f 185/2/1 183/2/1 184/2/1
f 186/1/1 180/1/1 179/1/1
f 186/1/1 179/1/1 178/1/1
f 187/3/1 181/3/1 180/3/1
f 187/1/1 180/1/1 186/1/1
f 188/3/1 181/3/1 187/3/1
f 192/1/1 190/1/1 189/1/1
f 193/1/1 192/1/1 191/1/1
f 194/1/1 190/1/1 192/1/1
f 194/1/1 192/1/1 193/1/1
f 195/1/2 196/1/2 198/1/2
f 197/1/2 198/1/2 199/1/2
f 198/1/2 196/1/2 200/1/2
f 199/1/2 198/1/2 200/1/2
f 201/1/2 202/1/2 205/1/2
f 205/1/2 202/1/2 206/1/2
f 206/1/2 202/1/2 207/1/2
f 207/1/2 202/1/2 208/1/2
f 203/1/2 204/1/2 211/1/2
f 209/1/2 210/1/2 214/1/2
f 201/1/2 205/1/2 215/1/2
f 206/1/2 207/1/2 216/1/2
f 216/1/2 207/1/2 217/1/2
f 217/1/2 207/1/2 218/1/2
f 213/1/2 214/1/2 219/1/2
f 214/1/2 210/1/2 220/1/2
f 219/1/2 214/1/2 220/1/2
f 220/1/2 210/1/2 221/1/2
f 221/1/2 210/1/2 222/1/2
f 203/1/2 211/1/2 223/1/2
f 211/1/2 212/1/2 223/1/2
f 223/1/2 212/1/2 224/1/2
f 224/1/2 212/1/2 225/1/2
f 201/1/2 215/1/2 227/1/2
f 215/1/2 216/1/2 227/1/2
f 216/1/2 217/1/2 227/1/2
f 217/2/2 218/2/2 228/2/2
f 227/1/2 217/1/2 228/1/2
f 228/2/2 218/2/2 229/2/2
f 219/2/2 220/2/2 230/2/2
f 220/1/2 221/1/2 231/1/2
f 230/2/2 220/2/2 231/2/2
f 221/2/2 222/2/2 232/2/2
f 231/1/2 221/1/2 232/1/2
f 232/2/2 222/2/2 233/2/2
f 230/1/2 231/1/2 235/1/2
f 231/1/2 232/1/2 235/1/2
f 232/1/2 233/1/2 235/1/2
f 225/1/2 226/1/2 236/1/2
f 224/1/2 225/1/2 236/1/2
f 236/1/2 226/1/2 237/1/2
f 237/1/2 226/1/2 238/1/2
f 234/1/2 235/1/2 240/1/2
f 235/1/2 233/1/2 241/1/2
f 240/1/2 235/1/2 241/1/2
f 240/2/2 241/2/2 243/2/2
f 243/2/2 241/2/2 244/2/2
f 238/1/2 239/1/2 245/1/2
f 237/1/2 238/1/2 245/1/2
f 245/1/2 239/1/2 246/1/2
f 246/1/2 239/1/2 247/1/2
f 243/1/2 244/1/2 250/1/2
f 242/1/2 243/1/2 250/1/2
f 250/1/2 244/1/2 251/1/2
f 250/2/2 251/2/2 252/2/2
f 252/2/2 251/2/2 253/2/2
f 247/1/2 248/1/2 254/1/2
f 246/1/2 247/1/2 254/1/2
f 248/3/2 249/3/2 255/3/2
f 254/1/2 248/1/2 255/1/2
f 255/3/2 249/3/2 256/3/2
f 257/1/2 258/1/2 259/1/2
f 259/1/2 258/1/2 260/1/2
f 261/1/2 262/1/2 267/1/2
f 267/1/2 262/1/2 268/1/2
f 263/1/2 264/1/2 269/1/2
f 269/1/2 264/1/2 270/1/2
f 265/1/2 266/1/2 271/1/2
f 271/1/2 266/1/2 272/1/2
f 269/1/2 270/1/2 274/1/2
f 270/1/2 271/1/2 274/1/2
f 268/1/2 269/1/2 274/1/2
f 274/1/2 271/1/2 275/1/2
f 275/1/2 271/1/2 276/1/2
f 276/1/2 271/1/2 277/1/2
f 273/1/2 274/1/2 279/1/2
f 274/1/2 275/1/2 279/1/2
f 279/1/2 275/1/2 280/1/2
f 280/1/2 275/1/2 281/1/2
f 277/1/2 278/1/2 282/1/2
f 276/1/2 277/1/2 282/1/2
f 282/1/2 278/1/2 283/1/2
f 283/1/2 278/1/2 284/1/2
f 280/1/2 281/1/2 286/1/2
f 282/1/2 283/1/2 286/1/2
f 281/1/2 282/1/2 286/1/2
f 286/1/2 283/1/2 287/1/2
f 287/1/2 283/1/2 288/1/2
f 288/1/2 283/1/2 289/1/2
f 285/1/2 286/1/2 291/1/2
f 291/1/2 286/1/2 292/1/2
f 287/1/2 288/1/2 293/1/2
f 293/1/2 288/1/2 294/1/2
f 289/1/2 290/1/2 295/1/2
f 295/1/2 290/1/2 296/1/2
f 297/3/2 298/3/2 300/3/2
f 300/3/2 298/3/2 301/3/2
f 300/1/2 301/1/2 303/1/2
f 303/1/2 301/1/2 304/1/2
f 300/1/2 303/1/2 305/1/2
f 304/1/2 301/1/2 306/1/2
f 299/3/2 300/3/2 307/3/2
f 305/1/2 306/1/2 308/1/2
f 307/3/2 300/3/2 308/3/2
f 300/1/2 305/1/2 308/1/2
f 301/3/2 302/3/2 309/3/2
f 308/1/2 306/1/2 309/1/2
f 306/1/2 301/1/2 309/1/2
f 309/3/2 302/3/2 310/3/2
f 308/3/2 309/3/2 311/3/2
f 311/3/2 309/3/2 312/3/2
f 313/1/2 314/1/2 317/1/2
f 317/1/2 314/1/2 318/1/2
f 315/1/2 316/1/2 319/1/2
f 318/1/2 314/1/2 321/1/2
f 321/1/2 314/1/2 322/1/2
f 319/1/2 320/1/2 324/1/2
f 315/1/2 319/1/2 324/1/2
f 313/1/2 317/1/2 325/1/2
f 318/1/2 321/1/2 326/1/2
f 326/1/2 321/1/2 327/1/2
f 327/1/2 321/1/2 328/1/2
f 328/1/2 321/1/2 329/1/2
f 323/1/2 324/1/2 331/1/2
f 324/1/2 320/1/2 332/1/2
f 331/1/2 324/1/2 332/1/2
f 332/1/2 320/1/2 333/1/2
f 333/1/2 320/1/2 334/1/2
f 313/1/2 325/1/2 336/1/2
f 325/1/2 326/1/2 336/1/2
f 326/1/2 327/1/2 336/1/2
f 327/2/2 328/2/2 337/2/2
f 336/1/2 327/1/2 337/1/2
f 337/2/2 328/2/2 338/2/2
f 338/2/2 328/2/2 339/2/2
f 330/2/2 331/2/2 340/2/2
f 331/2/2 332/2/2 340/2/2
f 340/2/2 332/2/2 341/2/2
f 338/1/2 339/1/2 343/1/2
f 334/1/2 335/1/2 344/1/2
f 333/1/2 334/1/2 344/1/2
f 344/1/2 335/1/2 345/1/2
f 345/1/2 335/1/2 346/1/2
f 342/1/2 343/1/2 348/1/2
f 343/1/2 339/1/2 349/1/2
f 348/1/2 343/1/2 349/1/2
f 340/1/2 341/1/2 350/1/2
f 350/1/2 341/1/2 351/1/2
f 348/2/2 349/2/2 353/2/2
f 349/2/2 350/2/2 353/2/2
f 350/2/2 351/2/2 353/2/2
f 353/2/2 351/2/2 354/2/2
f 346/1/2 347/1/2 355/1/2
f 345/1/2 346/1/2 355/1/2
f 355/1/2 347/1/2 356/1/2
f 356/1/2 347/1/2 357/1/2
f 353/1/2 354/1/2 360/1/2
f 352/1/2 353/1/2 360/1/2
f 360/1/2 354/1/2 361/1/2
f 360/2/2 361/2/2 362/2/2
f 362/2/2 361/2/2 363/2/2
f 357/1/2 358/1/2 364/1/2
f 356/1/2 357/1/2 364/1/2
f 358/3/2 359/3/2 365/3/2
f 364/1/2 358/1/2 365/1/2
f 365/3/2 359/3/2 366/3/2
f 367/1/2 368/1/2 370/1/2
f 369/1/2 370/1/2 374/1/2
f 370/1/2 368/1/2 375/1/2
f 374/1/2 370/1/2 375/1/2
f 375/1/2 368/1/2 376/1/2
f 371/2/2 372/2/2 377/2/2
f 377/2/2 372/2/2 378/2/2
f 373/1/2 374/1/2 380/1/2
f 374/1/2 375/1/2 380/1/2
f 380/1/2 375/1/2 381/1/2
f 381/1/2 375/1/2 382/1/2
f 379/1/2 380/1/2 383/1/2
f 380/1/2 381/1/2 383/1/2
f 383/1/2 381/1/2 384/1/2
f 379/1/2 383/1/2 385/1/2
f 383/3/2 384/3/2 385/3/2
f 384/1/2 381/1/2 386/1/2
f 385/3/2 384/3/2 386/3/2
f 379/1/2 385/1/2 387/1/2
f 385/1/2 386/1/2 387/1/2
f 386/1/2 381/1/2 388/1/2
f 387/1/2 386/1/2 388/1/2
f 391/3/3 390/3/3 389/3/3
f 392/3/3 390/3/3 391/3/3
f 397/3/3 394/3/3 393/3/3
f 398/3/3 394/3/3 397/3/3
f 399/3/3 396/3/3 395/3/3
f 400/3/3 396/3/3 399/3/3
f 403/1/3 402/1/3 401/1/3
f 404/1/3 402/1/3 403/1/3
f 409/1/3 406/1/3 405/1/3
f 410/1/3 406/1/3 409/1/3
f 411/1/3 408/1/3 407/1/3
f 412/1/3 408/1/3 411/1/3
f 415/1/3 414/1/3 413/1/3
f 416/1/3 414/1/3 415/1/3
f 419/2/3 418/2/3 417/2/3
f 420/2/3 418/2/3 419/2/3
f 425/3/3 422/3/3 421/3/3
f 426/3/3 422/3/3 425/3/3
f 429/1/3 424/1/3 423/1/3
f 430/1/3 424/1/3 429/1/3
f 433/1/3 428/1/3 427/1/3
f 434/1/3 428/1/3 433/1/3
f 435/3/3 432/3/3 431/3/3
f 436/3/3 432/3/3 435/3/3
f 439/2/3 438/2/3 437/2/3
f 440/2/3 438/2/3 439/2/3
f 445/1/3 442/1/3 441/1/3
f 446/1/3 442/1/3 445/1/3
f 447/1/3 444/1/3 443/1/3
f 448/1/3 444/1/3 447/1/3
f 451/1/3 450/1/3 449/1/3
f 452/1/3 450/1/3 451/1/3
f 453/1/3 450/1/3 452/1/3
f 454/1/3 450/1/3 453/1/3
f 455/1/3 450/1/3 454/1/3
f 456/1/3 450/1/3 455/1/3
f 458/1/3 453/1/3 452/1/3
f 459/1/3 453/1/3 458/1/3
f 460/1/3 455/1/3 454/1/3
f 461/1/3 455/1/3 460/1/3
f 463/1/3 459/1/3 458/1/3
f 463/1/3 462/1/3 461/1/3
f 463/1/3 461/1/3 460/1/3
f 463/1/3 460/1/3 459/1/3
f 463/1/3 458/1/3 457/1/3
f 464/1/3 462/1/3 463/1/3
f 468/1/3 466/1/3 465/1/3
f 469/2/3 467/2/3 466/2/3
f 469/1/3 466/1/3 468/1/3
f 470/2/3 467/2/3 469/2/3
f 474/1/3 472/1/3 471/1/3
f 475/2/3 473/2/3 472/2/3
f 475/1/3 472/1/3 474/1/3
f 476/2/3 473/2/3 475/2/3
f 481/1/3 478/1/3 477/1/3
f 482/1/3 480/1/3 479/1/3
f 483/2/3 481/2/3 480/2/3
f 483/1/3 480/1/3 482/1/3
f 484/1/3 478/1/3 481/1/3
f 484/2/3 481/2/3 483/2/3
f 485/1/3 478/1/3 484/1/3
f 486/1/3 478/1/3 485/1/3
f 489/1/3 488/1/3 487/1/3
f 490/1/3 488/1/3 489/1/3
f 493/1/3 492/1/3 491/1/3
f 494/1/3 492/1/3 493/1/3
f 497/1/3 496/1/3 495/1/3
f 498/1/3 496/1/3 497/1/3
f 501/1/3 500/1/3 499/1/3
f 502/1/3 500/1/3 501/1/3
f 503/1/3 500/1/3 502/1/3
f 507/1/3 505/1/3 504/1/3
f 507/1/3 506/1/3 505/1/3
f 508/1/3 506/1/3 507/1/3
f 511/1/3 510/1/3 509/1/3
f 512/1/3 510/1/3 511/1/3
f 515/1/3 514/1/3 513/1/3
f 516/1/3 514/1/3 515/1/3
f 519/1/3 518/1/3 517/1/3
f 520/1/3 518/1/3 519/1/3
f 521/1/3 518/1/3 520/1/3
f 525/1/3 523/1/3 522/1/3
f 525/1/3 524/1/3 523/1/3
f 526/1/3 524/1/3 525/1/3
f 529/1/3 528/1/3 527/1/3
f 530/1/3 528/1/3 529/1/3
f 533/1/3 532/1/3 531/1/3
f 534/1/3 532/1/3 533/1/3
f 542/1/3 536/1/3 535/1/3
f 543/2/3 537/2/3 536/2/3
f 543/1/3 536/1/3 542/1/3
f 544/1/3 538/1/3 537/1/3
f 544/2/3 537/2/3 543/2/3
f 545/2/3 539/2/3 538/2/3
f 545/1/3 538/1/3 544/1/3
f 546/1/3 540/1/3 539/1/3
f 546/2/3 539/2/3 545/2/3
f 547/2/3 541/2/3 540/2/3
f 547/1/3 540/1/3 546/1/3
f 548/2/3 541/2/3 547/2/3
f 551/1/3 550/1/3 549/1/3
f 552/1/3 550/1/3 551/1/3
f 555/1/3 554/1/3 553/1/3
f 556/1/3 554/1/3 555/1/3
f 559/1/3 558/1/3 557/1/3
f 560/1/3 558/1/3 559/1/3
f 563/1/3 562/1/3 561/1/3
f 564/1/3 562/1/3 563/1/3
f 567/1/3 566/1/3 565/1/3
f 568/1/3 566/1/3 567/1/3
f 571/1/3 570/1/3 569/1/3
f 572/1/3 570/1/3 571/1/3
f 573/1/4 574/1/4 575/1/4
f 575/1/4 574/1/4 576/1/4
f 576/1/4 574/1/4 577/1/4
f 577/1/4 574/1/4 578/1/4
f 578/1/4 574/1/4 579/1/4
f 579/1/4 574/1/4 580/1/4
f 576/1/4 577/1/4 582/1/4
f 582/1/4 577/1/4 583/1/4
f 578/1/4 579/1/4 584/1/4
f 584/1/4 579/1/4 585/1/4
f 582/1/4 583/1/4 587/1/4
f 585/1/4 586/1/4 587/1/4
f 584/1/4 585/1/4 587/1/4
f 583/1/4 584/1/4 587/1/4
f 581/1/4 582/1/4 587/1/4
f 587/1/4 586/1/4 588/1/4
f 589/1/4 590/1/4 593/1/4
f 593/1/4 590/1/4 594/1/4
f 591/1/4 592/1/4 595/1/4
f 595/1/4 592/1/4 596/1/4
f 597/2/4 598/2/4 599/2/4
f 599/2/4 598/2/4 600/2/4
f 601/3/4 602/3/4 605/3/4
f 605/3/4 602/3/4 606/3/4
f 603/1/4 604/1/4 609/1/4
f 609/1/4 604/1/4 610/1/4
f 607/1/4 608/1/4 613/1/4
f 613/1/4 608/1/4 614/1/4
f 611/3/4 612/3/4 615/3/4
f 615/3/4 612/3/4 616/3/4
f 617/2/4 618/2/4 619/2/4
f 619/2/4 618/2/4 620/2/4
f 621/1/4 622/1/4 625/1/4
f 625/1/4 622/1/4 626/1/4
f 623/1/4 624/1/4 627/1/4
f 627/1/4 624/1/4 628/1/4
f 629/3/4 630/3/4 633/3/4
f 633/3/4 630/3/4 634/3/4
f 631/3/4 632/3/4 635/3/4
f 635/3/4 632/3/4 636/3/4
f 637/3/4 638/3/4 639/3/4
f 639/3/4 638/3/4 640/3/4
f 641/1/4 642/1/4 644/1/4
f 642/2/4 643/2/4 645/2/4
f 644/1/4 642/1/4 645/1/4
f 645/2/4 643/2/4 646/2/4
f 647/1/4 648/1/4 650/1/4
f 648/2/4 649/2/4 651/2/4
f 650/1/4 648/1/4 651/1/4
f 651/2/4 649/2/4 652/2/4
f 653/1/4 654/1/4 657/1/4
f 654/2/4 655/2/4 658/2/4
f 657/1/4 654/1/4 658/1/4
f 655/1/4 656/1/4 659/1/4
f 658/2/4 655/2/4 659/2/4
f 659/1/4 656/1/4 660/1/4
f 661/1/4 662/1/4 663/1/4
f 663/1/4 662/1/4 664/1/4
f 665/1/4 666/1/4 667/1/4
f 667/1/4 666/1/4 668/1/4
f 668/1/4 666/1/4 669/1/4
f 670/1/4 671/1/4 673/1/4
f 671/1/4 672/1/4 673/1/4
f 673/1/4 672/1/4 674/1/4
f 675/1/4 676/1/4 677/1/4
f 677/1/4 676/1/4 678/1/4
f 679/1/4 680/1/4 681/1/4
f 681/1/4 680/1/4 682/1/4
f 683/1/4 684/1/4 685/1/4
f 685/1/4 684/1/4 686/1/4
f 686/1/4 684/1/4 687/1/4
f 688/1/4 689/1/4 691/1/4
f 689/1/4 690/1/4 691/1/4
f 691/1/4 690/1/4 692/1/4
f 693/2/4 694/2/4 700/2/4
f 699/1/4 700/1/4 701/1/4
f 700/2/4 694/2/4 702/2/4
f 701/1/4 700/1/4 702/1/4
f 702/2/4 694/2/4 703/2/4
f 694/1/4 695/1/4 704/1/4
f 703/2/4 694/2/4 704/2/4
f 695/2/4 696/2/4 705/2/4
f 704/1/4 695/1/4 705/1/4
f 696/1/4 697/1/4 706/1/4
f 705/2/4 696/2/4 706/2/4
f 697/2/4 698/2/4 707/2/4
f 706/1/4 697/1/4 707/1/4
f 707/2/4 698/2/4 708/2/4
f 709/1/4 710/1/4 711/1/4
f 711/1/4 710/1/4 712/1/4
f 713/1/4 714/1/4 715/1/4
f 715/1/4 714/1/4 716/1/4
f 717/1/4 718/1/4 719/1/4
f 719/1/4 718/1/4 720/1/4
f 721/1/4 722/1/4 723/1/4
f 723/1/4 722/1/4 724/1/4
f 725/1/4 726/1/4 727/1/4
f 727/1/4 726/1/4 728/1/4
f 729/1/4 730/1/4 731/1/4
f 731/1/4 730/1/4 732/1/4
f 733/1/4 734/1/4 735/1/4
f 735/1/4 734/1/4 736/1/4
f 737/1/4 738/1/4 739/1/4
f 739/1/4 738/1/4 740/1/4
f 741/3/4 742/3/4 743/3/4
f 743/3/4 742/3/4 744/3/4
f 745/3/4 746/3/4 747/3/4
f 747/3/4 746/3/4 748/3/4
f 751/3/5 750/3/5 749/3/5
f 752/3/5 750/3/5 751/3/5
f 757/1/5 754/1/5 753/1/5
f 758/1/5 754/1/5 757/1/5
f 759/1/5 756/1/5 755/1/5
f 760/1/5 756/1/5 759/1/5
f 763/3/5 762/3/5 761/3/5
f 764/3/5 762/3/5 763/3/5
f 767/3/5 766/3/5 765/3/5
f 768/3/5 766/3/5 767/3/5
f 773/1/5 770/1/5 769/1/5
f 774/1/5 770/1/5 773/1/5
f 775/1/5 772/1/5 771/1/5
f 776/1/5 772/1/5 775/1/5
f 783/1/5 780/1/5 779/1/5
f 784/1/5 780/1/5 783/1/5
f 787/1/5 786/1/5 785/1/5
f 788/1/5 786/1/5 787/1/5
f 789/1/5 778/1/5 777/1/5
f 792/1/5 782/1/5 781/1/5
f 793/1/5 790/1/5 789/1/5
f 794/1/5 792/1/5 791/1/5
f 795/1/5 793/1/5 789/1/5
f 795/1/5 794/1/5 793/1/5
f 795/1/5 789/1/5 777/1/5
f 796/1/5 792/1/5 794/1/5
f 796/1/5 794/1/5 795/1/5
f 796/1/5 782/1/5 792/1/5
f 797/1/5 796/1/5 795/1/5
f 798/1/5 796/1/5 797/1/5
f 799/1/5 798/1/5 797/1/5
f 800/1/5 798/1/5 799/1/5
f 801/1/5 799/1/5 797/1/5
f 802/1/5 799/1/5 801/1/5
f 803/1/5 798/1/5 800/1/5
f 804/1/5 798/1/5 803/1/5
f 807/1/5 806/1/5 805/1/5
f 808/1/5 806/1/5 807/1/5
f 817/2/5 810/2/5 809/2/5
f 818/2/5 810/2/5 817/2/5
f 819/3/5 812/3/5 811/3/5
f 820/3/5 812/3/5 819/3/5
f 821/3/5 814/3/5 813/3/5
f 822/3/5 814/3/5 821/3/5
f 823/2/5 816/2/5 815/2/5
f 824/2/5 816/2/5 823/2/5
f 827/1/5 826/1/5 825/1/5
f 828/1/5 826/1/5 827/1/5
f 831/1/5 830/1/5 829/1/5
f 832/1/5 830/1/5 831/1/5
f 833/1/5 830/1/5 832/1/5
f 834/1/5 830/1/5 833/1/5
f 835/1/5 833/1/5 832/1/5
f 836/1/5 833/1/5 835/1/5
f 841/1/5 838/1/5 837/1/5
f 842/1/5 838/1/5 841/1/5
f 843/1/5 840/1/5 839/1/5
f 844/1/5 840/1/5 843/1/5
f 849/1/5 846/1/5 845/1/5
f 850/1/5 846/1/5 849/1/5
f 851/1/5 848/1/5 847/1/5
f 852/1/5 848/1/5 851/1/5
f 857/1/5 854/1/5 853/1/5
f 858/1/5 854/1/5 857/1/5
f 859/1/5 856/1/5 855/1/5
f 860/1/5 856/1/5 859/1/5
f 865/1/5 862/1/5 861/1/5
f 866/1/5 862/1/5 865/1/5
f 867/1/5 864/1/5 863/1/5
f 868/1/5 864/1/5 867/1/5
f 871/1/5 870/1/5 869/1/5
f 872/1/5 870/1/5 871/1/5
f 875/1/5 874/1/5 873/1/5
f 876/1/5 874/1/5 875/1/5
f 881/1/5 878/1/5 877/1/5
f 882/1/5 880/1/5 879/1/5
f 883/1/5 881/1/5 877/1/5
f 883/1/5 882/1/5 881/1/5
f 884/1/5 880/1/5 882/1/5
f 884/1/5 882/1/5 883/1/5
f 885/1/5 883/1/5 877/1/5
f 886/1/5 880/1/5 884/1/5
f 887/1/5 885/1/5 877/1/5
f 887/1/5 886/1/5 885/1/5
f 888/1/5 880/1/5 886/1/5
f 888/1/5 886/1/5 887/1/5
f 889/1/5 887/1/5 877/1/5
f 890/1/5 887/1/5 889/1/5
f 891/1/5 880/1/5 888/1/5
f 892/1/5 880/1/5 891/1/5
f 895/1/5 894/1/5 893/1/5
f 896/1/5 894/1/5 895/1/5
f 901/1/5 898/1/5 897/1/5
f 902/1/5 898/1/5 901/1/5
f 903/1/5 900/1/5 899/1/5
f 904/1/5 900/1/5 903/1/5
f 907/1/5 906/1/5 905/1/5
f 908/1/5 906/1/5 907/1/5
f 913/1/5 910/1/5 909/1/5
f 914/1/5 910/1/5 913/1/5
f 915/1/5 912/1/5 911/1/5
f 916/1/5 912/1/5 915/1/5
f 917/3/5 914/3/5 913/3/5
f 918/3/5 914/3/5 917/3/5
f 919/3/5 916/3/5 915/3/5
f 920/3/5 916/3/5 919/3/5
f 921/1/6 922/1/6 925/1/6
f 923/1/6 924/1/6 926/1/6
f 921/1/6 925/1/6 927/1/6
f 925/1/6 926/1/6 927/1/6
f 926/1/6 924/1/6 928/1/6
f 927/1/6 926/1/6 928/1/6
f 921/1/6 927/1/6 929/1/6
f 928/1/6 924/1/6 930/1/6
f 921/1/6 929/1/6 931/1/6
f 929/1/6 930/1/6 931/1/6
f 930/1/6 924/1/6 932/1/6
f 931/1/6 930/1/6 932/1/6
f 921/1/6 931/1/6 933/1/6
f 933/1/6 931/1/6 934/1/6
f 932/1/6 924/1/6 935/1/6
f 935/1/6 924/1/6 936/1/6
f 937/1/6 938/1/6 939/1/6
f 939/1/6 938/1/6 940/1/6
f 941/1/6 942/1/6 943/1/6
f 943/1/6 942/1/6 944/1/6
f 945/1/6 946/1/6 947/1/6
f 947/1/6 946/1/6 948/1/6
f 949/1/6 950/1/6 951/1/6
f 951/1/6 950/1/6 952/1/6
f 953/1/6 954/1/6 957/1/6
f 957/1/6 954/1/6 958/1/6
f 955/1/6 956/1/6 959/1/6
f 959/1/6 956/1/6 960/1/6
f 961/1/6 962/1/6 963/1/6
f 963/1/6 962/1/6 964/1/6
f 965/2/6 966/2/6 973/2/6
f 973/2/6 966/2/6 974/2/6
f 967/3/6 968/3/6 975/3/6
f 975/3/6 968/3/6 976/3/6
f 969/3/6 970/3/6 977/3/6
f 977/3/6 970/3/6 978/3/6
f 971/2/6 972/2/6 979/2/6
f 979/2/6 972/2/6 980/2/6
f 981/1/6 982/1/6 983/1/6
f 983/1/6 982/1/6 984/1/6
f 985/1/6 986/1/6 989/1/6
f 989/1/6 986/1/6 990/1/6
f 987/1/6 988/1/6 991/1/6
f 991/1/6 988/1/6 992/1/6
f 993/1/6 994/1/6 997/1/6
f 997/1/6 994/1/6 998/1/6
f 995/1/6 996/1/6 999/1/6
f 999/1/6 996/1/6 1000/1/6
f 1003/1/6 1004/1/6 1007/1/6
f 1007/1/6 1004/1/6 1008/1/6
f 1009/1/6 1010/1/6 1011/1/6
f 1011/1/6 1010/1/6 1012/1/6
f 1001/1/6 1002/1/6 1013/1/6
f 1013/1/6 1002/1/6 1014/1/6
f 1005/1/6 1006/1/6 1015/1/6
f 1015/1/6 1006/1/6 1016/1/6
f 1013/2/6 1014/2/6 1017/2/6
f 1017/2/6 1014/2/6 1018/2/6
f 1015/2/6 1016/2/6 1019/2/6
f 1019/2/6 1016/2/6 1020/2/6
f 1021/1/6 1022/1/6 1023/1/6
f 1023/1/6 1022/1/6 1024/1/6
f 1025/1/6 1026/1/6 1029/1/6
f 1029/1/6 1026/1/6 1030/1/6
f 1027/1/6 1028/1/6 1031/1/6
f 1031/1/6 1028/1/6 1032/1/6
f 1033/3/6 1034/3/6 1035/3/6
f 1035/3/6 1034/3/6 1036/3/6
f 1037/3/6 1038/3/6 1039/3/6
f 1039/3/6 1038/3/6 1040/3/6
f 1041/1/6 1042/1/6 1045/1/6
f 1045/1/6 1042/1/6 1046/1/6
f 1043/1/6 1044/1/6 1047/1/6
f 1047/1/6 1044/1/6 1048/1/6
f 1049/3/6 1050/3/6 1051/3/6
f 1051/3/6 1050/3/6 1052/3/6
f 1053/2/6 1054/2/6 1055/2/6
f 1055/2/6 1054/2/6 1056/2/6
f 1057/1/6 1058/1/6 1061/1/6
f 1061/1/6 1058/1/6 1062/1/6
f 1059/1/6 1060/1/6 1063/1/6
f 1063/1/6 1060/1/6 1064/1/6
f 1065/2/6 1066/2/6 1067/2/6
f 1067/2/6 1066/2/6 1068/2/6
f 1065/2/6 1067/2/6 1069/2/6
f 1068/2/6 1066/2/6 1070/2/6
f 1065/2/6 1069/2/6 1071/2/6
f 1069/2/6 1070/2/6 1071/2/6
f 1070/2/6 1066/2/6 1072/2/6
f 1071/2/6 1070/2/6 1072/2/6
f 1073/1/6 1074/1/6 1077/1/6
f 1077/1/6 1074/1/6 1078/1/6
f 1075/1/6 1076/1/6 1079/1/6
f 1079/1/6 1076/1/6 1080/1/6
f 1077/3/6 1078/3/6 1081/3/6
f 1081/3/6 1078/3/6 1082/3/6
f 1079/3/6 1080/3/6 1083/3/6
f 1083/3/6 1080/3/6 1084/3/6
