# MagicaVoxel @ Ephtracy

# group
o 

# material
mtllib POWER.mtl
usemtl palette

# normals
vn -1 0 0
vn 1 0 0
vn 0 0 1
vn 0 0 -1
vn 0 -1 0
vn 0 1 0

# texcoords
vt 0.00195313 0.5
vt 0.275391 0.5
vt 0.279297 0.5
vt 0.373047 0.5
vt 0.392578 0.5
vt 0.533203 0.5
vt 0.845703 0.5
vt 0.958984 0.5
vt 0.986328 0.5
vt 0.994141 0.5

# verts
v -1.4 1.7 1.5
v -1.4 1.7 1.4
v -1.4 1.9 1.5
v -1.4 1.9 1.4
v -1.3 1.4 1.5
v -1.3 1.4 1.4
v -1.3 1.7 1.5
v -1.3 1.7 1.4
v -1.3 1.9 1.5
v -1.3 1.9 1.4
v -1.3 2 1.5
v -1.3 2 1.4
v -1.2 1.3 1.5
v -1.2 1.3 1.4
v -1.2 1.4 1.5
v -1.2 1.4 1.4
v -1.1 1.8 1.5
v -1.1 1.8 1.4
v -1.1 1.9 1.5
v -1.1 1.9 1.4
v -0.9 1.6 1.5
v -0.9 1.6 1.4
v -0.9 1.7 1.5
v -0.9 1.7 1.4
v -0.8 1.5 1.5
v -0.8 1.5 1.4
v -0.8 1.6 1.5
v -0.8 1.6 1.4
v -0.7 0 1.5
v -0.7 0 1.4
v -0.7 1.3 1.5
v -0.7 1.3 1.4
v -0.6 1.7 1.5
v -0.6 1.7 1.4
v -0.6 1.8 1.5
v -0.6 1.8 1.4
v -0.4 1.6 1.5
v -0.4 1.6 1.4
v -0.4 1.9 1.5
v -0.4 1.9 1.4
v -0.3 1.5 1.5
v -0.3 1.5 1.4
v -0.3 1.6 1.5
v -0.3 1.6 1.4
v -0.2 1.7 1.5
v -0.2 1.7 1.4
v -0.2 1.8 1.5
v -0.2 1.8 1.4
v -0.1 1.5 1.5
v -0.1 1.5 1.4
v -0.1 1.6 1.5
v -0.1 1.6 1.4
v 0 1.7 1.5
v 0 1.7 1.4
v 0 1.8 1.5
v 0 1.8 1.4
v 0.1 1.8 1.5
v 0.1 1.8 1.4
v 0.1 2 1.5
v 0.1 2 1.4
v 0.4 1.6 1.5
v 0.4 1.6 1.4
v 0.4 1.9 1.5
v 0.4 1.9 1.4
v 0.5 1.5 1.5
v 0.5 1.5 1.4
v 0.5 1.6 1.5
v 0.5 1.6 1.4
v 0.5 1.9 1.5
v 0.5 1.9 1.4
v 0.5 2 1.5
v 0.5 2 1.4
v 0.9 1.4 1.5
v 0.9 1.4 1.4
v 0.9 2 1.5
v 0.9 2 1.4
v 1.1 1.4 1.5
v 1.1 1.4 1.4
v 1.1 1.5 1.5
v 1.1 1.5 1.4
v 1.1 1.8 1.5
v 1.1 1.8 1.4
v 1.1 1.9 1.5
v 1.1 1.9 1.4
v 1.2 1.3 1.5
v 1.2 1.3 1.4
v 1.2 1.4 1.5
v 1.2 1.4 1.4
v 1.2 1.7 1.5
v 1.2 1.7 1.4
v 1.2 1.8 1.5
v 1.2 1.8 1.4
v -1.2 1.5 1.5
v -1.2 1.5 1.4
v -1.2 1.6 1.5
v -1.2 1.6 1.4
v -1.2 1.8 1.5
v -1.2 1.8 1.4
v -1.2 1.9 1.5
v -1.2 1.9 1.4
v -1.1 1.3 1.5
v -1.1 1.3 1.4
v -1.1 1.5 1.5
v -1.1 1.5 1.4
v -1.1 1.6 1.5
v -1.1 1.6 1.4
v -1.1 1.7 1.5
v -1.1 1.7 1.4
v -1 1.9 1.5
v -1 1.9 1.4
v -1 2 1.5
v -1 2 1.4
v -0.8 1.7 1.5
v -0.8 1.7 1.4
v -0.8 1.8 1.5
v -0.8 1.8 1.4
v -0.6 1.5 1.5
v -0.6 1.5 1.4
v -0.6 1.6 1.5
v -0.6 1.6 1.4
v -0.5 1.6 1.5
v -0.5 1.6 1.4
v -0.5 1.9 1.5
v -0.5 1.9 1.4
v -0.3 1.7 1.5
v -0.3 1.7 1.4
v -0.3 1.9 1.5
v -0.3 1.9 1.4
v -0.2 1.5 1.5
v -0.2 1.5 1.4
v -0.2 1.6 1.5
v -0.2 1.6 1.4
v -0.1 1.7 1.5
v -0.1 1.7 1.4
v -0.1 1.8 1.5
v -0.1 1.8 1.4
v 0.1 1.5 1.5
v 0.1 1.5 1.4
v 0.1 1.7 1.5
v 0.1 1.7 1.4
v 0.2 1.7 1.5
v 0.2 1.7 1.4
v 0.2 2 1.5
v 0.2 2 1.4
v 0.6 1.6 1.5
v 0.6 1.6 1.4
v 0.6 1.7 1.5
v 0.6 1.7 1.4
v 0.6 1.8 1.5
v 0.6 1.8 1.4
v 0.6 1.9 1.5
v 0.6 1.9 1.4
v 0.7 0 1.5
v 0.7 0 1.4
v 0.7 1.3 1.5
v 0.7 1.3 1.4
v 0.7 1.5 1.5
v 0.7 1.5 1.4
v 0.7 1.6 1.5
v 0.7 1.6 1.4
v 0.7 1.7 1.5
v 0.7 1.7 1.4
v 0.7 1.8 1.5
v 0.7 1.8 1.4
v 0.7 1.9 1.5
v 0.7 1.9 1.4
v 0.7 2 1.5
v 0.7 2 1.4
v 1 1.4 1.5
v 1 1.4 1.4
v 1 1.5 1.5
v 1 1.5 1.4
v 1 1.7 1.5
v 1 1.7 1.4
v 1 1.9 1.5
v 1 1.9 1.4
v 1.2 1.5 1.5
v 1.2 1.5 1.4
v 1.2 1.6 1.5
v 1.2 1.6 1.4
v 1.2 1.9 1.5
v 1.2 1.9 1.4
v 1.2 2 1.5
v 1.2 2 1.4
v 1.3 1.3 1.5
v 1.3 1.3 1.4
v 1.3 1.5 1.5
v 1.3 1.5 1.4
v 1.3 1.6 1.5
v 1.3 1.6 1.4
v 1.3 1.9 1.5
v 1.3 1.9 1.4
v -1.4 1.7 1.5
v -1.4 1.9 1.5
v -1.3 1.4 1.5
v -1.3 1.7 1.5
v -1.3 1.9 1.5
v -1.3 2 1.5
v -1.2 1.3 1.5
v -1.2 1.4 1.5
v -1.2 1.5 1.5
v -1.2 1.6 1.5
v -1.2 1.8 1.5
v -1.2 1.9 1.5
v -1.1 1.3 1.5
v -1.1 1.5 1.5
v -1.1 1.6 1.5
v -1.1 1.7 1.5
v -1.1 1.8 1.5
v -1.1 1.9 1.5
v -1 1.9 1.5
v -1 2 1.5
v -0.9 1.6 1.5
v -0.9 1.7 1.5
v -0.8 1.5 1.5
v -0.8 1.6 1.5
v -0.8 1.7 1.5
v -0.8 1.8 1.5
v -0.7 0 1.5
v -0.7 1.3 1.5
v -0.6 0.9 1.5
v -0.6 1.2 1.5
v -0.6 1.5 1.5
v -0.6 1.6 1.5
v -0.6 1.7 1.5
v -0.6 1.8 1.5
v -0.5 0.1 1.5
v -0.5 0.2 1.5
v -0.5 0.3 1.5
v -0.5 1 1.5
v -0.5 1.1 1.5
v -0.5 1.6 1.5
v -0.5 1.9 1.5
v -0.4 0 1.5
v -0.4 0.1 1.5
v -0.4 1 1.5
v -0.4 1.1 1.5
v -0.4 1.6 1.5
v -0.4 1.9 1.5
v -0.3 0.3 1.5
v -0.3 0.4 1.5
v -0.3 0.5 1.5
v -0.3 0.6 1.5
v -0.3 0.7 1.5
v -0.3 0.9 1.5
v -0.3 1 1.5
v -0.3 1.2 1.5
v -0.3 1.5 1.5
v -0.3 1.6 1.5
v -0.3 1.7 1.5
v -0.3 1.9 1.5
v -0.2 0.2 1.5
v -0.2 0.3 1.5
v -0.2 0.4 1.5
v -0.2 1.5 1.5
v -0.2 1.6 1.5
v -0.2 1.7 1.5
v -0.2 1.8 1.5
v -0.1 0.1 1.5
v -0.1 0.2 1.5
v -0.1 0.3 1.5
v -0.1 0.4 1.5
v -0.1 0.5 1.5
v -0.1 1.5 1.5
v -0.1 1.6 1.5
v -0.1 1.7 1.5
v -0.1 1.8 1.5
v 0 0.1 1.5
v 0 0.2 1.5
v 0 0.3 1.5
v 0 0.4 1.5
v 0 0.5 1.5
v 0 1.7 1.5
v 0 1.8 1.5
v 0.1 1.5 1.5
v 0.1 1.7 1.5
v 0.1 1.8 1.5
v 0.1 2 1.5
v 0.2 1.7 1.5
v 0.2 2 1.5
v 0.3 0.5 1.5
v 0.3 0.6 1.5
v 0.3 0.7 1.5
v 0.3 0.9 1.5
v 0.3 1 1.5
v 0.3 1.2 1.5
v 0.4 0 1.5
v 0.4 0.1 1.5
v 0.4 1 1.5
v 0.4 1.1 1.5
v 0.4 1.6 1.5
v 0.4 1.9 1.5
v 0.5 0.1 1.5
v 0.5 0.2 1.5
v 0.5 0.3 1.5
v 0.5 1 1.5
v 0.5 1.1 1.5
v 0.5 1.5 1.5
v 0.5 1.6 1.5
v 0.5 1.9 1.5
v 0.5 2 1.5
v 0.6 0.9 1.5
v 0.6 1.2 1.5
v 0.6 1.6 1.5
v 0.6 1.7 1.5
v 0.6 1.8 1.5
v 0.6 1.9 1.5
v 0.7 0 1.5
v 0.7 1.3 1.5
v 0.7 1.5 1.5
v 0.7 1.6 1.5
v 0.7 1.7 1.5
v 0.7 1.8 1.5
v 0.7 1.9 1.5
v 0.7 2 1.5
v 0.9 1.4 1.5
v 0.9 2 1.5
v 1 1.4 1.5
v 1 1.5 1.5
v 1 1.7 1.5
v 1 1.9 1.5
v 1.1 1.4 1.5
v 1.1 1.5 1.5
v 1.1 1.8 1.5
v 1.1 1.9 1.5
v 1.2 1.3 1.5
v 1.2 1.4 1.5
v 1.2 1.5 1.5
v 1.2 1.6 1.5
v 1.2 1.7 1.5
v 1.2 1.8 1.5
v 1.2 1.9 1.5
v 1.2 2 1.5
v 1.3 1.3 1.5
v 1.3 1.5 1.5
v 1.3 1.6 1.5
v 1.3 1.9 1.5
v -1.4 1.7 1.4
v -1.4 1.9 1.4
v -1.3 1.4 1.4
v -1.3 1.7 1.4
v -1.3 1.9 1.4
v -1.3 2 1.4
v -1.2 1.3 1.4
v -1.2 1.4 1.4
v -1.2 1.5 1.4
v -1.2 1.6 1.4
v -1.2 1.8 1.4
v -1.2 1.9 1.4
v -1.1 1.3 1.4
v -1.1 1.5 1.4
v -1.1 1.6 1.4
v -1.1 1.7 1.4
v -1.1 1.8 1.4
v -1.1 1.9 1.4
v -1 1.9 1.4
v -1 2 1.4
v -0.9 1.6 1.4
v -0.9 1.7 1.4
v -0.8 1.5 1.4
v -0.8 1.6 1.4
v -0.8 1.7 1.4
v -0.8 1.8 1.4
v -0.7 0 1.4
v -0.7 1.3 1.4
v -0.6 0.9 1.4
v -0.6 1.2 1.4
v -0.6 1.5 1.4
v -0.6 1.6 1.4
v -0.6 1.7 1.4
v -0.6 1.8 1.4
v -0.5 0.1 1.4
v -0.5 0.2 1.4
v -0.5 0.3 1.4
v -0.5 1 1.4
v -0.5 1.1 1.4
v -0.5 1.6 1.4
v -0.5 1.9 1.4
v -0.4 0 1.4
v -0.4 0.1 1.4
v -0.4 1 1.4
v -0.4 1.1 1.4
v -0.4 1.6 1.4
v -0.4 1.9 1.4
v -0.3 0.3 1.4
v -0.3 0.4 1.4
v -0.3 0.5 1.4
v -0.3 0.6 1.4
v -0.3 0.7 1.4
v -0.3 0.9 1.4
v -0.3 1 1.4
v -0.3 1.2 1.4
v -0.3 1.5 1.4
v -0.3 1.6 1.4
v -0.3 1.7 1.4
v -0.3 1.9 1.4
v -0.2 0.2 1.4
v -0.2 0.3 1.4
v -0.2 0.4 1.4
v -0.2 1.5 1.4
v -0.2 1.6 1.4
v -0.2 1.7 1.4
v -0.2 1.8 1.4
v -0.1 0.1 1.4
v -0.1 0.2 1.4
v -0.1 0.3 1.4
v -0.1 0.4 1.4
v -0.1 0.5 1.4
v -0.1 1.5 1.4
v -0.1 1.6 1.4
v -0.1 1.7 1.4
v -0.1 1.8 1.4
v 0 0.1 1.4
v 0 0.2 1.4
v 0 0.3 1.4
v 0 0.4 1.4
v 0 0.5 1.4
v 0 1.7 1.4
v 0 1.8 1.4
v 0.1 1.5 1.4
v 0.1 1.7 1.4
v 0.1 1.8 1.4
v 0.1 2 1.4
v 0.2 1.7 1.4
v 0.2 2 1.4
v 0.3 0.5 1.4
v 0.3 0.6 1.4
v 0.3 0.7 1.4
v 0.3 0.9 1.4
v 0.3 1 1.4
v 0.3 1.2 1.4
v 0.4 0 1.4
v 0.4 0.1 1.4
v 0.4 1 1.4
v 0.4 1.1 1.4
v 0.4 1.6 1.4
v 0.4 1.9 1.4
v 0.5 0.1 1.4
v 0.5 0.2 1.4
v 0.5 0.3 1.4
v 0.5 1 1.4
v 0.5 1.1 1.4
v 0.5 1.5 1.4
v 0.5 1.6 1.4
v 0.5 1.9 1.4
v 0.5 2 1.4
v 0.6 0.9 1.4
v 0.6 1.2 1.4
v 0.6 1.6 1.4
v 0.6 1.7 1.4
v 0.6 1.8 1.4
v 0.6 1.9 1.4
v 0.7 0 1.4
v 0.7 1.3 1.4
v 0.7 1.5 1.4
v 0.7 1.6 1.4
v 0.7 1.7 1.4
v 0.7 1.8 1.4
v 0.7 1.9 1.4
v 0.7 2 1.4
v 0.9 1.4 1.4
v 0.9 2 1.4
v 1 1.4 1.4
v 1 1.5 1.4
v 1 1.7 1.4
v 1 1.9 1.4
v 1.1 1.4 1.4
v 1.1 1.5 1.4
v 1.1 1.8 1.4
v 1.1 1.9 1.4
v 1.2 1.3 1.4
v 1.2 1.4 1.4
v 1.2 1.5 1.4
v 1.2 1.6 1.4
v 1.2 1.7 1.4
v 1.2 1.8 1.4
v 1.2 1.9 1.4
v 1.2 2 1.4
v 1.3 1.3 1.4
v 1.3 1.5 1.4
v 1.3 1.6 1.4
v 1.3 1.9 1.4
v -0.7 0 1.5
v -0.4 0 1.5
v 0.4 0 1.5
v 0.7 0 1.5
v -0.7 0 1.4
v -0.4 0 1.4
v 0.4 0 1.4
v 0.7 0 1.4
v -1.2 1.3 1.5
v -1.1 1.3 1.5
v 1.2 1.3 1.5
v 1.3 1.3 1.5
v -1.2 1.3 1.4
v -1.1 1.3 1.4
v 1.2 1.3 1.4
v 1.3 1.3 1.4
v -1.3 1.4 1.5
v -1.2 1.4 1.5
v 0.9 1.4 1.5
v 1 1.4 1.5
v 1.1 1.4 1.5
v 1.2 1.4 1.5
v -1.3 1.4 1.4
v -1.2 1.4 1.4
v 0.9 1.4 1.4
v 1 1.4 1.4
v 1.1 1.4 1.4
v 1.2 1.4 1.4
v -0.8 1.5 1.5
v -0.6 1.5 1.5
v -0.3 1.5 1.5
v -0.2 1.5 1.5
v -0.1 1.5 1.5
v 0.1 1.5 1.5
v 0.5 1.5 1.5
v 0.7 1.5 1.5
v 1 1.5 1.5
v 1.1 1.5 1.5
v -0.8 1.5 1.4
v -0.6 1.5 1.4
v -0.3 1.5 1.4
v -0.2 1.5 1.4
v -0.1 1.5 1.4
v 0.1 1.5 1.4
v 0.5 1.5 1.4
v 0.7 1.5 1.4
v 1 1.5 1.4
v 1.1 1.5 1.4
v -1.2 1.6 1.5
v -1.1 1.6 1.5
v -0.9 1.6 1.5
v -0.8 1.6 1.5
v -0.6 1.6 1.5
v -0.5 1.6 1.5
v -0.4 1.6 1.5
v -0.3 1.6 1.5
v -0.2 1.6 1.5
v -0.1 1.6 1.5
v 0.4 1.6 1.5
v 0.5 1.6 1.5
v 1.2 1.6 1.5
v 1.3 1.6 1.5
v -1.2 1.6 1.4
v -1.1 1.6 1.4
v -0.9 1.6 1.4
v -0.8 1.6 1.4
v -0.6 1.6 1.4
v -0.5 1.6 1.4
v -0.4 1.6 1.4
v -0.3 1.6 1.4
v -0.2 1.6 1.4
v -0.1 1.6 1.4
v 0.4 1.6 1.4
v 0.5 1.6 1.4
v 1.2 1.6 1.4
v 1.3 1.6 1.4
v -1.4 1.7 1.5
v -1.3 1.7 1.5
v -1.1 1.7 1.5
v -0.9 1.7 1.5
v 0.1 1.7 1.5
v 0.2 1.7 1.5
v 0.6 1.7 1.5
v 0.7 1.7 1.5
v -1.4 1.7 1.4
v -1.3 1.7 1.4
v -1.1 1.7 1.4
v -0.9 1.7 1.4
v 0.1 1.7 1.4
v 0.2 1.7 1.4
v 0.6 1.7 1.4
v 0.7 1.7 1.4
v -0.8 1.8 1.5
v -0.6 1.8 1.5
v 1.1 1.8 1.5
v 1.2 1.8 1.5
v -0.8 1.8 1.4
v -0.6 1.8 1.4
v 1.1 1.8 1.4
v 1.2 1.8 1.4
v -1.2 1.9 1.5
v -1.1 1.9 1.5
v 0.6 1.9 1.5
v 0.7 1.9 1.5
v 1 1.9 1.5
v 1.1 1.9 1.5
v -1.2 1.9 1.4
v -1.1 1.9 1.4
v 0.6 1.9 1.4
v 0.7 1.9 1.4
v 1 1.9 1.4
v 1.1 1.9 1.4
v -0.7 1.3 1.5
v 0.7 1.3 1.5
v -0.7 1.3 1.4
v 0.7 1.3 1.4
v -1.2 1.5 1.5
v -1.1 1.5 1.5
v 1.2 1.5 1.5
v 1.3 1.5 1.5
v -1.2 1.5 1.4
v -1.1 1.5 1.4
v 1.2 1.5 1.4
v 1.3 1.5 1.4
v 0.6 1.6 1.5
v 0.7 1.6 1.5
v 0.6 1.6 1.4
v 0.7 1.6 1.4
v -0.8 1.7 1.5
v -0.6 1.7 1.5
v -0.3 1.7 1.5
v -0.2 1.7 1.5
v -0.1 1.7 1.5
v 0 1.7 1.5
v 1 1.7 1.5
v 1.2 1.7 1.5
v -0.8 1.7 1.4
v -0.6 1.7 1.4
v -0.3 1.7 1.4
v -0.2 1.7 1.4
v -0.1 1.7 1.4
v 0 1.7 1.4
v 1 1.7 1.4
v 1.2 1.7 1.4
v -1.2 1.8 1.5
v -1.1 1.8 1.5
v -0.2 1.8 1.5
v -0.1 1.8 1.5
v 0 1.8 1.5
v 0.1 1.8 1.5
v 0.6 1.8 1.5
v 0.7 1.8 1.5
v -1.2 1.8 1.4
v -1.1 1.8 1.4
v -0.2 1.8 1.4
v -0.1 1.8 1.4
v 0 1.8 1.4
v 0.1 1.8 1.4
v 0.6 1.8 1.4
v 0.7 1.8 1.4
v -1.4 1.9 1.5
v -1.3 1.9 1.5
v -1 1.9 1.5
v -0.5 1.9 1.5
v -0.4 1.9 1.5
v -0.3 1.9 1.5
v 0.4 1.9 1.5
v 0.5 1.9 1.5
v 1.2 1.9 1.5
v 1.3 1.9 1.5
v -1.4 1.9 1.4
v -1.3 1.9 1.4
v -1 1.9 1.4
v -0.5 1.9 1.4
v -0.4 1.9 1.4
v -0.3 1.9 1.4
v 0.4 1.9 1.4
v 0.5 1.9 1.4
v 1.2 1.9 1.4
v 1.3 1.9 1.4
v -1.3 2 1.5
v -1 2 1.5
v 0.1 2 1.5
v 0.2 2 1.5
v 0.5 2 1.5
v 0.7 2 1.5
v 0.9 2 1.5
v 1.2 2 1.5
v -1.3 2 1.4
v -1 2 1.4
v 0.1 2 1.4
v 0.2 2 1.4
v 0.5 2 1.4
v 0.7 2 1.4
v 0.9 2 1.4
v 1.2 2 1.4

# faces
f 3/3/1 2/3/1 1/3/1
f 4/3/1 2/3/1 3/3/1
f 7/3/1 6/3/1 5/3/1
f 8/3/1 6/3/1 7/3/1
f 11/3/1 10/3/1 9/3/1
f 12/3/1 10/3/1 11/3/1
f 15/3/1 14/3/1 13/3/1
f 16/3/1 14/3/1 15/3/1
f 19/3/1 18/3/1 17/3/1
f 20/3/1 18/3/1 19/3/1
f 23/3/1 22/3/1 21/3/1
f 24/3/1 22/3/1 23/3/1
f 27/3/1 26/3/1 25/3/1
f 28/3/1 26/3/1 27/3/1
f 31/4/1 30/4/1 29/4/1
f 32/4/1 30/4/1 31/4/1
f 35/3/1 34/3/1 33/3/1
f 36/3/1 34/3/1 35/3/1
f 39/3/1 38/3/1 37/3/1
f 40/3/1 38/3/1 39/3/1
f 43/3/1 42/3/1 41/3/1
f 44/3/1 42/3/1 43/3/1
f 47/3/1 46/3/1 45/3/1
f 48/3/1 46/3/1 47/3/1
f 51/3/1 50/3/1 49/3/1
f 52/3/1 50/3/1 51/3/1
f 55/3/1 54/3/1 53/3/1
f 56/3/1 54/3/1 55/3/1
f 59/3/1 58/3/1 57/3/1
f 60/3/1 58/3/1 59/3/1
f 63/3/1 62/3/1 61/3/1
f 64/3/1 62/3/1 63/3/1
f 67/3/1 66/3/1 65/3/1
f 68/3/1 66/3/1 67/3/1
f 71/3/1 70/3/1 69/3/1
f 72/3/1 70/3/1 71/3/1
f 75/3/1 74/3/1 73/3/1
f 76/3/1 74/3/1 75/3/1
f 79/3/1 78/3/1 77/3/1
f 80/3/1 78/3/1 79/3/1
f 83/3/1 82/3/1 81/3/1
f 84/3/1 82/3/1 83/3/1
f 87/3/1 86/3/1 85/3/1
f 88/3/1 86/3/1 87/3/1
f 91/3/1 90/3/1 89/3/1
f 92/3/1 90/3/1 91/3/1
f 93/3/2 94/3/2 95/3/2
f 95/3/2 94/3/2 96/3/2
f 97/3/2 98/3/2 99/3/2
f 99/3/2 98/3/2 100/3/2
f 101/3/2 102/3/2 103/3/2
f 103/3/2 102/3/2 104/3/2
f 105/3/2 106/3/2 107/3/2
f 107/3/2 106/3/2 108/3/2
f 109/3/2 110/3/2 111/3/2
f 111/3/2 110/3/2 112/3/2
f 113/3/2 114/3/2 115/3/2
f 115/3/2 114/3/2 116/3/2
f 117/3/2 118/3/2 119/3/2
f 119/3/2 118/3/2 120/3/2
f 121/3/2 122/3/2 123/3/2
f 123/3/2 122/3/2 124/3/2
f 125/3/2 126/3/2 127/3/2
f 127/3/2 126/3/2 128/3/2
f 129/3/2 130/3/2 131/3/2
f 131/3/2 130/3/2 132/3/2
f 133/3/2 134/3/2 135/3/2
f 135/3/2 134/3/2 136/3/2
f 137/3/2 138/3/2 139/3/2
f 139/3/2 138/3/2 140/3/2
f 141/3/2 142/3/2 143/3/2
f 143/3/2 142/3/2 144/3/2
f 145/3/2 146/3/2 147/3/2
f 147/3/2 146/3/2 148/3/2
f 149/3/2 150/3/2 151/3/2
f 151/3/2 150/3/2 152/3/2
f 153/4/2 154/4/2 155/4/2
f 155/4/2 154/4/2 156/4/2
f 157/3/2 158/3/2 159/3/2
f 159/3/2 158/3/2 160/3/2
f 161/3/2 162/3/2 163/3/2
f 163/3/2 162/3/2 164/3/2
f 165/3/2 166/3/2 167/3/2
f 167/3/2 166/3/2 168/3/2
f 169/3/2 170/3/2 171/3/2
f 171/3/2 170/3/2 172/3/2
f 173/3/2 174/3/2 175/3/2
f 175/3/2 174/3/2 176/3/2
f 177/3/2 178/3/2 179/3/2
f 179/3/2 178/3/2 180/3/2
f 181/3/2 182/3/2 183/3/2
f 183/3/2 182/3/2 184/3/2
f 185/3/2 186/3/2 187/3/2
f 187/3/2 186/3/2 188/3/2
f 189/3/2 190/3/2 191/3/2
f 191/3/2 190/3/2 192/3/2
f 196/3/3 194/3/3 193/3/3
f 197/3/3 194/3/3 196/3/3
f 200/3/3 196/3/3 195/3/3
f 200/3/3 198/3/3 197/3/3
f 200/3/3 197/3/3 196/3/3
f 201/3/3 198/3/3 200/3/3
f 202/3/3 198/3/3 201/3/3
f 203/3/3 198/3/3 202/3/3
f 204/3/3 198/3/3 203/3/3
f 205/3/3 200/3/3 199/3/3
f 205/3/3 201/3/3 200/3/3
f 206/3/3 201/3/3 205/3/3
f 207/3/3 203/3/3 202/3/3
f 208/3/3 203/3/3 207/3/3
f 209/3/3 203/3/3 208/3/3
f 210/3/3 198/3/3 204/3/3
f 211/3/3 209/3/3 208/3/3
f 211/3/3 210/3/3 209/3/3
f 211/3/3 198/3/3 210/3/3
f 212/3/3 198/3/3 211/3/3
f 214/3/3 211/3/3 208/3/3
f 216/3/3 214/3/3 213/3/3
f 217/3/3 211/3/3 214/3/3
f 217/3/3 214/3/3 216/3/3
f 218/3/3 211/3/3 217/3/3
f 221/4/3 220/4/3 219/4/3
f 222/4/3 220/4/3 221/4/3
f 223/3/3 216/3/3 215/3/3
f 223/3/3 217/3/3 216/3/3
f 224/3/3 217/3/3 223/3/3
f 225/3/3 217/3/3 224/3/3
f 226/3/3 211/3/3 218/3/3
f 227/4/3 221/4/3 219/4/3
f 228/4/3 221/4/3 227/4/3
f 229/4/3 221/4/3 228/4/3
f 230/8/3 222/8/3 221/8/3
f 231/8/3 222/8/3 230/8/3
f 232/3/3 225/3/3 224/3/3
f 232/3/3 226/3/3 225/3/3
f 233/3/3 211/3/3 226/3/3
f 233/3/3 226/3/3 232/3/3
f 234/4/3 227/4/3 219/4/3
f 235/9/3 228/9/3 227/9/3
f 235/4/3 227/4/3 234/4/3
f 236/7/3 231/7/3 230/7/3
f 236/8/3 230/8/3 221/8/3
f 237/8/3 222/8/3 231/8/3
f 237/7/3 231/7/3 236/7/3
f 240/4/3 221/4/3 229/4/3
f 240/6/3 229/6/3 228/6/3
f 241/4/3 221/4/3 240/4/3
f 242/4/3 221/4/3 241/4/3
f 243/4/3 221/4/3 242/4/3
f 244/4/3 221/4/3 243/4/3
f 245/8/3 236/8/3 221/8/3
f 245/4/3 221/4/3 244/4/3
f 245/8/3 237/8/3 236/8/3
f 246/8/3 237/8/3 245/8/3
f 247/4/3 220/4/3 222/4/3
f 247/8/3 237/8/3 246/8/3
f 247/8/3 222/8/3 237/8/3
f 249/3/3 239/3/3 238/3/3
f 250/3/3 239/3/3 249/3/3
f 251/3/3 239/3/3 250/3/3
f 252/9/3 228/9/3 235/9/3
f 252/9/3 235/9/3 234/9/3
f 252/6/3 240/6/3 228/6/3
f 253/5/3 241/5/3 240/5/3
f 253/6/3 240/6/3 252/6/3
f 254/2/3 242/2/3 241/2/3
f 254/5/3 241/5/3 253/5/3
f 255/3/3 250/3/3 249/3/3
f 255/3/3 249/3/3 248/3/3
f 256/3/3 250/3/3 255/3/3
f 257/3/3 250/3/3 256/3/3
f 259/9/3 252/9/3 234/9/3
f 260/2/3 254/2/3 253/2/3
f 260/9/3 252/9/3 259/9/3
f 260/2/3 253/2/3 252/2/3
f 261/2/3 254/2/3 260/2/3
f 262/2/3 242/2/3 254/2/3
f 262/2/3 254/2/3 261/2/3
f 263/1/3 243/1/3 242/1/3
f 263/2/3 242/2/3 262/2/3
f 265/3/3 258/3/3 257/3/3
f 265/3/3 257/3/3 256/3/3
f 266/3/3 258/3/3 265/3/3
f 267/3/3 258/3/3 266/3/3
f 268/5/3 261/5/3 260/5/3
f 268/9/3 259/9/3 234/9/3
f 268/5/3 260/5/3 259/5/3
f 269/5/3 261/5/3 268/5/3
f 270/2/3 262/2/3 261/2/3
f 270/5/3 261/5/3 269/5/3
f 271/5/3 263/5/3 262/5/3
f 271/2/3 262/2/3 270/2/3
f 272/1/3 243/1/3 263/1/3
f 272/5/3 263/5/3 271/5/3
f 273/3/3 266/3/3 265/3/3
f 273/3/3 265/3/3 264/3/3
f 275/3/3 273/3/3 264/3/3
f 275/3/3 274/3/3 273/3/3
f 276/3/3 274/3/3 275/3/3
f 277/3/3 274/3/3 276/3/3
f 279/3/3 277/3/3 276/3/3
f 279/3/3 278/3/3 277/3/3
f 280/3/3 278/3/3 279/3/3
f 281/1/3 243/1/3 272/1/3
f 281/4/3 271/4/3 270/4/3
f 281/4/3 272/4/3 271/4/3
f 282/4/3 244/4/3 243/4/3
f 282/1/3 243/1/3 281/1/3
f 283/10/3 246/10/3 245/10/3
f 283/4/3 244/4/3 282/4/3
f 283/10/3 245/10/3 244/10/3
f 284/10/3 246/10/3 283/10/3
f 285/4/3 247/4/3 246/4/3
f 285/10/3 246/10/3 284/10/3
f 286/4/3 220/4/3 247/4/3
f 286/4/3 247/4/3 285/4/3
f 287/9/3 268/9/3 234/9/3
f 287/9/3 269/9/3 268/9/3
f 288/9/3 269/9/3 287/9/3
f 289/8/3 285/8/3 284/8/3
f 289/8/3 286/8/3 285/8/3
f 290/8/3 286/8/3 289/8/3
f 293/9/3 269/9/3 288/9/3
f 293/4/3 288/4/3 287/4/3
f 294/6/3 270/6/3 269/6/3
f 294/9/3 269/9/3 293/9/3
f 295/4/3 282/4/3 281/4/3
f 295/6/3 270/6/3 294/6/3
f 295/4/3 281/4/3 270/4/3
f 295/4/3 284/4/3 283/4/3
f 295/4/3 283/4/3 282/4/3
f 296/7/3 290/7/3 289/7/3
f 296/8/3 289/8/3 284/8/3
f 297/8/3 286/8/3 290/8/3
f 297/7/3 290/7/3 296/7/3
f 299/3/3 292/3/3 291/3/3
f 300/3/3 292/3/3 299/3/3
f 302/4/3 294/4/3 293/4/3
f 302/4/3 284/4/3 295/4/3
f 302/8/3 296/8/3 284/8/3
f 302/4/3 295/4/3 294/4/3
f 302/8/3 297/8/3 296/8/3
f 303/8/3 286/8/3 297/8/3
f 303/8/3 297/8/3 302/8/3
f 303/4/3 220/4/3 286/4/3
f 304/3/3 301/3/3 300/3/3
f 304/3/3 300/3/3 299/3/3
f 304/3/3 299/3/3 298/3/3
f 305/3/3 301/3/3 304/3/3
f 306/3/3 301/3/3 305/3/3
f 307/3/3 301/3/3 306/3/3
f 308/4/3 302/4/3 293/4/3
f 308/4/3 303/4/3 302/4/3
f 308/4/3 293/4/3 287/4/3
f 309/4/3 220/4/3 303/4/3
f 309/4/3 303/4/3 308/4/3
f 310/3/3 304/3/3 298/3/3
f 311/3/3 304/3/3 310/3/3
f 312/3/3 306/3/3 305/3/3
f 313/3/3 306/3/3 312/3/3
f 314/3/3 301/3/3 307/3/3
f 315/3/3 301/3/3 314/3/3
f 318/3/3 317/3/3 316/3/3
f 319/3/3 317/3/3 318/3/3
f 320/3/3 317/3/3 319/3/3
f 321/3/3 317/3/3 320/3/3
f 323/3/3 320/3/3 319/3/3
f 325/3/3 317/3/3 321/3/3
f 327/3/3 323/3/3 322/3/3
f 328/3/3 320/3/3 323/3/3
f 328/3/3 323/3/3 327/3/3
f 329/3/3 320/3/3 328/3/3
f 330/3/3 320/3/3 329/3/3
f 331/3/3 325/3/3 324/3/3
f 332/3/3 317/3/3 325/3/3
f 332/3/3 325/3/3 331/3/3
f 333/3/3 317/3/3 332/3/3
f 334/3/3 327/3/3 326/3/3
f 334/3/3 328/3/3 327/3/3
f 335/3/3 328/3/3 334/3/3
f 336/3/3 330/3/3 329/3/3
f 336/3/3 331/3/3 330/3/3
f 336/3/3 332/3/3 331/3/3
f 337/3/3 332/3/3 336/3/3
f 338/3/4 339/3/4 341/3/4
f 341/3/4 339/3/4 342/3/4
f 340/3/4 341/3/4 345/3/4
f 342/3/4 343/3/4 345/3/4
f 341/3/4 342/3/4 345/3/4
f 345/3/4 343/3/4 346/3/4
f 346/3/4 343/3/4 347/3/4
f 347/3/4 343/3/4 348/3/4
f 348/3/4 343/3/4 349/3/4
f 344/3/4 345/3/4 350/3/4
f 345/3/4 346/3/4 350/3/4
f 350/3/4 346/3/4 351/3/4
f 347/3/4 348/3/4 352/3/4
f 352/3/4 348/3/4 353/3/4
f 353/3/4 348/3/4 354/3/4
f 349/3/4 343/3/4 355/3/4
f 353/3/4 354/3/4 356/3/4
f 354/3/4 355/3/4 356/3/4
f 355/3/4 343/3/4 356/3/4
f 356/3/4 343/3/4 357/3/4
f 353/3/4 356/3/4 359/3/4
f 358/3/4 359/3/4 361/3/4
f 359/3/4 356/3/4 362/3/4
f 361/3/4 359/3/4 362/3/4
f 362/3/4 356/3/4 363/3/4
f 364/4/4 365/4/4 366/4/4
f 366/4/4 365/4/4 367/4/4
f 360/3/4 361/3/4 368/3/4
f 361/3/4 362/3/4 368/3/4
f 368/3/4 362/3/4 369/3/4
f 369/3/4 362/3/4 370/3/4
f 363/3/4 356/3/4 371/3/4
f 364/4/4 366/4/4 372/4/4
f 372/4/4 366/4/4 373/4/4
f 373/4/4 366/4/4 374/4/4
f 366/8/4 367/8/4 375/8/4
f 375/8/4 367/8/4 376/8/4
f 369/3/4 370/3/4 377/3/4
f 370/3/4 371/3/4 377/3/4
f 371/3/4 356/3/4 378/3/4
f 377/3/4 371/3/4 378/3/4
f 364/4/4 372/4/4 379/4/4
f 372/9/4 373/9/4 380/9/4
f 379/4/4 372/4/4 380/4/4
f 375/7/4 376/7/4 381/7/4
f 366/8/4 375/8/4 381/8/4
f 376/8/4 367/8/4 382/8/4
f 381/7/4 376/7/4 382/7/4
f 374/4/4 366/4/4 385/4/4
f 373/6/4 374/6/4 385/6/4
f 385/4/4 366/4/4 386/4/4
f 386/4/4 366/4/4 387/4/4
f 387/4/4 366/4/4 388/4/4
f 388/4/4 366/4/4 389/4/4
f 366/8/4 381/8/4 390/8/4
f 389/4/4 366/4/4 390/4/4
f 381/8/4 382/8/4 390/8/4
f 390/8/4 382/8/4 391/8/4
f 367/4/4 365/4/4 392/4/4
f 391/8/4 382/8/4 392/8/4
f 382/8/4 367/8/4 392/8/4
f 383/3/4 384/3/4 394/3/4
f 394/3/4 384/3/4 395/3/4
f 395/3/4 384/3/4 396/3/4
f 380/9/4 373/9/4 397/9/4
f 379/9/4 380/9/4 397/9/4
f 373/6/4 385/6/4 397/6/4
f 385/5/4 386/5/4 398/5/4
f 397/6/4 385/6/4 398/6/4
f 386/2/4 387/2/4 399/2/4
f 398/5/4 386/5/4 399/5/4
f 394/3/4 395/3/4 400/3/4
f 393/3/4 394/3/4 400/3/4
f 400/3/4 395/3/4 401/3/4
f 401/3/4 395/3/4 402/3/4
f 379/9/4 397/9/4 404/9/4
f 398/2/4 399/2/4 405/2/4
f 404/9/4 397/9/4 405/9/4
f 397/2/4 398/2/4 405/2/4
f 405/2/4 399/2/4 406/2/4
f 399/2/4 387/2/4 407/2/4
f 406/2/4 399/2/4 407/2/4
f 387/1/4 388/1/4 408/1/4
f 407/2/4 387/2/4 408/2/4
f 402/3/4 403/3/4 410/3/4
f 401/3/4 402/3/4 410/3/4
f 410/3/4 403/3/4 411/3/4
f 411/3/4 403/3/4 412/3/4
f 405/5/4 406/5/4 413/5/4
f 379/9/4 404/9/4 413/9/4
f 404/5/4 405/5/4 413/5/4
f 413/5/4 406/5/4 414/5/4
f 406/2/4 407/2/4 415/2/4
f 414/5/4 406/5/4 415/5/4
f 407/5/4 408/5/4 416/5/4
f 415/2/4 407/2/4 416/2/4
f 408/1/4 388/1/4 417/1/4
f 416/5/4 408/5/4 417/5/4
f 410/3/4 411/3/4 418/3/4
f 409/3/4 410/3/4 418/3/4
f 409/3/4 418/3/4 420/3/4
f 418/3/4 419/3/4 420/3/4
f 420/3/4 419/3/4 421/3/4
f 421/3/4 419/3/4 422/3/4
f 421/3/4 422/3/4 424/3/4
f 422/3/4 423/3/4 424/3/4
f 424/3/4 423/3/4 425/3/4
f 417/1/4 388/1/4 426/1/4
f 415/4/4 416/4/4 426/4/4
f 416/4/4 417/4/4 426/4/4
f 388/4/4 389/4/4 427/4/4
f 426/1/4 388/1/4 427/1/4
f 390/10/4 391/10/4 428/10/4
f 427/4/4 389/4/4 428/4/4
f 389/10/4 390/10/4 428/10/4
f 428/10/4 391/10/4 429/10/4
f 391/4/4 392/4/4 430/4/4
f 429/10/4 391/10/4 430/10/4
f 392/4/4 365/4/4 431/4/4
f 430/4/4 392/4/4 431/4/4
f 379/9/4 413/9/4 432/9/4
f 413/9/4 414/9/4 432/9/4
f 432/9/4 414/9/4 433/9/4
f 429/8/4 430/8/4 434/8/4
f 430/8/4 431/8/4 434/8/4
f 434/8/4 431/8/4 435/8/4
f 433/9/4 414/9/4 438/9/4
f 432/4/4 433/4/4 438/4/4
f 414/6/4 415/6/4 439/6/4
f 438/9/4 414/9/4 439/9/4
f 426/4/4 427/4/4 440/4/4
f 439/6/4 415/6/4 440/6/4
f 415/4/4 426/4/4 440/4/4
f 428/4/4 429/4/4 440/4/4
f 427/4/4 428/4/4 440/4/4
f 434/7/4 435/7/4 441/7/4
f 429/8/4 434/8/4 441/8/4
f 435/8/4 431/8/4 442/8/4
f 441/7/4 435/7/4 442/7/4
f 436/3/4 437/3/4 444/3/4
f 444/3/4 437/3/4 445/3/4
f 438/4/4 439/4/4 447/4/4
f 440/4/4 429/4/4 447/4/4
f 429/8/4 441/8/4 447/8/4
f 439/4/4 440/4/4 447/4/4
f 441/8/4 442/8/4 447/8/4
f 442/8/4 431/8/4 448/8/4
f 447/8/4 442/8/4 448/8/4
f 431/4/4 365/4/4 448/4/4
f 445/3/4 446/3/4 449/3/4
f 444/3/4 445/3/4 449/3/4
f 443/3/4 444/3/4 449/3/4
f 449/3/4 446/3/4 450/3/4
f 450/3/4 446/3/4 451/3/4
f 451/3/4 446/3/4 452/3/4
f 438/4/4 447/4/4 453/4/4
f 447/4/4 448/4/4 453/4/4
f 432/4/4 438/4/4 453/4/4
f 448/4/4 365/4/4 454/4/4
f 453/4/4 448/4/4 454/4/4
f 443/3/4 449/3/4 455/3/4
f 455/3/4 449/3/4 456/3/4
f 450/3/4 451/3/4 457/3/4
f 457/3/4 451/3/4 458/3/4
f 452/3/4 446/3/4 459/3/4
f 459/3/4 446/3/4 460/3/4
f 461/3/4 462/3/4 463/3/4
f 463/3/4 462/3/4 464/3/4
f 464/3/4 462/3/4 465/3/4
f 465/3/4 462/3/4 466/3/4
f 464/3/4 465/3/4 468/3/4
f 466/3/4 462/3/4 470/3/4
f 467/3/4 468/3/4 472/3/4
f 468/3/4 465/3/4 473/3/4
f 472/3/4 468/3/4 473/3/4
f 473/3/4 465/3/4 474/3/4
f 474/3/4 465/3/4 475/3/4
f 469/3/4 470/3/4 476/3/4
f 470/3/4 462/3/4 477/3/4
f 476/3/4 470/3/4 477/3/4
f 477/3/4 462/3/4 478/3/4
f 471/3/4 472/3/4 479/3/4
f 472/3/4 473/3/4 479/3/4
f 479/3/4 473/3/4 480/3/4
f 474/3/4 475/3/4 481/3/4
f 475/3/4 476/3/4 481/3/4
f 476/3/4 477/3/4 481/3/4
f 481/3/4 477/3/4 482/3/4
f 487/4/5 484/4/5 483/4/5
f 488/9/5 485/9/5 484/9/5
f 488/4/5 484/4/5 487/4/5
f 489/4/5 486/4/5 485/4/5
f 489/9/5 485/9/5 488/9/5
f 490/4/5 486/4/5 489/4/5
f 495/3/5 492/3/5 491/3/5
f 496/3/5 492/3/5 495/3/5
f 497/3/5 494/3/5 493/3/5
f 498/3/5 494/3/5 497/3/5
f 505/3/5 500/3/5 499/3/5
f 506/3/5 500/3/5 505/3/5
f 507/3/5 502/3/5 501/3/5
f 508/3/5 502/3/5 507/3/5
f 509/3/5 504/3/5 503/3/5
f 510/3/5 504/3/5 509/3/5
f 521/3/5 512/3/5 511/3/5
f 522/3/5 512/3/5 521/3/5
f 523/3/5 514/3/5 513/3/5
f 524/3/5 514/3/5 523/3/5
f 525/3/5 516/3/5 515/3/5
f 526/3/5 516/3/5 525/3/5
f 527/3/5 518/3/5 517/3/5
f 528/3/5 518/3/5 527/3/5
f 529/3/5 520/3/5 519/3/5
f 530/3/5 520/3/5 529/3/5
f 545/3/5 532/3/5 531/3/5
f 546/3/5 532/3/5 545/3/5
f 547/3/5 534/3/5 533/3/5
f 548/3/5 534/3/5 547/3/5
f 549/3/5 536/3/5 535/3/5
f 550/3/5 536/3/5 549/3/5
f 551/3/5 538/3/5 537/3/5
f 552/3/5 538/3/5 551/3/5
f 553/3/5 540/3/5 539/3/5
f 554/3/5 540/3/5 553/3/5
f 555/3/5 542/3/5 541/3/5
f 556/3/5 542/3/5 555/3/5
f 557/3/5 544/3/5 543/3/5
f 558/3/5 544/3/5 557/3/5
f 567/3/5 560/3/5 559/3/5
f 568/3/5 560/3/5 567/3/5
f 569/3/5 562/3/5 561/3/5
f 570/3/5 562/3/5 569/3/5
f 571/3/5 564/3/5 563/3/5
f 572/3/5 564/3/5 571/3/5
f 573/3/5 566/3/5 565/3/5
f 574/3/5 566/3/5 573/3/5
f 579/3/5 576/3/5 575/3/5
f 580/3/5 576/3/5 579/3/5
f 581/3/5 578/3/5 577/3/5
f 582/3/5 578/3/5 581/3/5
f 589/3/5 584/3/5 583/3/5
f 590/3/5 584/3/5 589/3/5
f 591/3/5 586/3/5 585/3/5
f 592/3/5 586/3/5 591/3/5
f 593/3/5 588/3/5 587/3/5
f 594/3/5 588/3/5 593/3/5
f 595/4/6 596/4/6 597/4/6
f 597/4/6 596/4/6 598/4/6
f 599/3/6 600/3/6 603/3/6
f 603/3/6 600/3/6 604/3/6
f 601/3/6 602/3/6 605/3/6
f 605/3/6 602/3/6 606/3/6
f 607/3/6 608/3/6 609/3/6
f 609/3/6 608/3/6 610/3/6
f 611/3/6 612/3/6 619/3/6
f 619/3/6 612/3/6 620/3/6
f 613/3/6 614/3/6 621/3/6
f 621/3/6 614/3/6 622/3/6
f 615/3/6 616/3/6 623/3/6
f 623/3/6 616/3/6 624/3/6
f 617/3/6 618/3/6 625/3/6
f 625/3/6 618/3/6 626/3/6
f 627/3/6 628/3/6 635/3/6
f 635/3/6 628/3/6 636/3/6
f 629/3/6 630/3/6 637/3/6
f 637/3/6 630/3/6 638/3/6
f 631/3/6 632/3/6 639/3/6
f 639/3/6 632/3/6 640/3/6
f 633/3/6 634/3/6 641/3/6
f 641/3/6 634/3/6 642/3/6
f 643/3/6 644/3/6 653/3/6
f 653/3/6 644/3/6 654/3/6
f 645/3/6 646/3/6 655/3/6
f 655/3/6 646/3/6 656/3/6
f 647/3/6 648/3/6 657/3/6
f 657/3/6 648/3/6 658/3/6
f 649/3/6 650/3/6 659/3/6
f 659/3/6 650/3/6 660/3/6
f 651/3/6 652/3/6 661/3/6
f 661/3/6 652/3/6 662/3/6
f 663/3/6 664/3/6 671/3/6
f 671/3/6 664/3/6 672/3/6
f 665/3/6 666/3/6 673/3/6
f 673/3/6 666/3/6 674/3/6
f 667/3/6 668/3/6 675/3/6
f 675/3/6 668/3/6 676/3/6
f 669/3/6 670/3/6 677/3/6
f 677/3/6 670/3/6 678/3/6
