# MagicaVoxel @ Ephtracy

# group
o 

# material
mtllib REVERSE.mtl
usemtl palette

# normals
vn -1 0 0
vn 1 0 0
vn 0 0 1
vn 0 0 -1
vn 0 -1 0
vn 0 1 0

# texcoords
vt 0.587891 0.5
vt 0.994141 0.5

# verts
v -0.1 0.1 -0.7
v -0.1 0.1 -0.8
v -0.1 0.1 -1.2
v -0.1 0.1 -1.3
v -0.1 0.2 -0.6
v -0.1 0.2 -0.7
v -0.1 0.2 -0.8
v -0.1 0.3 0.7
v -0.1 0.3 -0.1
v -0.1 0.3 -0.3
v -0.1 0.3 -0.4
v -0.1 0.3 -0.5
v -0.1 0.3 -0.6
v -0.1 0.3 -0.7
v -0.1 0.3 -0.8
v -0.1 0.3 -1.1
v -0.1 0.4 -0.2
v -0.1 0.4 -0.3
v -0.1 0.4 -0.5
v -0.1 0.4 -0.6
v -0.1 0.4 -0.7
v -0.1 0.4 -0.8
v -0.1 0.4 -1.1
v -0.1 0.5 -0.1
v -0.1 0.5 -0.2
v -0.1 0.5 -0.6
v -0.1 0.5 -0.7
v -0.1 0.5 -0.8
v -0.1 0.6 -0.7
v -0.1 0.6 -0.8
v -0.1 0.7 -0.7
v -0.1 0.7 -0.8
v -0.1 0.8 -0.1
v -0.1 0.8 -0.2
v -0.1 0.8 -0.6
v -0.1 0.8 -0.7
v -0.1 0.8 -0.8
v -0.1 0.9 -0.2
v -0.1 0.9 -0.3
v -0.1 0.9 -0.5
v -0.1 0.9 -0.6
v -0.1 0.9 -0.7
v -0.1 0.9 -0.8
v -0.1 0.9 -1.1
v -0.1 1 0.7
v -0.1 1 -0.1
v -0.1 1 -0.3
v -0.1 1 -0.4
v -0.1 1 -0.5
v -0.1 1 -0.6
v -0.1 1 -0.7
v -0.1 1 -0.8
v -0.1 1 -1.1
v -0.1 1.1 -0.6
v -0.1 1.1 -0.7
v -0.1 1.1 -0.8
v -0.1 1.2 -0.7
v -0.1 1.2 -0.8
v -0.1 1.2 -1.2
v -0.1 1.2 -1.3
v 0 0.1 -0.7
v 0 0.1 -0.8
v 0 0.1 -1.2
v 0 0.1 -1.3
v 0 0.2 -0.6
v 0 0.2 -0.7
v 0 0.2 -0.8
v 0 0.3 0.7
v 0 0.3 -0.1
v 0 0.3 -0.3
v 0 0.3 -0.4
v 0 0.3 -0.5
v 0 0.3 -0.6
v 0 0.3 -0.7
v 0 0.3 -0.8
v 0 0.3 -1.1
v 0 0.4 -0.2
v 0 0.4 -0.3
v 0 0.4 -0.5
v 0 0.4 -0.6
v 0 0.4 -0.7
v 0 0.4 -0.8
v 0 0.4 -1.1
v 0 0.5 -0.1
v 0 0.5 -0.2
v 0 0.5 -0.6
v 0 0.5 -0.7
v 0 0.5 -0.8
v 0 0.6 -0.7
v 0 0.6 -0.8
v 0 0.7 -0.7
v 0 0.7 -0.8
v 0 0.8 -0.1
v 0 0.8 -0.2
v 0 0.8 -0.6
v 0 0.8 -0.7
v 0 0.8 -0.8
v 0 0.9 -0.2
v 0 0.9 -0.3
v 0 0.9 -0.5
v 0 0.9 -0.6
v 0 0.9 -0.7
v 0 0.9 -0.8
v 0 0.9 -1.1
v 0 1 0.7
v 0 1 -0.1
v 0 1 -0.3
v 0 1 -0.4
v 0 1 -0.5
v 0 1 -0.6
v 0 1 -0.7
v 0 1 -0.8
v 0 1 -1.1
v 0 1.1 -0.6
v 0 1.1 -0.7
v 0 1.1 -0.8
v 0 1.2 -0.7
v 0 1.2 -0.8
v 0 1.2 -1.2
v 0 1.2 -1.3
v -0.1 0.3 0.7
v -0.1 1 0.7
v 0 0.3 0.7
v 0 1 0.7
v -0.1 0.4 -0.2
v -0.1 0.5 -0.2
v -0.1 0.8 -0.2
v -0.1 0.9 -0.2
v 0 0.4 -0.2
v 0 0.5 -0.2
v 0 0.8 -0.2
v 0 0.9 -0.2
v -0.1 0.3 -0.3
v -0.1 0.4 -0.3
v -0.1 0.9 -0.3
v -0.1 1 -0.3
v 0 0.3 -0.3
v 0 0.4 -0.3
v 0 0.9 -0.3
v 0 1 -0.3
v -0.1 0.3 -0.5
v -0.1 0.4 -0.5
v -0.1 0.9 -0.5
v -0.1 1 -0.5
v 0 0.3 -0.5
v 0 0.4 -0.5
v 0 0.9 -0.5
v 0 1 -0.5
v -0.1 0.2 -0.6
v -0.1 0.3 -0.6
v -0.1 0.4 -0.6
v -0.1 0.5 -0.6
v -0.1 0.8 -0.6
v -0.1 0.9 -0.6
v -0.1 1 -0.6
v -0.1 1.1 -0.6
v 0 0.2 -0.6
v 0 0.3 -0.6
v 0 0.4 -0.6
v 0 0.5 -0.6
v 0 0.8 -0.6
v 0 0.9 -0.6
v 0 1 -0.6
v 0 1.1 -0.6
v -0.1 0.1 -0.7
v -0.1 0.2 -0.7
v -0.1 0.5 -0.7
v -0.1 0.6 -0.7
v -0.1 0.7 -0.7
v -0.1 0.8 -0.7
v -0.1 1.1 -0.7
v -0.1 1.2 -0.7
v 0 0.1 -0.7
v 0 0.2 -0.7
v 0 0.5 -0.7
v 0 0.6 -0.7
v 0 0.7 -0.7
v 0 0.8 -0.7
v 0 1.1 -0.7
v 0 1.2 -0.7
v -0.1 0.3 -0.8
v -0.1 0.4 -0.8
v -0.1 0.9 -0.8
v -0.1 1 -0.8
v 0 0.3 -0.8
v 0 0.4 -0.8
v 0 0.9 -0.8
v 0 1 -0.8
v -0.1 0.1 -1.2
v -0.1 1.2 -1.2
v 0 0.1 -1.2
v 0 1.2 -1.2
v -0.1 0.3 -0.1
v -0.1 0.5 -0.1
v -0.1 0.8 -0.1
v -0.1 1 -0.1
v 0 0.3 -0.1
v 0 0.5 -0.1
v 0 0.8 -0.1
v 0 1 -0.1
v -0.1 0.3 -0.4
v -0.1 1 -0.4
v 0 0.3 -0.4
v 0 1 -0.4
v -0.1 0.3 -0.6
v -0.1 0.4 -0.6
v -0.1 0.9 -0.6
v -0.1 1 -0.6
v 0 0.3 -0.6
v 0 0.4 -0.6
v 0 0.9 -0.6
v 0 1 -0.6
v -0.1 0.2 -0.7
v -0.1 0.3 -0.7
v -0.1 0.4 -0.7
v -0.1 0.5 -0.7
v -0.1 0.8 -0.7
v -0.1 0.9 -0.7
v -0.1 1 -0.7
v -0.1 1.1 -0.7
v 0 0.2 -0.7
v 0 0.3 -0.7
v 0 0.4 -0.7
v 0 0.5 -0.7
v 0 0.8 -0.7
v 0 0.9 -0.7
v 0 1 -0.7
v 0 1.1 -0.7
v -0.1 0.1 -0.8
v -0.1 0.2 -0.8
v -0.1 0.5 -0.8
v -0.1 0.6 -0.8
v -0.1 0.7 -0.8
v -0.1 0.8 -0.8
v -0.1 1.1 -0.8
v -0.1 1.2 -0.8
v 0 0.1 -0.8
v 0 0.2 -0.8
v 0 0.5 -0.8
v 0 0.6 -0.8
v 0 0.7 -0.8
v 0 0.8 -0.8
v 0 1.1 -0.8
v 0 1.2 -0.8
v -0.1 0.3 -1.1
v -0.1 0.4 -1.1
v -0.1 0.9 -1.1
v -0.1 1 -1.1
v 0 0.3 -1.1
v 0 0.4 -1.1
v 0 0.9 -1.1
v 0 1 -1.1
v -0.1 0.1 -1.3
v -0.1 1.2 -1.3
v 0 0.1 -1.3
v 0 1.2 -1.3
v -0.1 0.1 -0.7
v 0 0.1 -0.7
v -0.1 0.1 -0.8
v 0 0.1 -0.8
v -0.1 0.1 -1.2
v 0 0.1 -1.2
v -0.1 0.1 -1.3
v 0 0.1 -1.3
v -0.1 0.2 -0.6
v 0 0.2 -0.6
v -0.1 0.2 -0.7
v 0 0.2 -0.7
v -0.1 0.3 0.7
v 0 0.3 0.7
v -0.1 0.3 -0.1
v 0 0.3 -0.1
v -0.1 0.3 -0.3
v 0 0.3 -0.3
v -0.1 0.3 -0.4
v 0 0.3 -0.4
v -0.1 0.3 -0.5
v 0 0.3 -0.5
v -0.1 0.3 -0.6
v 0 0.3 -0.6
v -0.1 0.3 -0.8
v 0 0.3 -0.8
v -0.1 0.3 -1.1
v 0 0.3 -1.1
v -0.1 0.4 -0.2
v 0 0.4 -0.2
v -0.1 0.4 -0.3
v 0 0.4 -0.3
v -0.1 0.4 -0.6
v 0 0.4 -0.6
v -0.1 0.4 -0.7
v 0 0.4 -0.7
v -0.1 0.5 -0.1
v 0 0.5 -0.1
v -0.1 0.5 -0.2
v 0 0.5 -0.2
v -0.1 0.5 -0.7
v 0 0.5 -0.7
v -0.1 0.5 -0.8
v 0 0.5 -0.8
v -0.1 0.7 -0.7
v 0 0.7 -0.7
v -0.1 0.7 -0.8
v 0 0.7 -0.8
v -0.1 0.8 -0.6
v 0 0.8 -0.6
v -0.1 0.8 -0.7
v 0 0.8 -0.7
v -0.1 0.9 -0.5
v 0 0.9 -0.5
v -0.1 0.9 -0.6
v 0 0.9 -0.6
v -0.1 0.9 -0.8
v 0 0.9 -0.8
v -0.1 0.9 -1.1
v 0 0.9 -1.1
v -0.1 1 -0.6
v 0 1 -0.6
v -0.1 1 -0.7
v 0 1 -0.7
v -0.1 1.1 -0.7
v 0 1.1 -0.7
v -0.1 1.1 -0.8
v 0 1.1 -0.8
v -0.1 0.2 -0.7
v 0 0.2 -0.7
v -0.1 0.2 -0.8
v 0 0.2 -0.8
v -0.1 0.3 -0.6
v 0 0.3 -0.6
v -0.1 0.3 -0.7
v 0 0.3 -0.7
v -0.1 0.4 -0.5
v 0 0.4 -0.5
v -0.1 0.4 -0.6
v 0 0.4 -0.6
v -0.1 0.4 -0.8
v 0 0.4 -0.8
v -0.1 0.4 -1.1
v 0 0.4 -1.1
v -0.1 0.5 -0.6
v 0 0.5 -0.6
v -0.1 0.5 -0.7
v 0 0.5 -0.7
v -0.1 0.6 -0.7
v 0 0.6 -0.7
v -0.1 0.6 -0.8
v 0 0.6 -0.8
v -0.1 0.8 -0.1
v 0 0.8 -0.1
v -0.1 0.8 -0.2
v 0 0.8 -0.2
v -0.1 0.8 -0.7
v 0 0.8 -0.7
v -0.1 0.8 -0.8
v 0 0.8 -0.8
v -0.1 0.9 -0.2
v 0 0.9 -0.2
v -0.1 0.9 -0.3
v 0 0.9 -0.3
v -0.1 0.9 -0.6
v 0 0.9 -0.6
v -0.1 0.9 -0.7
v 0 0.9 -0.7
v -0.1 1 0.7
v 0 1 0.7
v -0.1 1 -0.1
v 0 1 -0.1
v -0.1 1 -0.3
v 0 1 -0.3
v -0.1 1 -0.4
v 0 1 -0.4
v -0.1 1 -0.5
v 0 1 -0.5
v -0.1 1 -0.6
v 0 1 -0.6
v -0.1 1 -0.8
v 0 1 -0.8
v -0.1 1 -1.1
v 0 1 -1.1
v -0.1 1.1 -0.6
v 0 1.1 -0.6
v -0.1 1.1 -0.7
v 0 1.1 -0.7
v -0.1 1.2 -0.7
v 0 1.2 -0.7
v -0.1 1.2 -0.8
v 0 1.2 -0.8
v -0.1 1.2 -1.2
v 0 1.2 -1.2
v -0.1 1.2 -1.3
v 0 1.2 -1.3

# faces
f 6/1/1 2/1/1 1/1/1
f 7/1/1 2/1/1 6/1/1
f 13/1/1 6/1/1 5/1/1
f 14/1/1 6/1/1 13/1/1
f 18/2/1 11/2/1 10/2/1
f 19/1/1 13/1/1 12/1/1
f 20/1/1 13/1/1 19/1/1
f 22/1/1 16/1/1 15/1/1
f 23/1/1 16/1/1 22/1/1
f 24/2/1 9/2/1 8/2/1
f 25/2/1 18/2/1 17/2/1
f 26/1/1 21/1/1 20/1/1
f 27/1/1 21/1/1 26/1/1
f 29/1/1 28/1/1 27/1/1
f 30/1/1 28/1/1 29/1/1
f 33/2/1 24/2/1 8/2/1
f 33/2/1 25/2/1 24/2/1
f 34/2/1 18/2/1 25/2/1
f 34/2/1 25/2/1 33/2/1
f 36/1/1 32/1/1 31/1/1
f 37/1/1 32/1/1 36/1/1
f 38/2/1 18/2/1 34/2/1
f 39/2/1 11/2/1 18/2/1
f 39/2/1 18/2/1 38/2/1
f 41/1/1 36/1/1 35/1/1
f 42/1/1 36/1/1 41/1/1
f 45/2/1 33/2/1 8/2/1
f 46/2/1 33/2/1 45/2/1
f 47/2/1 11/2/1 39/2/1
f 48/2/1 11/2/1 47/2/1
f 49/1/1 41/1/1 40/1/1
f 50/1/1 41/1/1 49/1/1
f 52/1/1 44/1/1 43/1/1
f 53/1/1 44/1/1 52/1/1
f 54/1/1 51/1/1 50/1/1
f 55/1/1 51/1/1 54/1/1
f 57/1/1 56/1/1 55/1/1
f 58/1/1 56/1/1 57/1/1
f 59/1/1 4/1/1 3/1/1
f 60/1/1 4/1/1 59/1/1
f 61/1/2 62/1/2 66/1/2
f 66/1/2 62/1/2 67/1/2
f 65/1/2 66/1/2 73/1/2
f 73/1/2 66/1/2 74/1/2
f 70/2/2 71/2/2 78/2/2
f 72/1/2 73/1/2 79/1/2
f 79/1/2 73/1/2 80/1/2
f 75/1/2 76/1/2 82/1/2
f 82/1/2 76/1/2 83/1/2
f 68/2/2 69/2/2 84/2/2
f 77/2/2 78/2/2 85/2/2
f 80/1/2 81/1/2 86/1/2
f 86/1/2 81/1/2 87/1/2
f 87/1/2 88/1/2 89/1/2
f 89/1/2 88/1/2 90/1/2
f 68/2/2 84/2/2 93/2/2
f 84/2/2 85/2/2 93/2/2
f 85/2/2 78/2/2 94/2/2
f 93/2/2 85/2/2 94/2/2
f 91/1/2 92/1/2 96/1/2
f 96/1/2 92/1/2 97/1/2
f 94/2/2 78/2/2 98/2/2
f 78/2/2 71/2/2 99/2/2
f 98/2/2 78/2/2 99/2/2
f 95/1/2 96/1/2 101/1/2
f 101/1/2 96/1/2 102/1/2
f 68/2/2 93/2/2 105/2/2
f 105/2/2 93/2/2 106/2/2
f 99/2/2 71/2/2 107/2/2
f 107/2/2 71/2/2 108/2/2
f 100/1/2 101/1/2 109/1/2
f 109/1/2 101/1/2 110/1/2
f 103/1/2 104/1/2 112/1/2
f 112/1/2 104/1/2 113/1/2
f 110/1/2 111/1/2 114/1/2
f 114/1/2 111/1/2 115/1/2
f 115/1/2 116/1/2 117/1/2
f 117/1/2 116/1/2 118/1/2
f 63/1/2 64/1/2 119/1/2
f 119/1/2 64/1/2 120/1/2
f 123/2/3 122/2/3 121/2/3
f 124/2/3 122/2/3 123/2/3
f 129/2/3 126/2/3 125/2/3
f 130/2/3 126/2/3 129/2/3
f 131/2/3 128/2/3 127/2/3
f 132/2/3 128/2/3 131/2/3
f 137/2/3 134/2/3 133/2/3
f 138/2/3 134/2/3 137/2/3
f 139/2/3 136/2/3 135/2/3
f 140/2/3 136/2/3 139/2/3
f 145/1/3 142/1/3 141/1/3
f 146/1/3 142/1/3 145/1/3
f 147/1/3 144/1/3 143/1/3
f 148/1/3 144/1/3 147/1/3
f 157/1/3 150/1/3 149/1/3
f 158/1/3 150/1/3 157/1/3
f 159/1/3 152/1/3 151/1/3
f 160/1/3 152/1/3 159/1/3
f 161/1/3 154/1/3 153/1/3
f 162/1/3 154/1/3 161/1/3
f 163/1/3 156/1/3 155/1/3
f 164/1/3 156/1/3 163/1/3
f 173/1/3 166/1/3 165/1/3
f 174/1/3 166/1/3 173/1/3
f 175/1/3 168/1/3 167/1/3
f 176/1/3 168/1/3 175/1/3
f 177/1/3 170/1/3 169/1/3
f 178/1/3 170/1/3 177/1/3
f 179/1/3 172/1/3 171/1/3
f 180/1/3 172/1/3 179/1/3
f 185/1/3 182/1/3 181/1/3
f 186/1/3 182/1/3 185/1/3
f 187/1/3 184/1/3 183/1/3
f 188/1/3 184/1/3 187/1/3
f 191/1/3 190/1/3 189/1/3
f 192/1/3 190/1/3 191/1/3
f 193/2/4 194/2/4 197/2/4
f 197/2/4 194/2/4 198/2/4
f 195/2/4 196/2/4 199/2/4
f 199/2/4 196/2/4 200/2/4
f 201/2/4 202/2/4 203/2/4
f 203/2/4 202/2/4 204/2/4
f 205/1/4 206/1/4 209/1/4
f 209/1/4 206/1/4 210/1/4
f 207/1/4 208/1/4 211/1/4
f 211/1/4 208/1/4 212/1/4
f 213/1/4 214/1/4 221/1/4
f 221/1/4 214/1/4 222/1/4
f 215/1/4 216/1/4 223/1/4
f 223/1/4 216/1/4 224/1/4
f 217/1/4 218/1/4 225/1/4
f 225/1/4 218/1/4 226/1/4
f 219/1/4 220/1/4 227/1/4
f 227/1/4 220/1/4 228/1/4
f 229/1/4 230/1/4 237/1/4
f 237/1/4 230/1/4 238/1/4
f 231/1/4 232/1/4 239/1/4
f 239/1/4 232/1/4 240/1/4
f 233/1/4 234/1/4 241/1/4
f 241/1/4 234/1/4 242/1/4
f 235/1/4 236/1/4 243/1/4
f 243/1/4 236/1/4 244/1/4
f 245/1/4 246/1/4 249/1/4
f 249/1/4 246/1/4 250/1/4
f 247/1/4 248/1/4 251/1/4
f 251/1/4 248/1/4 252/1/4
f 253/1/4 254/1/4 255/1/4
f 255/1/4 254/1/4 256/1/4
f 259/1/5 258/1/5 257/1/5
f 260/1/5 258/1/5 259/1/5
f 263/1/5 262/1/5 261/1/5
f 264/1/5 262/1/5 263/1/5
f 267/1/5 266/1/5 265/1/5
f 268/1/5 266/1/5 267/1/5
f 271/2/5 270/2/5 269/2/5
f 272/2/5 270/2/5 271/2/5
f 275/2/5 274/2/5 273/2/5
f 276/2/5 274/2/5 275/2/5
f 279/1/5 278/1/5 277/1/5
f 280/1/5 278/1/5 279/1/5
f 283/1/5 282/1/5 281/1/5
f 284/1/5 282/1/5 283/1/5
f 287/2/5 286/2/5 285/2/5
f 288/2/5 286/2/5 287/2/5
f 291/1/5 290/1/5 289/1/5
f 292/1/5 290/1/5 291/1/5
f 295/2/5 294/2/5 293/2/5
f 296/2/5 294/2/5 295/2/5
f 299/1/5 298/1/5 297/1/5
f 300/1/5 298/1/5 299/1/5
f 303/1/5 302/1/5 301/1/5
f 304/1/5 302/1/5 303/1/5
f 307/1/5 306/1/5 305/1/5
f 308/1/5 306/1/5 307/1/5
f 311/1/5 310/1/5 309/1/5
f 312/1/5 310/1/5 311/1/5
f 315/1/5 314/1/5 313/1/5
f 316/1/5 314/1/5 315/1/5
f 319/1/5 318/1/5 317/1/5
f 320/1/5 318/1/5 319/1/5
f 323/1/5 322/1/5 321/1/5
f 324/1/5 322/1/5 323/1/5
f 325/1/6 326/1/6 327/1/6
f 327/1/6 326/1/6 328/1/6
f 329/1/6 330/1/6 331/1/6
f 331/1/6 330/1/6 332/1/6
f 333/1/6 334/1/6 335/1/6
f 335/1/6 334/1/6 336/1/6
f 337/1/6 338/1/6 339/1/6
f 339/1/6 338/1/6 340/1/6
f 341/1/6 342/1/6 343/1/6
f 343/1/6 342/1/6 344/1/6
f 345/1/6 346/1/6 347/1/6
f 347/1/6 346/1/6 348/1/6
f 349/2/6 350/2/6 351/2/6
f 351/2/6 350/2/6 352/2/6
f 353/1/6 354/1/6 355/1/6
f 355/1/6 354/1/6 356/1/6
f 357/2/6 358/2/6 359/2/6
f 359/2/6 358/2/6 360/2/6
f 361/1/6 362/1/6 363/1/6
f 363/1/6 362/1/6 364/1/6
f 365/2/6 366/2/6 367/2/6
f 367/2/6 366/2/6 368/2/6
f 369/2/6 370/2/6 371/2/6
f 371/2/6 370/2/6 372/2/6
f 373/1/6 374/1/6 375/1/6
f 375/1/6 374/1/6 376/1/6
f 377/1/6 378/1/6 379/1/6
f 379/1/6 378/1/6 380/1/6
f 381/1/6 382/1/6 383/1/6
f 383/1/6 382/1/6 384/1/6
f 385/1/6 386/1/6 387/1/6
f 387/1/6 386/1/6 388/1/6
f 389/1/6 390/1/6 391/1/6
f 391/1/6 390/1/6 392/1/6
